[
    {
        "type": "message",
        "subtype": "channel_join",
        "ts": "1584453498.000200",
        "user": "UV10KBUQG",
        "text": "<@UV10KBUQG> has joined the channel"
    },
    {
        "type": "message",
        "subtype": "channel_join",
        "ts": "1584453498.000400",
        "user": "UUWSJTQ67",
        "text": "<@UUWSJTQ67> has joined the channel",
        "inviter": "UV10KBUQG"
    },
    {
        "type": "message",
        "subtype": "channel_purpose",
        "ts": "1584453498.000500",
        "user": "UV10KBUQG",
        "text": "<@UV10KBUQG> set the channel purpose: To focus collaborative efforts in the Chicago area",
        "purpose": "To focus collaborative efforts in the Chicago area"
    },
    {
        "type": "message",
        "subtype": "channel_join",
        "ts": "1584453498.000700",
        "user": "U0100GHS29E",
        "text": "<@U0100GHS29E> has joined the channel",
        "inviter": "UV10KBUQG"
    },
    {
        "type": "message",
        "subtype": "channel_join",
        "ts": "1584453498.000900",
        "user": "U0100LKUPSR",
        "text": "<@U0100LKUPSR> has joined the channel",
        "inviter": "UV10KBUQG"
    },
    {
        "type": "message",
        "subtype": "channel_join",
        "ts": "1584453498.001100",
        "user": "UUNGFHSV8",
        "text": "<@UUNGFHSV8> has joined the channel",
        "inviter": "UV10KBUQG"
    },
    {
        "type": "message",
        "text": "So I know we’re going to try to replicate the DETECTR protocol from Mammoth, but I think it might also be worth trying to get Nested Mango NASBA working too",
        "files": [
            {
                "id": "F01061ATWG0",
                "created": 1584457939,
                "timestamp": 1584457939,
                "name": "NestedMangoNASBA-2019-Abdolahzadeh-rna.072629.119.pdf",
                "title": "NestedMangoNASBA-2019-Abdolahzadeh-rna.072629.119.pdf",
                "mimetype": "application\/pdf",
                "filetype": "pdf",
                "pretty_type": "PDF",
                "user": "UUNGFHSV8",
                "editable": false,
                "size": 521522,
                "mode": "hosted",
                "is_external": false,
                "external_type": "",
                "is_public": true,
                "public_url_shared": false,
                "display_as_bot": false,
                "username": "",
                "url_private": "https:\/\/files.slack.com\/files-pri\/TUU48M0T1-F01061ATWG0\/nestedmangonasba-2019-abdolahzadeh-rna.072629.119.pdf?t=xoxe-980144714919-1031585465028-1034106672247-1815eabca44f30d1d2d966083f8c8bbb",
                "url_private_download": "https:\/\/files.slack.com\/files-pri\/TUU48M0T1-F01061ATWG0\/download\/nestedmangonasba-2019-abdolahzadeh-rna.072629.119.pdf?t=xoxe-980144714919-1031585465028-1034106672247-1815eabca44f30d1d2d966083f8c8bbb",
                "thumb_pdf": "https:\/\/files.slack.com\/files-tmb\/TUU48M0T1-F01061ATWG0-49c374b752\/nestedmangonasba-2019-abdolahzadeh-rna.072629.119_thumb_pdf.png?t=xoxe-980144714919-1031585465028-1034106672247-1815eabca44f30d1d2d966083f8c8bbb",
                "thumb_pdf_w": 935,
                "thumb_pdf_h": 1210,
                "permalink": "https:\/\/open-covid19.slack.com\/files\/UUNGFHSV8\/F01061ATWG0\/nestedmangonasba-2019-abdolahzadeh-rna.072629.119.pdf",
                "permalink_public": "https:\/\/slack-files.com\/TUU48M0T1-F01061ATWG0-bdde0b9913",
                "is_starred": false,
                "has_rich_preview": false
            }
        ],
        "upload": true,
        "blocks": [
            {
                "type": "rich_text",
                "block_id": "ENB",
                "elements": [
                    {
                        "type": "rich_text_section",
                        "elements": [
                            {
                                "type": "text",
                                "text": "So I know we’re going to try to replicate the DETECTR protocol from Mammoth, but I think it might also be worth trying to get Nested Mango NASBA working too"
                            }
                        ]
                    }
                ]
            }
        ],
        "user": "UUNGFHSV8",
        "display_as_bot": false,
        "ts": "1584457941.002000",
        "client_msg_id": "61f1a3a1-a09e-4372-b6c5-a448b6f770dd"
    },
    {
        "client_msg_id": "92fc1ed4-6fe6-49e8-9c22-180b1326b479",
        "type": "message",
        "text": "NASBA enzyme kits from Life Sciences are relatively inexpensive (~$160), and I suspect the primers designed by Mammoth for the RT-LAMP step of the SARS-CoV-2 DETECTR test could be modified and adapted for Nested Mango NASBA",
        "user": "UUNGFHSV8",
        "ts": "1584458102.004000",
        "team": "TUU48M0T1",
        "user_team": "TUU48M0T1",
        "source_team": "TUU48M0T1",
        "user_profile": {
            "avatar_hash": "1c55ee32397a",
            "image_72": "https:\/\/avatars.slack-edge.com\/2020-03-07\/987349161984_1c55ee32397a85a87ec4_72.png",
            "first_name": "Isaac",
            "real_name": "Isaac Larkin",
            "display_name": "Isaac Larkin",
            "team": "TUU48M0T1",
            "name": "eyesmo",
            "is_restricted": false,
            "is_ultra_restricted": false
        },
        "blocks": [
            {
                "type": "rich_text",
                "block_id": "u=k",
                "elements": [
                    {
                        "type": "rich_text_section",
                        "elements": [
                            {
                                "type": "text",
                                "text": "NASBA enzyme kits from Life Sciences are relatively inexpensive (~$160), and I suspect the primers designed by Mammoth for the RT-LAMP step of the SARS-CoV-2 DETECTR test could be modified and adapted for Nested Mango NASBA"
                            }
                        ]
                    }
                ]
            }
        ]
    },
    {
        "client_msg_id": "404628bd-6d95-4d5c-8201-6d2b274e1107",
        "type": "message",
        "text": "<https:\/\/lifesci.com\/shop\/nasba-kits-nasba-products\/nasba-kits-components\/nasba-enzyme-cocktail-wet-mix\/>",
        "user": "UUNGFHSV8",
        "ts": "1584458116.004200",
        "team": "TUU48M0T1",
        "user_team": "TUU48M0T1",
        "source_team": "TUU48M0T1",
        "user_profile": {
            "avatar_hash": "1c55ee32397a",
            "image_72": "https:\/\/avatars.slack-edge.com\/2020-03-07\/987349161984_1c55ee32397a85a87ec4_72.png",
            "first_name": "Isaac",
            "real_name": "Isaac Larkin",
            "display_name": "Isaac Larkin",
            "team": "TUU48M0T1",
            "name": "eyesmo",
            "is_restricted": false,
            "is_ultra_restricted": false
        },
        "attachments": [
            {
                "service_name": "Life Sciences Advanced Technologies",
                "title": "NASBA Enzyme Cocktail (wet mix)",
                "title_link": "https:\/\/lifesci.com\/shop\/nasba-kits-nasba-products\/nasba-kits-components\/nasba-enzyme-cocktail-wet-mix\/",
                "text": "120 uL The Enzyme Cocktail is used in Nucleic Acid Sequence Based Amplifications. NASBA is an isothermal method producing antisense, single-stranded RNA as the major amplification product. This enzyme cocktail is a mixture, consisting of Avian Myeloblastosis Virus Reverse Transcriptase, RNase H and T7 RNA Polymerase. One vial is enough for 24 reactions at 5 µL",
                "fallback": "Life Sciences Advanced Technologies: NASBA Enzyme Cocktail (wet mix)",
                "image_url": "https:\/\/lifesci.com\/wp-content\/uploads\/2014\/06\/product-images9.jpg",
                "image_width": 250,
                "image_height": 250,
                "from_url": "https:\/\/lifesci.com\/shop\/nasba-kits-nasba-products\/nasba-kits-components\/nasba-enzyme-cocktail-wet-mix\/",
                "image_bytes": 44914,
                "service_icon": "https:\/\/lifesci.com\/wp-content\/uploads\/2018\/02\/favicon-1.jpg",
                "id": 1,
                "original_url": "https:\/\/lifesci.com\/shop\/nasba-kits-nasba-products\/nasba-kits-components\/nasba-enzyme-cocktail-wet-mix\/"
            }
        ],
        "blocks": [
            {
                "type": "rich_text",
                "block_id": "44W\/9",
                "elements": [
                    {
                        "type": "rich_text_section",
                        "elements": [
                            {
                                "type": "link",
                                "url": "https:\/\/lifesci.com\/shop\/nasba-kits-nasba-products\/nasba-kits-components\/nasba-enzyme-cocktail-wet-mix\/"
                            }
                        ]
                    }
                ]
            }
        ]
    },
    {
        "client_msg_id": "AABC9A3D-206F-4E27-B04A-A634778DC73A",
        "type": "message",
        "text": "Looks interesting. I haven’t delved into this protocol yet. I am meeting w Chris today at 1 pm you should join",
        "user": "U0100LKUPSR",
        "ts": "1584458260.005800",
        "team": "TUU48M0T1",
        "user_team": "TUU48M0T1",
        "source_team": "TUU48M0T1",
        "user_profile": {
            "avatar_hash": "ca5f4a765adc",
            "image_72": "https:\/\/avatars.slack-edge.com\/2020-03-14\/1002916890614_ca5f4a765adc40eda476_72.png",
            "first_name": "Sonali",
            "real_name": "Sonali",
            "display_name": "Sonali",
            "team": "TUU48M0T1",
            "name": "uncoolghoul",
            "is_restricted": false,
            "is_ultra_restricted": false
        },
        "blocks": [
            {
                "type": "rich_text",
                "block_id": "fgF",
                "elements": [
                    {
                        "type": "rich_text_section",
                        "elements": [
                            {
                                "type": "text",
                                "text": "Looks interesting. I haven’t delved into this protocol yet. I am meeting w Chris today at 1 pm you should join"
                            }
                        ]
                    }
                ]
            }
        ]
    },
    {
        "type": "message",
        "subtype": "channel_join",
        "ts": "1584458691.006000",
        "user": "UV78JAX0S",
        "text": "<@UV78JAX0S> has joined the channel"
    },
    {
        "client_msg_id": "cfecb5ad-21d9-48ed-9931-2abb8e3d2f89",
        "type": "message",
        "text": "Hello fellow Chicagoans - this stuff is in my wheelhouse. How can I help?",
        "user": "UV78JAX0S",
        "ts": "1584459641.006500",
        "team": "TUU48M0T1",
        "user_team": "TUU48M0T1",
        "source_team": "TUU48M0T1",
        "user_profile": {
            "avatar_hash": "ab643489965e",
            "image_72": "https:\/\/avatars.slack-edge.com\/2020-03-17\/996174739571_ab643489965e0031c49d_72.png",
            "first_name": "Khalid",
            "real_name": "Khalid K. Alam",
            "display_name": "Khalid K. Alam",
            "team": "TUU48M0T1",
            "name": "khalid",
            "is_restricted": false,
            "is_ultra_restricted": false
        },
        "blocks": [
            {
                "type": "rich_text",
                "block_id": "P9isA",
                "elements": [
                    {
                        "type": "rich_text_section",
                        "elements": [
                            {
                                "type": "text",
                                "text": "Hello fellow Chicagoans - this stuff is in my wheelhouse. How can I help?"
                            }
                        ]
                    }
                ]
            }
        ]
    },
    {
        "client_msg_id": "efa4571f-3b3e-447a-9bf7-0599bca08be5",
        "type": "message",
        "text": "I have constructs for T7 RNA pol expression (His-tag purification). My collaborator at GA Tech, who has worked with Cas13 (SHERLOCK) is looking into what he can send (protein\/plasmids). I think I also have Mango and other fluorescent aptamer constructs that I can share but would need to be recloned into other vectors",
        "user": "UV78JAX0S",
        "ts": "1584459730.008700",
        "team": "TUU48M0T1",
        "user_team": "TUU48M0T1",
        "source_team": "TUU48M0T1",
        "user_profile": {
            "avatar_hash": "ab643489965e",
            "image_72": "https:\/\/avatars.slack-edge.com\/2020-03-17\/996174739571_ab643489965e0031c49d_72.png",
            "first_name": "Khalid",
            "real_name": "Khalid K. Alam",
            "display_name": "Khalid K. Alam",
            "team": "TUU48M0T1",
            "name": "khalid",
            "is_restricted": false,
            "is_ultra_restricted": false
        },
        "blocks": [
            {
                "type": "rich_text",
                "block_id": "z29r",
                "elements": [
                    {
                        "type": "rich_text_section",
                        "elements": [
                            {
                                "type": "text",
                                "text": "I have constructs for T7 RNA pol expression (His-tag purification). My collaborator at GA Tech, who has worked with Cas13 (SHERLOCK) is looking into what he can send (protein\/plasmids). I think I also have Mango and other fluorescent aptamer constructs that I can share but would need to be recloned into other vectors"
                            }
                        ]
                    }
                ]
            }
        ]
    },
    {
        "client_msg_id": "db492d72-174d-4ea4-9cc0-fd5a2df26837",
        "type": "message",
        "text": "Hi <@UV78JAX0S> We are going to start making detection kits at BioBlaze\/Lizzy Blossom in West Chicago. You are welcome!",
        "user": "UV10KBUQG",
        "ts": "1584459776.010100",
        "team": "TUU48M0T1",
        "user_team": "TUU48M0T1",
        "source_team": "TUU48M0T1",
        "user_profile": {
            "avatar_hash": "2deebbf6be3d",
            "image_72": "https:\/\/avatars.slack-edge.com\/2020-03-06\/976932190641_2deebbf6be3d17141d91_72.jpg",
            "first_name": "Sarah",
            "real_name": "Sarah Blossom Ware",
            "display_name": "Sarah Blossom Ware - Founder of BioBlaze Community Bio Lab and Geneticist",
            "team": "TUU48M0T1",
            "name": "ware.sarah",
            "is_restricted": false,
            "is_ultra_restricted": false
        },
        "blocks": [
            {
                "type": "rich_text",
                "block_id": "bKCZf",
                "elements": [
                    {
                        "type": "rich_text_section",
                        "elements": [
                            {
                                "type": "text",
                                "text": "Hi "
                            },
                            {
                                "type": "user",
                                "user_id": "UV78JAX0S"
                            },
                            {
                                "type": "text",
                                "text": " We are going to start making detection kits at BioBlaze\/Lizzy Blossom in West Chicago. You are welcome!"
                            }
                        ]
                    }
                ]
            }
        ]
    },
    {
        "client_msg_id": "d950efc0-949c-4a57-a180-4b8cb160464c",
        "type": "message",
        "text": "do you all have a plan in place for restricted laboratory access\/social distancing?",
        "user": "UV78JAX0S",
        "ts": "1584459822.011300",
        "team": "TUU48M0T1",
        "user_team": "TUU48M0T1",
        "source_team": "TUU48M0T1",
        "user_profile": {
            "avatar_hash": "ab643489965e",
            "image_72": "https:\/\/avatars.slack-edge.com\/2020-03-17\/996174739571_ab643489965e0031c49d_72.png",
            "first_name": "Khalid",
            "real_name": "Khalid K. Alam",
            "display_name": "Khalid K. Alam",
            "team": "TUU48M0T1",
            "name": "khalid",
            "is_restricted": false,
            "is_ultra_restricted": false
        },
        "blocks": [
            {
                "type": "rich_text",
                "block_id": "OS0B7",
                "elements": [
                    {
                        "type": "rich_text_section",
                        "elements": [
                            {
                                "type": "text",
                                "text": "do you all have a plan in place for restricted laboratory access\/social distancing?"
                            }
                        ]
                    }
                ]
            }
        ]
    },
    {
        "client_msg_id": "d15c1ea0-edca-483c-94b7-bf3aad04ca8b",
        "type": "message",
        "text": "The -80 is plugged in!",
        "user": "UV10KBUQG",
        "ts": "1584459827.011500",
        "team": "TUU48M0T1",
        "user_team": "TUU48M0T1",
        "source_team": "TUU48M0T1",
        "user_profile": {
            "avatar_hash": "2deebbf6be3d",
            "image_72": "https:\/\/avatars.slack-edge.com\/2020-03-06\/976932190641_2deebbf6be3d17141d91_72.jpg",
            "first_name": "Sarah",
            "real_name": "Sarah Blossom Ware",
            "display_name": "Sarah Blossom Ware - Founder of BioBlaze Community Bio Lab and Geneticist",
            "team": "TUU48M0T1",
            "name": "ware.sarah",
            "is_restricted": false,
            "is_ultra_restricted": false
        },
        "blocks": [
            {
                "type": "rich_text",
                "block_id": "avqF",
                "elements": [
                    {
                        "type": "rich_text_section",
                        "elements": [
                            {
                                "type": "text",
                                "text": "The -80 is plugged in!"
                            }
                        ]
                    }
                ]
            }
        ]
    },
    {
        "client_msg_id": "77f2b6db-ff56-4679-8d28-80d5cc5eda82",
        "type": "message",
        "text": "There are only 3 keys",
        "user": "UV10KBUQG",
        "ts": "1584459838.011900",
        "team": "TUU48M0T1",
        "user_team": "TUU48M0T1",
        "source_team": "TUU48M0T1",
        "user_profile": {
            "avatar_hash": "2deebbf6be3d",
            "image_72": "https:\/\/avatars.slack-edge.com\/2020-03-06\/976932190641_2deebbf6be3d17141d91_72.jpg",
            "first_name": "Sarah",
            "real_name": "Sarah Blossom Ware",
            "display_name": "Sarah Blossom Ware - Founder of BioBlaze Community Bio Lab and Geneticist",
            "team": "TUU48M0T1",
            "name": "ware.sarah",
            "is_restricted": false,
            "is_ultra_restricted": false
        },
        "blocks": [
            {
                "type": "rich_text",
                "block_id": "Dk4O",
                "elements": [
                    {
                        "type": "rich_text_section",
                        "elements": [
                            {
                                "type": "text",
                                "text": "There are only 3 keys"
                            }
                        ]
                    }
                ]
            }
        ]
    },
    {
        "client_msg_id": "f4e4be74-f002-4d79-969e-b08936bb7fde",
        "type": "message",
        "text": "Sarah - what are you hoping to build re: detection kits?",
        "user": "UV78JAX0S",
        "ts": "1584460166.012300",
        "team": "TUU48M0T1",
        "user_team": "TUU48M0T1",
        "source_team": "TUU48M0T1",
        "user_profile": {
            "avatar_hash": "ab643489965e",
            "image_72": "https:\/\/avatars.slack-edge.com\/2020-03-17\/996174739571_ab643489965e0031c49d_72.png",
            "first_name": "Khalid",
            "real_name": "Khalid K. Alam",
            "display_name": "Khalid K. Alam",
            "team": "TUU48M0T1",
            "name": "khalid",
            "is_restricted": false,
            "is_ultra_restricted": false
        },
        "blocks": [
            {
                "type": "rich_text",
                "block_id": "lLw",
                "elements": [
                    {
                        "type": "rich_text_section",
                        "elements": [
                            {
                                "type": "text",
                                "text": "Sarah - what are you hoping to build re: detection kits?"
                            }
                        ]
                    }
                ]
            }
        ]
    },
    {
        "client_msg_id": "1b8acfcb-9473-4664-a0ac-d0090e4b3350",
        "type": "message",
        "text": "<@UV78JAX0S> has your collaborator done any work with Cas12a\/DETECTR?",
        "user": "UUNGFHSV8",
        "ts": "1584460650.012800",
        "team": "TUU48M0T1",
        "user_team": "TUU48M0T1",
        "source_team": "TUU48M0T1",
        "user_profile": {
            "avatar_hash": "1c55ee32397a",
            "image_72": "https:\/\/avatars.slack-edge.com\/2020-03-07\/987349161984_1c55ee32397a85a87ec4_72.png",
            "first_name": "Isaac",
            "real_name": "Isaac Larkin",
            "display_name": "Isaac Larkin",
            "team": "TUU48M0T1",
            "name": "eyesmo",
            "is_restricted": false,
            "is_ultra_restricted": false
        },
        "blocks": [
            {
                "type": "rich_text",
                "block_id": "4Oa",
                "elements": [
                    {
                        "type": "rich_text_section",
                        "elements": [
                            {
                                "type": "user",
                                "user_id": "UV78JAX0S"
                            },
                            {
                                "type": "text",
                                "text": " has your collaborator done any work with Cas12a\/DETECTR?"
                            }
                        ]
                    }
                ]
            }
        ]
    },
    {
        "client_msg_id": "b6e888bf-e8bc-4b68-bf84-98e0774d9185",
        "type": "message",
        "text": "Hoping to replicate the DETECTR protocol from Mammoth. See Isaac's post above. Maybe other protocols as well.",
        "user": "UV10KBUQG",
        "ts": "1584460748.014300",
        "team": "TUU48M0T1",
        "user_team": "TUU48M0T1",
        "source_team": "TUU48M0T1",
        "user_profile": {
            "avatar_hash": "2deebbf6be3d",
            "image_72": "https:\/\/avatars.slack-edge.com\/2020-03-06\/976932190641_2deebbf6be3d17141d91_72.jpg",
            "first_name": "Sarah",
            "real_name": "Sarah Blossom Ware",
            "display_name": "Sarah Blossom Ware - Founder of BioBlaze Community Bio Lab and Geneticist",
            "team": "TUU48M0T1",
            "name": "ware.sarah",
            "is_restricted": false,
            "is_ultra_restricted": false
        },
        "blocks": [
            {
                "type": "rich_text",
                "block_id": "4WyT",
                "elements": [
                    {
                        "type": "rich_text_section",
                        "elements": [
                            {
                                "type": "text",
                                "text": "Hoping to replicate the DETECTR protocol from Mammoth. See Isaac's post above. Maybe other protocols as well."
                            }
                        ]
                    }
                ]
            }
        ]
    },
    {
        "client_msg_id": "0d662b8a-b988-43a6-b232-17ae107b9d0d",
        "type": "message",
        "text": "do you have Cas12?",
        "user": "UV78JAX0S",
        "ts": "1584461707.014500",
        "team": "TUU48M0T1",
        "user_team": "TUU48M0T1",
        "source_team": "TUU48M0T1",
        "user_profile": {
            "avatar_hash": "ab643489965e",
            "image_72": "https:\/\/avatars.slack-edge.com\/2020-03-17\/996174739571_ab643489965e0031c49d_72.png",
            "first_name": "Khalid",
            "real_name": "Khalid K. Alam",
            "display_name": "Khalid K. Alam",
            "team": "TUU48M0T1",
            "name": "khalid",
            "is_restricted": false,
            "is_ultra_restricted": false
        },
        "blocks": [
            {
                "type": "rich_text",
                "block_id": "qnx5x",
                "elements": [
                    {
                        "type": "rich_text_section",
                        "elements": [
                            {
                                "type": "text",
                                "text": "do you have Cas12?"
                            }
                        ]
                    }
                ]
            }
        ]
    },
    {
        "client_msg_id": "44571221-3fc0-4ffa-9f0b-2289bc039d9d",
        "type": "message",
        "text": "<@UUNGFHSV8> it's Phil Santangelo at GA tech. I believe he's done work with Cas12 and Cas13. Waiting for him to check his stocks and see what he has available.",
        "user": "UV78JAX0S",
        "ts": "1584461751.015400",
        "team": "TUU48M0T1",
        "user_team": "TUU48M0T1",
        "source_team": "TUU48M0T1",
        "user_profile": {
            "avatar_hash": "ab643489965e",
            "image_72": "https:\/\/avatars.slack-edge.com\/2020-03-17\/996174739571_ab643489965e0031c49d_72.png",
            "first_name": "Khalid",
            "real_name": "Khalid K. Alam",
            "display_name": "Khalid K. Alam",
            "team": "TUU48M0T1",
            "name": "khalid",
            "is_restricted": false,
            "is_ultra_restricted": false
        },
        "blocks": [
            {
                "type": "rich_text",
                "block_id": "pusdH",
                "elements": [
                    {
                        "type": "rich_text_section",
                        "elements": [
                            {
                                "type": "user",
                                "user_id": "UUNGFHSV8"
                            },
                            {
                                "type": "text",
                                "text": " it's Phil Santangelo at GA tech. I believe he's done work with Cas12 and Cas13. Waiting for him to check his stocks and see what he has available."
                            }
                        ]
                    }
                ]
            }
        ]
    },
    {
        "client_msg_id": "e8943f74-2a91-49d8-a59d-d6c2740c9abc",
        "type": "message",
        "text": "worth clarifying that the DETECTR protocol is not from Mammoth, but rather the Doudna lab at Cal. Mammoth has the license to develop the technology for commercial purposes.",
        "user": "UV78JAX0S",
        "ts": "1584461845.016200",
        "team": "TUU48M0T1",
        "user_team": "TUU48M0T1",
        "source_team": "TUU48M0T1",
        "user_profile": {
            "avatar_hash": "ab643489965e",
            "image_72": "https:\/\/avatars.slack-edge.com\/2020-03-17\/996174739571_ab643489965e0031c49d_72.png",
            "first_name": "Khalid",
            "real_name": "Khalid K. Alam",
            "display_name": "Khalid K. Alam",
            "team": "TUU48M0T1",
            "name": "khalid",
            "is_restricted": false,
            "is_ultra_restricted": false
        },
        "blocks": [
            {
                "type": "rich_text",
                "block_id": "3yF",
                "elements": [
                    {
                        "type": "rich_text_section",
                        "elements": [
                            {
                                "type": "text",
                                "text": "worth clarifying that the DETECTR protocol is not from Mammoth, but rather the Doudna lab at Cal. Mammoth has the license to develop the technology for commercial purposes."
                            }
                        ]
                    }
                ]
            }
        ]
    },
    {
        "client_msg_id": "4fdd1c57-7ca2-4eac-8539-e020d17541dc",
        "type": "message",
        "text": "Isaac - a more direct answer to your question is yes. He has worked on DETECTR and SHERLOCK",
        "user": "UV78JAX0S",
        "ts": "1584461918.017000",
        "team": "TUU48M0T1",
        "user_team": "TUU48M0T1",
        "source_team": "TUU48M0T1",
        "user_profile": {
            "avatar_hash": "ab643489965e",
            "image_72": "https:\/\/avatars.slack-edge.com\/2020-03-17\/996174739571_ab643489965e0031c49d_72.png",
            "first_name": "Khalid",
            "real_name": "Khalid K. Alam",
            "display_name": "Khalid K. Alam",
            "team": "TUU48M0T1",
            "name": "khalid",
            "is_restricted": false,
            "is_ultra_restricted": false
        },
        "blocks": [
            {
                "type": "rich_text",
                "block_id": "4D1",
                "elements": [
                    {
                        "type": "rich_text_section",
                        "elements": [
                            {
                                "type": "text",
                                "text": "Isaac - a more direct answer to your question is yes. He has worked on DETECTR and SHERLOCK"
                            }
                        ]
                    }
                ]
            }
        ]
    },
    {
        "client_msg_id": "E5B2913E-8FB6-4EB8-8024-0FE0ED6C93C1",
        "type": "message",
        "text": "<@UV78JAX0S> DETECTR was developed in Doudna lab yes, but the specific protocol we’re trying to replicate was published as a white paper by Mammoth <https:\/\/mammoth.bio\/wp-content\/uploads\/2020\/03\/Mammoth-Biosciences-A-protocol-for-rapid-detection-of-SARS-CoV-2-using-CRISPR-diagnostics-DETECTR.pdf|https:\/\/mammoth.bio\/wp-content\/uploads\/2020\/03\/Mammoth-Biosciences-A-protocol-for-rapid-detection-of-SARS-CoV-2-using-CRISPR-diagnostics-DETECTR.pdf>",
        "user": "UUNGFHSV8",
        "ts": "1584464440.018900",
        "team": "TUU48M0T1",
        "user_team": "TUU48M0T1",
        "source_team": "TUU48M0T1",
        "user_profile": {
            "avatar_hash": "1c55ee32397a",
            "image_72": "https:\/\/avatars.slack-edge.com\/2020-03-07\/987349161984_1c55ee32397a85a87ec4_72.png",
            "first_name": "Isaac",
            "real_name": "Isaac Larkin",
            "display_name": "Isaac Larkin",
            "team": "TUU48M0T1",
            "name": "eyesmo",
            "is_restricted": false,
            "is_ultra_restricted": false
        },
        "blocks": [
            {
                "type": "rich_text",
                "block_id": "AW30",
                "elements": [
                    {
                        "type": "rich_text_section",
                        "elements": [
                            {
                                "type": "user",
                                "user_id": "UV78JAX0S"
                            },
                            {
                                "type": "text",
                                "text": " DETECTR was developed in Doudna lab yes, but the specific protocol we’re trying to replicate was published as a white paper by Mammoth "
                            },
                            {
                                "type": "link",
                                "url": "https:\/\/mammoth.bio\/wp-content\/uploads\/2020\/03\/Mammoth-Biosciences-A-protocol-for-rapid-detection-of-SARS-CoV-2-using-CRISPR-diagnostics-DETECTR.pdf",
                                "text": "https:\/\/mammoth.bio\/wp-content\/uploads\/2020\/03\/Mammoth-Biosciences-A-protocol-for-rapid-detection-of-SARS-CoV-2-using-CRISPR-diagnostics-DETECTR.pdf"
                            }
                        ]
                    }
                ]
            }
        ]
    },
    {
        "client_msg_id": "d9b1d668-78af-4d30-8815-ff62055b77c0",
        "type": "message",
        "text": "QUASR design doc <https:\/\/docs.google.com\/document\/d\/1vsmJhNfPiVEhinoacU7ZL8kKkRxrMx2GbWL3PL-iWBw\/edit>",
        "user": "UUNGFHSV8",
        "ts": "1584476580.000300",
        "team": "TUU48M0T1",
        "user_team": "TUU48M0T1",
        "source_team": "TUU48M0T1",
        "user_profile": {
            "avatar_hash": "1c55ee32397a",
            "image_72": "https:\/\/avatars.slack-edge.com\/2020-03-07\/987349161984_1c55ee32397a85a87ec4_72.png",
            "first_name": "Isaac",
            "real_name": "Isaac Larkin",
            "display_name": "Isaac Larkin",
            "team": "TUU48M0T1",
            "name": "eyesmo",
            "is_restricted": false,
            "is_ultra_restricted": false
        },
        "blocks": [
            {
                "type": "rich_text",
                "block_id": "MyFG\/",
                "elements": [
                    {
                        "type": "rich_text_section",
                        "elements": [
                            {
                                "type": "text",
                                "text": "QUASR design doc "
                            },
                            {
                                "type": "link",
                                "url": "https:\/\/docs.google.com\/document\/d\/1vsmJhNfPiVEhinoacU7ZL8kKkRxrMx2GbWL3PL-iWBw\/edit"
                            }
                        ]
                    }
                ]
            }
        ]
    },
    {
        "client_msg_id": "6d12f3ee-925b-4f81-8818-2e1075441f77",
        "type": "message",
        "text": "And open-access QUASR example paper <https:\/\/www.nature.com\/articles\/srep44778>",
        "user": "UUNGFHSV8",
        "ts": "1584477033.000900",
        "team": "TUU48M0T1",
        "user_team": "TUU48M0T1",
        "source_team": "TUU48M0T1",
        "user_profile": {
            "avatar_hash": "1c55ee32397a",
            "image_72": "https:\/\/avatars.slack-edge.com\/2020-03-07\/987349161984_1c55ee32397a85a87ec4_72.png",
            "first_name": "Isaac",
            "real_name": "Isaac Larkin",
            "display_name": "Isaac Larkin",
            "team": "TUU48M0T1",
            "name": "eyesmo",
            "is_restricted": false,
            "is_ultra_restricted": false
        },
        "attachments": [
            {
                "service_name": "Scientific Reports",
                "title": "A smartphone-based diagnostic platform for rapid detection of Zika, ch",
                "title_link": "https:\/\/www.nature.com\/articles\/srep44778",
                "text": "A smartphone-based diagnostic platform for rapid detection of Zika, chikungunya, and dengue viruses",
                "fallback": "Scientific Reports: A smartphone-based diagnostic platform for rapid detection of Zika, ch",
                "thumb_url": "https:\/\/media.springernature.com\/full\/springer-static\/image\/art%3A10.1038%2Fsrep44778\/MediaObjects\/41598_2017_Article_BFsrep44778_Fig1_HTML.jpg",
                "from_url": "https:\/\/www.nature.com\/articles\/srep44778",
                "thumb_width": 1575,
                "thumb_height": 802,
                "id": 1,
                "original_url": "https:\/\/www.nature.com\/articles\/srep44778"
            }
        ],
        "blocks": [
            {
                "type": "rich_text",
                "block_id": "c5I",
                "elements": [
                    {
                        "type": "rich_text_section",
                        "elements": [
                            {
                                "type": "text",
                                "text": "And open-access QUASR example paper "
                            },
                            {
                                "type": "link",
                                "url": "https:\/\/www.nature.com\/articles\/srep44778"
                            }
                        ]
                    }
                ]
            }
        ]
    },
    {
        "type": "message",
        "subtype": "channel_join",
        "ts": "1584484818.000200",
        "user": "U01009BMH52",
        "text": "<@U01009BMH52> has joined the channel",
        "inviter": "UV10KBUQG"
    },
    {
        "client_msg_id": "79ca90f6-da53-48d1-a778-bc8508913f23",
        "type": "message",
        "text": "<https:\/\/synthace.com\/blog\/2020\/3\/17\/synthace-our-prioritised-response-to-covid-19>",
        "user": "UUNGFHSV8",
        "ts": "1584485927.000500",
        "team": "TUU48M0T1",
        "user_team": "TUU48M0T1",
        "source_team": "TUU48M0T1",
        "user_profile": {
            "avatar_hash": "1c55ee32397a",
            "image_72": "https:\/\/avatars.slack-edge.com\/2020-03-07\/987349161984_1c55ee32397a85a87ec4_72.png",
            "first_name": "Isaac",
            "real_name": "Isaac Larkin",
            "display_name": "Isaac Larkin",
            "team": "TUU48M0T1",
            "name": "eyesmo",
            "is_restricted": false,
            "is_ultra_restricted": false
        },
        "attachments": [
            {
                "service_name": "Synthace",
                "title": "Synthace release software for free for teams working to overcome the COVID-19 pandemic — Synthace",
                "title_link": "https:\/\/synthace.com\/blog\/2020\/3\/17\/synthace-our-prioritised-response-to-covid-19",
                "text": "We are offering our Antha software ‘pro-bono’ to any teams working on COVID-19 therapeutics discovery, diagnostics or production optimization.",
                "fallback": "Synthace: Synthace release software for free for teams working to overcome the COVID-19 pandemic — Synthace",
                "thumb_url": "http:\/\/static1.squarespace.com\/static\/5af46322620b851d41f3f64f\/t\/5e70d82f11830728f2369086\/1584453680495\/Synthace_Stacked_PT7458.png?format=1500w",
                "from_url": "https:\/\/synthace.com\/blog\/2020\/3\/17\/synthace-our-prioritised-response-to-covid-19",
                "thumb_width": 339,
                "thumb_height": 338,
                "service_icon": "https:\/\/images.squarespace-cdn.com\/content\/v1\/5af46322620b851d41f3f64f\/1551976580767-GRLSEA3NR996ZYL2K5XG\/ke17ZwdGBToddI8pDm48kJycfsYb1urLU93EpFqOTQmoCXeSvxnTEQmG4uwOsdIceAoHiyRoc52GMN5_2H8Wp7zww8OjRrqjaM7_0x6HDLp42EP6IAa5vAmscK3sHI4MkNL5tmfZ3otlI9yi1IzH2Q\/favicon.ico",
                "id": 1,
                "original_url": "https:\/\/synthace.com\/blog\/2020\/3\/17\/synthace-our-prioritised-response-to-covid-19"
            }
        ],
        "blocks": [
            {
                "type": "rich_text",
                "block_id": "lWiM",
                "elements": [
                    {
                        "type": "rich_text_section",
                        "elements": [
                            {
                                "type": "link",
                                "url": "https:\/\/synthace.com\/blog\/2020\/3\/17\/synthace-our-prioritised-response-to-covid-19"
                            }
                        ]
                    }
                ]
            }
        ]
    },
    {
        "client_msg_id": "b39480f3-2606-4472-9c06-0801d1bc6630",
        "type": "message",
        "text": "<https:\/\/www.ginkgobioworks.com\/2020\/03\/17\/ginkgo-commits-25m-of-free-access-to-our-platform-for-partner-covid-19-projects\/>",
        "user": "UUNGFHSV8",
        "ts": "1584485950.000800",
        "team": "TUU48M0T1",
        "user_team": "TUU48M0T1",
        "source_team": "TUU48M0T1",
        "user_profile": {
            "avatar_hash": "1c55ee32397a",
            "image_72": "https:\/\/avatars.slack-edge.com\/2020-03-07\/987349161984_1c55ee32397a85a87ec4_72.png",
            "first_name": "Isaac",
            "real_name": "Isaac Larkin",
            "display_name": "Isaac Larkin",
            "team": "TUU48M0T1",
            "name": "eyesmo",
            "is_restricted": false,
            "is_ultra_restricted": false
        },
        "attachments": [
            {
                "service_name": "Ginkgo Bioworks",
                "title": "Ginkgo commits $25M of free access to our platform for partner COVID-19 projects - Ginkgo Bioworks",
                "title_link": "https:\/\/www.ginkgobioworks.com\/2020\/03\/17\/ginkgo-commits-25m-of-free-access-to-our-platform-for-partner-covid-19-projects\/",
                "text": "We’re inspired and heartened by the tremendous public health response to COVID-19, and recognize that a similar scale of effort is needed by the biotech community to find long-term solutions to this crisis. Former FDA commissioner Scott Gottlieb said today: “We must get a drug and eventually vaccine. We can have treatments, antibody prophylaxis, point …",
                "fallback": "Ginkgo Bioworks: Ginkgo commits $25M of free access to our platform for partner COVID-19 projects - Ginkgo Bioworks",
                "thumb_url": "https:\/\/www.ginkgobioworks.com\/wp-content\/uploads\/2020\/03\/Ginkgo_product16128-1024x768.jpg",
                "ts": 1584456299,
                "from_url": "https:\/\/www.ginkgobioworks.com\/2020\/03\/17\/ginkgo-commits-25m-of-free-access-to-our-platform-for-partner-covid-19-projects\/",
                "thumb_width": 1024,
                "thumb_height": 768,
                "service_icon": "https:\/\/www.ginkgobioworks.com\/apple-touch-icon-57x57.png",
                "id": 1,
                "original_url": "https:\/\/www.ginkgobioworks.com\/2020\/03\/17\/ginkgo-commits-25m-of-free-access-to-our-platform-for-partner-covid-19-projects\/"
            }
        ],
        "blocks": [
            {
                "type": "rich_text",
                "block_id": "h7xJr",
                "elements": [
                    {
                        "type": "rich_text_section",
                        "elements": [
                            {
                                "type": "link",
                                "url": "https:\/\/www.ginkgobioworks.com\/2020\/03\/17\/ginkgo-commits-25m-of-free-access-to-our-platform-for-partner-covid-19-projects\/"
                            }
                        ]
                    }
                ]
            }
        ]
    },
    {
        "client_msg_id": "4002925f-1cc3-459e-9cb6-e078eacfbb9b",
        "type": "message",
        "text": "So <@U01009BMH52> will send us a plasmid that contains the entire viral sequence minus the RNP coding sequence to use as a positive control.  Without the RNP coding sequence, the virus cannot self-assemble and therefore cannot be infectious.",
        "user": "UV10KBUQG",
        "ts": "1584488844.006800",
        "team": "TUU48M0T1",
        "user_team": "TUU48M0T1",
        "source_team": "TUU48M0T1",
        "user_profile": {
            "avatar_hash": "2deebbf6be3d",
            "image_72": "https:\/\/avatars.slack-edge.com\/2020-03-06\/976932190641_2deebbf6be3d17141d91_72.jpg",
            "first_name": "Sarah",
            "real_name": "Sarah Blossom Ware",
            "display_name": "Sarah Blossom Ware - Founder of BioBlaze Community Bio Lab and Geneticist",
            "team": "TUU48M0T1",
            "name": "ware.sarah",
            "is_restricted": false,
            "is_ultra_restricted": false
        },
        "blocks": [
            {
                "type": "rich_text",
                "block_id": "ckz",
                "elements": [
                    {
                        "type": "rich_text_section",
                        "elements": [
                            {
                                "type": "text",
                                "text": "So "
                            },
                            {
                                "type": "user",
                                "user_id": "U01009BMH52"
                            },
                            {
                                "type": "text",
                                "text": " will send us a plasmid that contains the entire viral sequence minus the RNP coding sequence to use as a positive control.  Without the RNP coding sequence, the virus cannot self-assemble and therefore cannot be infectious."
                            }
                        ]
                    }
                ]
            }
        ],
        "reactions": [
            {
                "name": "open_mouth",
                "users": [
                    "UUWSJTQ67"
                ],
                "count": 1
            }
        ]
    },
    {
        "client_msg_id": "f61c169a-0a54-4dc1-86f1-1540f37bf84b",
        "type": "message",
        "text": "that seems problematic. Another way to think about it is that all it takes it one cloning step to make an infectious, replication competent particle",
        "user": "UV78JAX0S",
        "ts": "1584494031.007700",
        "team": "TUU48M0T1",
        "user_team": "TUU48M0T1",
        "source_team": "TUU48M0T1",
        "user_profile": {
            "avatar_hash": "ab643489965e",
            "image_72": "https:\/\/avatars.slack-edge.com\/2020-03-17\/996174739571_ab643489965e0031c49d_72.png",
            "first_name": "Khalid",
            "real_name": "Khalid K. Alam",
            "display_name": "Khalid K. Alam",
            "team": "TUU48M0T1",
            "name": "khalid",
            "is_restricted": false,
            "is_ultra_restricted": false
        },
        "blocks": [
            {
                "type": "rich_text",
                "block_id": "=wUs",
                "elements": [
                    {
                        "type": "rich_text_section",
                        "elements": [
                            {
                                "type": "text",
                                "text": "that seems problematic. Another way to think about it is that all it takes it one cloning step to make an infectious, replication competent particle"
                            }
                        ]
                    }
                ]
            }
        ],
        "thread_ts": "1584494031.007700",
        "reply_count": 2,
        "reply_users_count": 2,
        "latest_reply": "1584811878.000700",
        "reply_users": [
            "UV10KBUQG",
            "UV78JAX0S"
        ],
        "replies": [
            {
                "user": "UV10KBUQG",
                "ts": "1584676265.000300"
            },
            {
                "user": "UV78JAX0S",
                "ts": "1584811878.000700"
            }
        ],
        "subscribed": false,
        "reactions": [
            {
                "name": "100",
                "users": [
                    "UUNGFHSV8"
                ],
                "count": 1
            }
        ]
    }
]