[
    {
        "type": "message",
        "subtype": "channel_join",
        "ts": "1584301740.000200",
        "user": "UV0QTJCMT",
        "text": "<@UV0QTJCMT> has joined the channel"
    },
    {
        "type": "message",
        "subtype": "channel_purpose",
        "ts": "1584301742.000300",
        "user": "UV0QTJCMT",
        "text": "<@UV0QTJCMT> set the channel purpose: Channel for all members interested in assisting the development of and efficacy of local care centers addressing COVID19 in different communities. This channel will support all discussions related to relevant projects and challenge updates.",
        "purpose": "Channel for all members interested in assisting the development of and efficacy of local care centers addressing COVID19 in different communities. This channel will support all discussions related to relevant projects and challenge updates."
    },
    {
        "type": "message",
        "subtype": "channel_join",
        "ts": "1584301812.000500",
        "user": "UV2CNECM7",
        "text": "<@UV2CNECM7> has joined the channel"
    },
    {
        "type": "message",
        "subtype": "channel_join",
        "ts": "1584302543.000700",
        "user": "UV1CX069G",
        "text": "<@UV1CX069G> has joined the channel"
    },
    {
        "type": "message",
        "subtype": "channel_join",
        "ts": "1584302617.000900",
        "user": "U0100QFHM52",
        "text": "<@U0100QFHM52> has joined the channel"
    },
    {
        "type": "message",
        "subtype": "channel_join",
        "ts": "1584306109.001100",
        "user": "UV2SC7ZE3",
        "text": "<@UV2SC7ZE3> has joined the channel"
    },
    {
        "client_msg_id": "b34f7420-2dc7-4e80-9ccb-98a5a2b1ef66",
        "type": "message",
        "text": "hello! so as the number of cases continue to currently explode worldwide with many areas needing to install new facilities to host patients that can’t be received in existing hospitals\/care centers, we'd like to use this challenge to create good design principles for care centers. would love to hear some discussion regarding questions\/concerns regarding the state of current care institutions and brainstorming the types of resources or processes that could possibly alleviate or help manage the stresses of trying to treat\/diagnose\/educate such large numbers of people! does anyone have personal\/local information regarding the hospitals in their area? <@UV02WET96> shared that in paris they're currently needing to create transitionary hospitals, but would love to hear more about what it's like in other regions of the world!",
        "user": "UV0QTJCMT",
        "ts": "1584306715.005100",
        "team": "TUU48M0T1",
        "user_team": "TUU48M0T1",
        "source_team": "TUU48M0T1",
        "user_profile": {
            "avatar_hash": "11e3deb6d1a9",
            "image_72": "https:\/\/avatars.slack-edge.com\/2020-03-06\/986844736421_11e3deb6d1a949327ddd_72.png",
            "first_name": "Katherine",
            "real_name": "Katherine Holo",
            "display_name": "Kat Holo",
            "team": "TUU48M0T1",
            "name": "katherineh245",
            "is_restricted": false,
            "is_ultra_restricted": false
        },
        "blocks": [
            {
                "type": "rich_text",
                "block_id": "A6x\/p",
                "elements": [
                    {
                        "type": "rich_text_section",
                        "elements": [
                            {
                                "type": "text",
                                "text": "hello! so as the number of cases continue to currently explode worldwide with many areas needing to install new facilities to host patients that can’t be received in existing hospitals\/care centers, we'd like to use this challenge to create good design principles for care centers. would love to hear some discussion regarding questions\/concerns regarding the state of current care institutions and brainstorming the types of resources or processes that could possibly alleviate or help manage the stresses of trying to treat\/diagnose\/educate such large numbers of people! does anyone have personal\/local information regarding the hospitals in their area? "
                            },
                            {
                                "type": "user",
                                "user_id": "UV02WET96"
                            },
                            {
                                "type": "text",
                                "text": " shared that in paris they're currently needing to create transitionary hospitals, but would love to hear more about what it's like in other regions of the world!"
                            }
                        ]
                    }
                ]
            }
        ],
        "reactions": [
            {
                "name": "+1",
                "users": [
                    "UV02WET96"
                ],
                "count": 1
            }
        ]
    },
    {
        "type": "message",
        "subtype": "channel_join",
        "ts": "1584306719.005300",
        "user": "UV02WET96",
        "text": "<@UV02WET96> has joined the channel",
        "inviter": "UV0QTJCMT"
    },
    {
        "type": "message",
        "subtype": "channel_name",
        "ts": "1584328287.005500",
        "user": "UV0QTJCMT",
        "text": "<@UV0QTJCMT> has renamed the channel from \"chlg-localcarecenters-team\" to \"chlg-implementation-team\"",
        "old_name": "chlg-localcarecenters-team",
        "name": "chlg-implementation-team"
    },
    {
        "type": "message",
        "subtype": "channel_topic",
        "ts": "1584328312.005600",
        "user": "UV0QTJCMT",
        "text": "<@UV0QTJCMT> set the channel topic: Tackle the issue of actually being able to implement our solutions to the pandemic and greater international community.",
        "topic": "Tackle the issue of actually being able to implement our solutions to the pandemic and greater international community."
    },
    {
        "type": "message",
        "subtype": "channel_join",
        "ts": "1584329641.005800",
        "user": "UUS2G6N6M",
        "text": "<@UUS2G6N6M> has joined the channel"
    },
    {
        "type": "message",
        "subtype": "channel_join",
        "ts": "1584330690.006000",
        "user": "UV85E8945",
        "text": "<@UV85E8945> has joined the channel"
    },
    {
        "type": "message",
        "subtype": "channel_join",
        "ts": "1584337393.006200",
        "user": "U0101H1BC05",
        "text": "<@U0101H1BC05> has joined the channel"
    },
    {
        "type": "message",
        "subtype": "channel_join",
        "ts": "1584341347.006400",
        "user": "UUPF597H9",
        "text": "<@UUPF597H9> has joined the channel"
    }
]