[
    {
        "client_msg_id": "951e4b67-61ed-4d3d-96fd-c5409a3e3046",
        "type": "message",
        "text": "<@U0102U32732>",
        "user": "UV6870881",
        "ts": "1585146005.000700",
        "team": "TUU48M0T1",
        "user_team": "TUU48M0T1",
        "source_team": "TUU48M0T1",
        "user_profile": {
            "avatar_hash": "gbbbbcc3accd",
            "image_72": "https:\/\/secure.gravatar.com\/avatar\/bbbbcc3accdddb02dfb1c03a4a65b994.jpg?s=72&d=https%3A%2F%2Fa.slack-edge.com%2Fdf10d%2Fimg%2Favatars%2Fava_0011-72.png",
            "first_name": "Quant",
            "real_name": "Quant",
            "display_name": "",
            "team": "TUU48M0T1",
            "name": "admin",
            "is_restricted": false,
            "is_ultra_restricted": false
        },
        "blocks": [
            {
                "type": "rich_text",
                "block_id": "YQu",
                "elements": [
                    {
                        "type": "rich_text_section",
                        "elements": [
                            {
                                "type": "user",
                                "user_id": "U0102U32732"
                            }
                        ]
                    }
                ]
            }
        ]
    },
    {
        "type": "message",
        "subtype": "channel_join",
        "ts": "1585146008.000900",
        "user": "U0102U32732",
        "text": "<@U0102U32732> has joined the channel",
        "inviter": "UV6870881"
    },
    {
        "client_msg_id": "891CA95F-81E8-4A3C-A001-C86E53E6C146",
        "type": "message",
        "text": "Is anyone seeking to validate the LabGenomics RT-PCR kits from South Korea for FDA approval?",
        "user": "U010FDH9JMD",
        "ts": "1585189018.001300",
        "team": "TUU48M0T1",
        "user_team": "TUU48M0T1",
        "source_team": "TUU48M0T1",
        "user_profile": {
            "avatar_hash": "684050f6bc69",
            "image_72": "https:\/\/avatars.slack-edge.com\/2020-03-19\/1003623726609_684050f6bc69e20acfdb_72.jpg",
            "first_name": "",
            "real_name": "Rosie Alegado",
            "display_name": "Rosie Alegado",
            "team": "TUU48M0T1",
            "name": "rosie.alegado",
            "is_restricted": false,
            "is_ultra_restricted": false
        },
        "blocks": [
            {
                "type": "rich_text",
                "block_id": "QKW",
                "elements": [
                    {
                        "type": "rich_text_section",
                        "elements": [
                            {
                                "type": "text",
                                "text": "Is anyone seeking to validate the LabGenomics RT-PCR kits from South Korea for FDA approval?"
                            }
                        ]
                    }
                ]
            }
        ]
    }
]