"","id","topic","topic_creator","topic_ts","purpose","purpose_creator","purpose_ts","pinned"
"1","CUDEHLGHY","Important announcements and work-based matters
Zoom link for all meetings: <https://zoom.us/j/7804345815>
All Global Community Call Recordings: <https://www.youtube.com/playlist?list=PLGNQcqWTh7vhoHzxVz15jng3zbN3GEeuF>","UV0QTJCMT",1586285019,"This channel is for workspace-wide communication and announcements. All members are in this channel.","UUUEFQW8N",1583188210,"UV02WET96, UV0QTJCMT, UV9V03C8Y"
"2","CUNGN9LAE","","",0,"Channel for posting and discussing relevant research papers and protocols","UUNGFHSV8",1583597984,"UV9V03C8Y"
"3","CUP7V7NCS","Channel to for all collaboration members to discuss a possible integration/collaboration of igem or igem teams into the OpenCovid19 initiative","UV0QTJCMT",1584300421,"","",0,""
"4","CUPCXHVMG","All and any public news updates/pandemic developments/discussions","UV0QTJCMT",1584300158,"Developments in testing and treatment","UUQM4L2AF",1583714306,""
"5","CUQ069HNX","","",0,".
Reproduce paper comparing which PCR primers are best:
<https://www.biorxiv.org/content/10.1101/2020.02.25.964775v1>","UV3HA9MM4",1583701327,"UV3HA9MM4"
"6","CURG6ALTC","Main channel for the all the members of the program meta-workgroup which is responsible for handling public-facing and in-program communications of the entire OpenCovid19 Initiative","UV0QTJCMT",1584300264,"Discussing and maintaining our project's public image","UV0QTJCMT",1583799924,"UV0QTJCMT, U010APQC76J, UV2SC7ZE3, UV2SC7ZE3"
"7","CURQC583E","Non-work banter and water cooler conversation","UUUEFQW8N",1583188211,"A place for non-work-related flimflam, faffing, hodge-podge or jibber-jabber you'd prefer to keep out of more focused work-related channels.","UUUEFQW8N",1583188211,""
"8","CUSRN9B51","","",0,"Updates on the use of OT2 for scaling up testing for Covid19","UUQM4L2AF",1583800007,""
"9","CUWUM8M2P","For the OpenCOVID19 Community members to ask questions/submit review requests on biosafety","UV0QTJCMT",1584633351,"Discussions/questions about biosafety and biosecurity concerns for the program.","UV0QTJCMT",1583953779,"UV5CCJ9RC, UV0QTJCMT, UV0QTJCMT"
"10","CV0QED4KU","please read through meeting notes pinned and search discussion so as to add to topics already discussed and identify where the gaps are","UV87UQ37A",1584329689,"Address program governance and complete related tasks/obstacles","UV0QTJCMT",1584128470,"UV02WET96, UV0QTJCMT, UV02WET96, UV0QTJCMT, UV0QTJCMT, UUWR0FJ7M, UV9V03C8Y, UV9V03C8Y, UV9V03C8Y"
"11","CV3RJR83Z","Discuss/share resources that make open-source collaboration easier/more efficient/more accessible","UV0QTJCMT",1584301591,"Designing best practices for structuring, using and sharing an open lab notebook","UV02WET96",1583688014,"UV3HA9MM4"
"12","CV42US023","","",0,"Reproduce SHERLOCK detection method for SARS-CoV-2 sequences","UV1G2M821",1583714911,""
"13","CV474R31U","Channel for all members of the funding program workgroup to discuss any and all funding opportunities and needs on the program, challenge, and project levels","UV0QTJCMT",1584300371,"List Funding opportunities.","UUWR0FJ7M",1584402205,""
"14","CV480QK4K","","",0,"<https://docs.google.com/document/d/1wNbwufB4_OMa8BQcqwaNREBWPR16uVVz8vxM_rwYFRY/edit#>","UV4BCQ11P",1584325900,""
"15","CV48ZESEP","Metastudy of the community organisation and response","UV85V64SD",1584709564,"Group interested in analyzing the workings of this initiative as a whole, producing a ""science of science"" study to help future large-scale international scientific collaborations","UV0QTJCMT",1584328031,"UV85V64SD, UV85V64SD, UV85V64SD, UV85V64SD, UV85V64SD"
"16","CV4AYKS5U","","",0,"Reproduce <https://mammoth.bio/wp-content/uploads/2020/03/Mammoth-Biosciences-A-protocol-for-rapid-detection-of-SARS-CoV-2-using-CRISPR-diagnostics-DETECTR.pdf>","UV3HA9MM4",1583707295,""
"17","CV59UC6JD","","",0,"Channel for all members interested in the prevention of COVID19 spread. This channel will support all discussions related to relevant projects and challenge updates.","UV0QTJCMT",1584301691,"UV9V03C8Y"
"18","CV634UALT","","",0,"To place requests access for literature/articles","UV0QTJCMT",1584380291,"UV0QTJCMT"
"19","CV6G290CE","","",0,"Gather information on international policies/laws/legal considerations regarding the fabrication and distribution of detection kits","UV0QTJCMT",1583799887,""
"20","CV6G2NCAJ","","",0,"","",0,""
"21","CV6HC0KM1","Daily call at 2 pm UTC: <https://zoom.us/j/201183902>","UV3HA9MM4",1584956361,"","",0,""
"22","CV9R0C4V9","Development of AI audio app to compare cough of Coronavirus infected versus Normal cough","UV8T52QJ3",1585294919,"Development of AI audio parsing app to compare cough of Coronavirus infected versus Normal cough","UV8T52QJ3",1584485678,"UV90DGB4N, UVDCTDP8B, UV90DGB4N"
"23","CVA1V6JHH","","",0,"For detection projects using aptamers","UV78JAX0S",1584494596,"UV78JAX0S"
"24","CVAGWUTFC","","",0,"We are gathering data around how governments are attempting to stop the spread of Covid- so we can understand the impact of each decision, both in the long term and in the short term","UV5EETE1Z",1584549541,""
"25","CVAS7QHF0","","",0,"Lose chat.","UV8HN81LM",1583960349,"U0101204092, U0101204092, UVC9WMA7N"
"26","CVB9NP1L6","Channel for all the devs/engineers who wants to help by contributing on the JOGL platform code, or code for any covid-19 project specifically. All requests needed by other groups/individuals will be shared in this channel.","UV0QTJCMT",1584301090,"Here we can identify our specializations, interests, and how we can help.","UV90DGB4N",1583978524,"U0101204092, UV7CJF9SN, U0101204092, UVC9WMA7N, UVC9WMA7N, UV0QTJCMT"
"27","CVD4RHKDF","Discussion of potential ventilator projects and designs.","U0107NS25A4",1584553946,"Covid-19 Ventilator","U0108DWH5NH",1584547330,"U0107NS25A4, U0107NS25A4, U01081Y0TBP"
"28","C010001FZ6J","","",0,"Exploring climate factors and other factors on covid-19 transmission. Is it possible to create a low covid-19 transmission environment on a personal level?","UV20M5HGQ",1584114965,""
"29","C01001T20RJ","Channel for all members interested in the Treatment Challenge. New project ideas and challenge team updates will be shared here.","UV0QTJCMT",1584301247,"Papers and discussion about repurposing existing treatments for Covid-19","U0100EPL9RT",1584198997,"UV9V03C8Y, U0103128G4D, U011D6K9RH6"
"30","C0102DVT3HV","Channel for all design workgroup members to discuss the assistance of graphic design/product design/3D modeling for teams/individuals on the program, challenge, and project levels","UV0QTJCMT",1584300586,"Discuss all design tasks","UV0QTJCMT",1584207515,"UV02WET96, UV2SC7ZE3, UV2SC7ZE3, UVABNG1A9, UVABNG1A9"
"31","C0102E5J2S3","Channel to introduce our location, skills, and interests to help connect people with groups and projects!
Onboard the initiative here: <http://bit.ly/opencovid19-onboarding>
Zoom link for all meetings: <https://zoom.us/j/7804345815>","UV9V03C8Y",1585826897,"To facilitate introductions!","UV0QTJCMT",1584208472,"U0101204092, U0101204092, U0103SR759U, U0103SR759U, U0101204092, U0103SR759U, U0103SR759U, U0103SR759U, U0103SR759U, U0103SR759U, U0103SR759U, U0103SR759U, U0103SR759U, U0103SR759U, U0103SR759U, U0103SR759U, U0103SR759U, U0103SR759U, U0103SR759U, U0103SR759U, U0103SR759U, U0103SR759U, U0103SR759U, U0103SR759U, U0103SR759U, U0103SR759U, U0103SR759U"
"32","C0102RNPFUN","Discuss possible ideas for addressing COVID-19 and receive feedback from others to shape them into working projects","UV0QTJCMT",1584300732,"This channel is for ideas about how to make test kits for SARS-COV-2","U0100EPL9RT",1584213019,""
"33","C01037HNAK1","Where people with design and fabrication experience(electrical, mechanical) can congregate here and other members can ask us to build things","UV0QTJCMT",1584300890,"Channel for people to request support in building physical things","UVDR74SJU",1584299850,"UV0QTJCMT, U01081Y0TBP"
"34","C0103BDEJQN","","",0,"Ask any questions for guidance","UV02WET96",1584279861,""
"35","C0103J8NF46","Research and develop open-source and low-cost solutions to detect Covid-19","UV02WET96",1585669265,"Channel for all members interested in the detection and diagnosis of COVID19. This channel will support all discussions related to relevant projects and challenge updates.","UV0QTJCMT",1584301653,"U0103128G4D, U0103128G4D, UV5CCJ9RC, UV3URUKK5, UVALZTQ58"
"36","C0103J9KZP0","Tackle the issue of actually being able to implement our solutions to the pandemic and greater international community.","UV0QTJCMT",1584328312,"Channel for all members interested in assisting the development of and efficacy of local care centers addressing COVID19 in different communities. This channel will support all discussions related to relevant projects and challenge updates.","UV0QTJCMT",1584301741,""
"37","C0104348AFL","Please read through the pinned documents and as much channel discussion as you can before submitting comments and suggestions!","UV87UQ37A",1585528535,"Designing and implementing a project review process for awarding resources such a grants","UV02WET96",1584805042,"UV87UQ37A, UV87UQ37A, UV87UQ37A, UV0RRGB6H"
"38","C01044Q28UB","","",0,"Developing an online/mobile game for a free, friendly way for non-scientists to learn about viruses and best safety practices in times pandemic.","UV76CQTB4",1584729288,"UV76CQTB4, UV76CQTB4"
"39","C0104ANKV4L","","",0,"We are developing open source protective face equipment to be used by the public and by healthcare professionals","U01081Y0TBP",1585495128,"U0103128G4D, UV2P3AQEN, UV2P3AQEN, U01081Y0TBP, U01081Y0TBP, U01081Y0TBP"
"40","C01056ZKHK3","","",0,"","",0,"UVADMLUB0, UVADMLUB0, UVADMLUB0, UVADMLUB0, UVADMLUB0, UVADMLUB0, UVADMLUB0, UVADMLUB0, UVADMLUB0, UVADMLUB0"
"41","C0105A7QACT","Meta-analyses of the community Slack, check pinned messages for onboarding!","UV85V64SD",1585646522,"Metastudy of opencovid on slack","U010B412MF1",1584798998,"UV85V64SD, UV85V64SD"
"42","C0105FC4R7D","","",0,"For people using the Artic Network Protocols","U010K5PFCG6",1584813427,""
"43","C0105P8S96C","","",0,"To focus collaborative efforts in the Chicago area","UV10KBUQG",1584453498,""
"44","C0106TJ8ZGQ","Find and update literature review and useful websites here: <https://docs.google.com/spreadsheets/d/1Jhl5NRsghJfFfrKb-3tr-wnT47AdLi9XYqyvmXubfME/edit#gid=0>","UV9V03C8Y",1584475507,"The objective is to gather literature review for program, challenges and projects. This will enable everyone to save time while elaborating proposals/methodology, keep up to date with the latest published articles and disseminate valuable research.","UV9V03C8Y",1584475845,"UV9V03C8Y"
"45","C0109FA216U","","",0,"This is a channel to help each other get access to needed reagents and equipment--post requests for reagents, links/docs compiling reagent sources, etc","UUNGFHSV8",1584552373,"UV78JAX0S"
"46","C0109J5U8P7","<http://CoEpi.org|CoEpi.org>
<https://www.coepi.org/collaborations>
<https://github.com/Co-Epi>
<http://COVID-watch.org|COVID-watch.org>
<https://github.com/covid19risk>","U01089UEU30",1584630040,"Discussing and helping to build contact-tracing apps like <http://CoEpi.org|CoEpi.org>, <http://COVID19risk.com|COVID19risk.com>, MIT Safe Paths, etc.","U01089UEU30",1584553855,"U01089UEU30"
"47","C010A2Y1EAE","Community Based Mass Testing","U010566NJHG",1585066173,"","U010566NJHG",1585066193,"U010566NJHG"
"48","C010BM0D4VC","","",0,"FreeGenes slack channel","UV4Q15S5Q",1584552072,""
"49","C010CV9PNPQ","","",0,"This channel is dedicated to mass spectrometry based detection methods for viruses","UVA46RKLY",1584592545,""
"50","C010CVB35DE","","",0,"Channel to discuss and strategize around amplifying nucleic acids, both isothermally and by thermocycling","UUNGFHSV8",1584647485,""
"51","C010D0K1FE1","","",0,"Channel for discussing and strategizing about RNA extraction--kits, protocols, results, etc","UUNGFHSV8",1584647564,""
"52","C010DV7AJ1M","Getting to v1","UVABQCS3G",1584631704,"This channel is for a taskforce designing a resource for OpenCOVID19 members (and JOGL users) to find nearby access to a lab space.","U0101DKUALV",1584630958,"UVABQCS3G, UVABQCS3G"
"53","C010ESGC97D","","",0,"Serological blood test sourcing, distribution, financing, legal, etc","UVA0E24KZ",1585160388,""
"54","C010EVCBQP9","NON-ACTIVE: PLEASE SEE <#CVD4RHKDF|proj-ventilator> INSTEAD.","UV8FL0JCA",1584717695,"Develop a new ventilator design challenges in collaboration with McGill University","UV6870881",1584650654,""
"55","C010HGM5C92","","",0,"","",0,""
"56","C010KDAL5RA","Working group on  JOGL recommender system, check pinned messages for onboarding","UV85V64SD",1585646666,"Working group on implementing recommendation systems for the feed and notifications on JOGL","UV85V64SD",1584982077,"UV85V64SD, UVC9WMA7N, UV85V64SD, UV85V64SD"
"57","C010M2Z22DV","","",0,"","",0,""
"58","C010MRZM95Z","","",0,"A channel to discuss about cell-free sensors","UV3URUKK5",1585419597,""
"59","C010PEJ5U6M","","",0,"Dev for <https://github.com/bionicles/coronavirus>","U01084P4ELX",1585440529,""
"60","C010PUVRSRX","","",0,"reflect on the viability of using survivor antibodies in critical patients as a means of right-now treatment and draft of deployment","U010Z4GHYGG",1585505756,""
"61","C010QC1SZSP","","",0,"The goal of this challenge is to have evaluated and validated the best open source solutions by experts and hospital staff members","UV02WET96",1585583262,""
"62","C010S1VPLQM","","",0,"Specifically to test the NEB protocol just published where a LAMP test using their reagents was compared to RT-qPCR and gave favorable results.","UUPQGNNTV",1585167836,"UV5CCJ9RC, UV3URUKK5"
"63","C010WAVTJ90","","",0,"channel on optimizing enzyme expression and purification","U010QHBTBPY",1585787662,""
"64","C010Z19LDQD","","",0,"Channel to design a DIT implementation of the most used system in public healthcare institutions","UV3URUKK5",1585393825,""
"65","C010Z7XFREX","","",0,"discussion, observations, feedback on my 3plyNWPPmask project","U010Q3G4MDF",1585835978,""
"66","C01148CHCLE","<https://app.jogl.io/project/169>","U0104M5CWV9",1585853995,"Building a better toolkit for people to build epidemiological models <https://app.jogl.io/project/169>","U0104M5CWV9",1585593963,""
"67","C0114C2L1SP","","",0,"This is a project designed to create, source and deploy relevant mental health services/solutions for pre/mid/post-diagnosis for Covid-19.","U011D6K9RH6",1585952611,""
"68","C0114N5M8TF","","",0,"Applying the JOGL OpenCovid19 approach in the African context","UV02WET96",1585669926,""
"69","C0114SE4F34","","",0,"Objective: Create and produce a cheap and homemade test for SARS-CoV2 antibodies (IgG/IgM) - similar to LFIA commercial rapid tests. Explore aptamer use as alternative to secondary antibodies.","U011CQ8C9GU",1586118194,""
"70","C0115B7FY1W","","",0,"Announce your project to the community and apply for up €2000 to take it across the finish line.","UV87UQ37A",1585681639,""
"71","C0115GBT8GG","","",0,"App design","U010HGKFDNE",1585685670,""
"72","C0115JPGF0D","","",0,"","",0,""
"73","C011AQ00L5V","","",0,"","",0,"UV02WET96, U011LTQQBDW, UV02WET96, UV02WET96"
"74","C011ATDEN3X","","",0,"Discussions/notes on the organization of the Development of AI CoughCheck Detection","UV8T52QJ3",1585879901,""
"75","C011B453NCE","","",0,"Space to better comunicate and coordinate with AI/ML devs in <#CV9R0C4V9|proj-dev-ai-cough-detection>","UVDCTDP8B",1585833324,""
"76","C011DGPQU4W","","",0,"Breezy - the crisis emergency ventilator <https://app.jogl.io/project/151#about>","U010GFNDDL4",1586116932,""
"77","C011E2SNQES","","",0,"To discuss plasma blood transfusions as a treatment against COVID19","U010BA2NL9E",1586178533,""
"78","C011FGGNCP8","","",0,"A space to engage students/early-career members. If you are part of a project that you believe will benefit from student involvement, post them here! In the future, there may also be projects and collaborations launched by this channel as well.","U0101DKUALV",1586282325,""
"79","C011FLGK6CC","","",0,"Spanish channel for easy communication","U0115G1A03D",1586107489,""
"80","C011GJCQLLU","","",0,"covid19 museum discussion","U011BAD8A5V",1586166094,""
"81","C011PC2G2SC","","",0,"","",0,"U011E5YPGAJ"
"82","CV5USP9BP","","",0,"","",0,"U52KBSW9X"
