<?xml version="1.0" encoding="UTF-8"?>
<graphml xmlns="http://graphml.graphdrawing.org/xmlns"
         xmlns:xsi="http://www.w3.org/2001/XMLSchema-instance"
         xsi:schemaLocation="http://graphml.graphdrawing.org/xmlns
         http://graphml.graphdrawing.org/xmlns/1.0/graphml.xsd">
<!-- Created by igraph -->
  <key id="v_name" for="node" attr.name="name" attr.type="string"/>
  <key id="v_type" for="node" attr.name="type" attr.type="boolean"/>
  <graph id="G" edgedefault="directed">
    <node id="n0">
      <data key="v_name">JOGL</data>
      <data key="v_type">false</data>
    </node>
    <node id="n1">
      <data key="v_name">AWisdomJourney</data>
      <data key="v_type">false</data>
    </node>
    <node id="n2">
      <data key="v_name">Containerlab</data>
      <data key="v_type">false</data>
    </node>
    <node id="n3">
      <data key="v_name">robotmissions</data>
      <data key="v_type">false</data>
    </node>
    <node id="n4">
      <data key="v_name">Ikigai</data>
      <data key="v_type">false</data>
    </node>
    <node id="n5">
      <data key="v_name">PO</data>
      <data key="v_type">false</data>
    </node>
    <node id="n6">
      <data key="v_name">dawatrack</data>
      <data key="v_type">false</data>
    </node>
    <node id="n7">
      <data key="v_name">WebScout</data>
      <data key="v_type">false</data>
    </node>
    <node id="n8">
      <data key="v_name">Boardgame</data>
      <data key="v_type">false</data>
    </node>
    <node id="n9">
      <data key="v_name">Opscidia</data>
      <data key="v_type">false</data>
    </node>
    <node id="n10">
      <data key="v_name">JOGP</data>
      <data key="v_type">false</data>
    </node>
    <node id="n11">
      <data key="v_name">EduKey</data>
      <data key="v_type">false</data>
    </node>
    <node id="n12">
      <data key="v_name">Ocean</data>
      <data key="v_type">false</data>
    </node>
    <node id="n13">
      <data key="v_name">openwatertest</data>
      <data key="v_type">false</data>
    </node>
    <node id="n14">
      <data key="v_name">FABSDGs</data>
      <data key="v_type">false</data>
    </node>
    <node id="n15">
      <data key="v_name">PIOGE</data>
      <data key="v_type">false</data>
    </node>
    <node id="n16">
      <data key="v_name">HERApp</data>
      <data key="v_type">false</data>
    </node>
    <node id="n17">
      <data key="v_name">bhc</data>
      <data key="v_type">false</data>
    </node>
    <node id="n18">
      <data key="v_name">TwitterVac</data>
      <data key="v_type">false</data>
    </node>
    <node id="n19">
      <data key="v_name">VaEsGa</data>
      <data key="v_type">false</data>
    </node>
    <node id="n20">
      <data key="v_name">TravailPair</data>
      <data key="v_type">false</data>
    </node>
    <node id="n21">
      <data key="v_name">EPathways</data>
      <data key="v_type">false</data>
    </node>
    <node id="n22">
      <data key="v_name">VaccineDataDump</data>
      <data key="v_type">false</data>
    </node>
    <node id="n23">
      <data key="v_name">vaxtrends</data>
      <data key="v_type">false</data>
    </node>
    <node id="n24">
      <data key="v_name">greg001</data>
      <data key="v_type">false</data>
    </node>
    <node id="n25">
      <data key="v_name">Hulkbooster</data>
      <data key="v_type">false</data>
    </node>
    <node id="n26">
      <data key="v_name">HarmonizeVaccination</data>
      <data key="v_type">false</data>
    </node>
    <node id="n27">
      <data key="v_name">metaimmune</data>
      <data key="v_type">false</data>
    </node>
    <node id="n28">
      <data key="v_name">UnderstandingTwitterAds</data>
      <data key="v_type">false</data>
    </node>
    <node id="n29">
      <data key="v_name">biopunkchallenge</data>
      <data key="v_type">false</data>
    </node>
    <node id="n30">
      <data key="v_name">Sapelli</data>
      <data key="v_type">false</data>
    </node>
    <node id="n31">
      <data key="v_name">biloba</data>
      <data key="v_type">false</data>
    </node>
    <node id="n32">
      <data key="v_name">WakuSenshi</data>
      <data key="v_type">false</data>
    </node>
    <node id="n33">
      <data key="v_name">Crawler</data>
      <data key="v_type">false</data>
    </node>
    <node id="n34">
      <data key="v_name">PassItOn</data>
      <data key="v_type">false</data>
    </node>
    <node id="n35">
      <data key="v_name">GoViral</data>
      <data key="v_type">false</data>
    </node>
    <node id="n36">
      <data key="v_name">mva</data>
      <data key="v_type">false</data>
    </node>
    <node id="n37">
      <data key="v_name">VaccRiskAssess</data>
      <data key="v_type">false</data>
    </node>
    <node id="n38">
      <data key="v_name">VaxTopics</data>
      <data key="v_type">false</data>
    </node>
    <node id="n39">
      <data key="v_name">ESIDM</data>
      <data key="v_type">false</data>
    </node>
    <node id="n40">
      <data key="v_name">VaxAdministrationOnSocialMedia</data>
      <data key="v_type">false</data>
    </node>
    <node id="n41">
      <data key="v_name">VaxHesitancyOnSocialMedia</data>
      <data key="v_type">false</data>
    </node>
    <node id="n42">
      <data key="v_name">3duf</data>
      <data key="v_type">false</data>
    </node>
    <node id="n43">
      <data key="v_name">FOCHrwanda</data>
      <data key="v_type">false</data>
    </node>
    <node id="n44">
      <data key="v_name">committopromotevaccination</data>
      <data key="v_type">false</data>
    </node>
    <node id="n45">
      <data key="v_name">metafluidics</data>
      <data key="v_type">false</data>
    </node>
    <node id="n46">
      <data key="v_name">tb</data>
      <data key="v_type">false</data>
    </node>
    <node id="n47">
      <data key="v_name">Covid19DetectionKit</data>
      <data key="v_type">false</data>
    </node>
    <node id="n48">
      <data key="v_name">fungar</data>
      <data key="v_type">false</data>
    </node>
    <node id="n49">
      <data key="v_name">TheWorldSim</data>
      <data key="v_type">false</data>
    </node>
    <node id="n50">
      <data key="v_name">HE</data>
      <data key="v_type">false</data>
    </node>
    <node id="n51">
      <data key="v_name">Coronavirusawareness</data>
      <data key="v_type">false</data>
    </node>
    <node id="n52">
      <data key="v_name">PandemicAlert</data>
      <data key="v_type">false</data>
    </node>
    <node id="n53">
      <data key="v_name">Covid19cures</data>
      <data key="v_type">false</data>
    </node>
    <node id="n54">
      <data key="v_name">STEAMforChange</data>
      <data key="v_type">false</data>
    </node>
    <node id="n55">
      <data key="v_name">NoContact</data>
      <data key="v_type">false</data>
    </node>
    <node id="n56">
      <data key="v_name">S4G</data>
      <data key="v_type">false</data>
    </node>
    <node id="n57">
      <data key="v_name">constrution</data>
      <data key="v_type">false</data>
    </node>
    <node id="n58">
      <data key="v_name">MakersHospitalSupportProjects</data>
      <data key="v_type">false</data>
    </node>
    <node id="n59">
      <data key="v_name">COVID19</data>
      <data key="v_type">false</data>
    </node>
    <node id="n60">
      <data key="v_name">aicoughdetection</data>
      <data key="v_type">false</data>
    </node>
    <node id="n61">
      <data key="v_name">Vigibot</data>
      <data key="v_type">false</data>
    </node>
    <node id="n62">
      <data key="v_name">continuumplus</data>
      <data key="v_type">false</data>
    </node>
    <node id="n63">
      <data key="v_name">QuantifiedFlu</data>
      <data key="v_type">false</data>
    </node>
    <node id="n64">
      <data key="v_name">SONA</data>
      <data key="v_type">false</data>
    </node>
    <node id="n65">
      <data key="v_name">contacttraceCOVID19</data>
      <data key="v_type">false</data>
    </node>
    <node id="n66">
      <data key="v_name">ClimHB</data>
      <data key="v_type">false</data>
    </node>
    <node id="n67">
      <data key="v_name">MesData</data>
      <data key="v_type">false</data>
    </node>
    <node id="n68">
      <data key="v_name">edgame</data>
      <data key="v_type">false</data>
    </node>
    <node id="n69">
      <data key="v_name">Matteroflifeanddeath</data>
      <data key="v_type">false</data>
    </node>
    <node id="n70">
      <data key="v_name">Matteroflife</data>
      <data key="v_type">false</data>
    </node>
    <node id="n71">
      <data key="v_name">Savinglives</data>
      <data key="v_type">false</data>
    </node>
    <node id="n72">
      <data key="v_name">COVID19map</data>
      <data key="v_type">false</data>
    </node>
    <node id="n73">
      <data key="v_name">Indirectcontact</data>
      <data key="v_type">false</data>
    </node>
    <node id="n74">
      <data key="v_name">Indirectcontact2</data>
      <data key="v_type">false</data>
    </node>
    <node id="n75">
      <data key="v_name">Recycling</data>
      <data key="v_type">false</data>
    </node>
    <node id="n76">
      <data key="v_name">Resourcesallocation</data>
      <data key="v_type">false</data>
    </node>
    <node id="n77">
      <data key="v_name">Behavioralchange</data>
      <data key="v_type">false</data>
    </node>
    <node id="n78">
      <data key="v_name">maskchallenge</data>
      <data key="v_type">false</data>
    </node>
    <node id="n79">
      <data key="v_name">Breezy</data>
      <data key="v_type">false</data>
    </node>
    <node id="n80">
      <data key="v_name">Aanikabio</data>
      <data key="v_type">false</data>
    </node>
    <node id="n81">
      <data key="v_name">stem4home</data>
      <data key="v_type">false</data>
    </node>
    <node id="n82">
      <data key="v_name">1</data>
      <data key="v_type">false</data>
    </node>
    <node id="n83">
      <data key="v_name">Socialdistancing</data>
      <data key="v_type">false</data>
    </node>
    <node id="n84">
      <data key="v_name">prgmbioreactor</data>
      <data key="v_type">false</data>
    </node>
    <node id="n85">
      <data key="v_name">COVID19AnonymizedData</data>
      <data key="v_type">false</data>
    </node>
    <node id="n86">
      <data key="v_name">Tagging</data>
      <data key="v_type">false</data>
    </node>
    <node id="n87">
      <data key="v_name">CommunityBasedMassTesting</data>
      <data key="v_type">false</data>
    </node>
    <node id="n88">
      <data key="v_name">Medecinetraditionnelle</data>
      <data key="v_type">false</data>
    </node>
    <node id="n89">
      <data key="v_name">Microglue</data>
      <data key="v_type">false</data>
    </node>
    <node id="n90">
      <data key="v_name">PCEvent</data>
      <data key="v_type">false</data>
    </node>
    <node id="n91">
      <data key="v_name">nebLAMPtest</data>
      <data key="v_type">false</data>
    </node>
    <node id="n92">
      <data key="v_name">KOCOVIDchemo</data>
      <data key="v_type">false</data>
    </node>
    <node id="n93">
      <data key="v_name">ElevonsCOVID19</data>
      <data key="v_type">false</data>
    </node>
    <node id="n94">
      <data key="v_name">Airlock</data>
      <data key="v_type">false</data>
    </node>
    <node id="n95">
      <data key="v_name">survivorSerum</data>
      <data key="v_type">false</data>
    </node>
    <node id="n96">
      <data key="v_name">simulation</data>
      <data key="v_type">false</data>
    </node>
    <node id="n97">
      <data key="v_name">epimodelingtoolkit</data>
      <data key="v_type">false</data>
    </node>
    <node id="n98">
      <data key="v_name">Savedoctors</data>
      <data key="v_type">false</data>
    </node>
    <node id="n99">
      <data key="v_name">Thomas Landrain</data>
      <data key="v_type">true</data>
    </node>
    <node id="n100">
      <data key="v_name">Marc Santolini</data>
      <data key="v_type">true</data>
    </node>
    <node id="n101">
      <data key="v_name">Leo Blondel</data>
      <data key="v_type">true</data>
    </node>
    <node id="n102">
      <data key="v_name">Lola Casamitjana</data>
      <data key="v_type">true</data>
    </node>
    <node id="n103">
      <data key="v_name">Marine Vouard</data>
      <data key="v_type">true</data>
    </node>
    <node id="n104">
      <data key="v_name">Camille Masselot</data>
      <data key="v_type">true</data>
    </node>
    <node id="n105">
      <data key="v_name">Pleen Le Jeune</data>
      <data key="v_type">true</data>
    </node>
    <node id="n106">
      <data key="v_name">Swann Bouvier Muller</data>
      <data key="v_type">true</data>
    </node>
    <node id="n107">
      <data key="v_name">Florian Grandjean</data>
      <data key="v_type">true</data>
    </node>
    <node id="n108">
      <data key="v_name">Fatima Wehbi</data>
      <data key="v_type">true</data>
    </node>
    <node id="n109">
      <data key="v_name">bruno Tison</data>
      <data key="v_type">true</data>
    </node>
    <node id="n110">
      <data key="v_name">Vanessa Chaddouk</data>
      <data key="v_type">true</data>
    </node>
    <node id="n111">
      <data key="v_name">Anna Ritscher</data>
      <data key="v_type">true</data>
    </node>
    <node id="n112">
      <data key="v_name">Ralf Bliem</data>
      <data key="v_type">true</data>
    </node>
    <node id="n113">
      <data key="v_name">Lukas Hutter</data>
      <data key="v_type">true</data>
    </node>
    <node id="n114">
      <data key="v_name">Ricardo Camilo Chavez Martínez</data>
      <data key="v_type">true</data>
    </node>
    <node id="n115">
      <data key="v_name">Benjamin Denjean</data>
      <data key="v_type">true</data>
    </node>
    <node id="n116">
      <data key="v_name">Michael Rera</data>
      <data key="v_type">true</data>
    </node>
    <node id="n117">
      <data key="v_name">Erin RobotGrrl</data>
      <data key="v_type">true</data>
    </node>
    <node id="n118">
      <data key="v_name">misha paul</data>
      <data key="v_type">true</data>
    </node>
    <node id="n119">
      <data key="v_name">Pascal Kolbe</data>
      <data key="v_type">true</data>
    </node>
    <node id="n120">
      <data key="v_name">Océane Rabillon</data>
      <data key="v_type">true</data>
    </node>
    <node id="n121">
      <data key="v_name">Bertha Uwase</data>
      <data key="v_type">true</data>
    </node>
    <node id="n122">
      <data key="v_name">Shirley HE</data>
      <data key="v_type">true</data>
    </node>
    <node id="n123">
      <data key="v_name">Kai Costantini</data>
      <data key="v_type">true</data>
    </node>
    <node id="n124">
      <data key="v_name">Bob VRIGNAUD</data>
      <data key="v_type">true</data>
    </node>
    <node id="n125">
      <data key="v_name">Ayça Akbaş</data>
      <data key="v_type">true</data>
    </node>
    <node id="n126">
      <data key="v_name">Abhay Inamdar</data>
      <data key="v_type">true</data>
    </node>
    <node id="n127">
      <data key="v_name">Audrey rousseaud</data>
      <data key="v_type">true</data>
    </node>
    <node id="n128">
      <data key="v_name">Nicolas Paries</data>
      <data key="v_type">true</data>
    </node>
    <node id="n129">
      <data key="v_name">Emmanuel Poisson-Quinton</data>
      <data key="v_type">true</data>
    </node>
    <node id="n130">
      <data key="v_name">William Kane Olwit</data>
      <data key="v_type">true</data>
    </node>
    <node id="n131">
      <data key="v_name">Agathe Machavoine</data>
      <data key="v_type">true</data>
    </node>
    <node id="n132">
      <data key="v_name">Michael Grebowicz</data>
      <data key="v_type">true</data>
    </node>
    <node id="n133">
      <data key="v_name">Mike Kresse</data>
      <data key="v_type">true</data>
    </node>
    <node id="n134">
      <data key="v_name">Matt Ronchetto</data>
      <data key="v_type">true</data>
    </node>
    <node id="n135">
      <data key="v_name">Laurent Marchesin</data>
      <data key="v_type">true</data>
    </node>
    <node id="n136">
      <data key="v_name">Sandeep Jaykumar</data>
      <data key="v_type">true</data>
    </node>
    <node id="n137">
      <data key="v_name">Antony Sar</data>
      <data key="v_type">true</data>
    </node>
    <node id="n138">
      <data key="v_name">Charles Letaillieur</data>
      <data key="v_type">true</data>
    </node>
    <node id="n139">
      <data key="v_name">Christopher LB Graham</data>
      <data key="v_type">true</data>
    </node>
    <node id="n140">
      <data key="v_name">Luca Haenel</data>
      <data key="v_type">true</data>
    </node>
    <node id="n141">
      <data key="v_name">Mauricio Cordova</data>
      <data key="v_type">true</data>
    </node>
    <node id="n142">
      <data key="v_name">MOSES SOUTA</data>
      <data key="v_type">true</data>
    </node>
    <node id="n143">
      <data key="v_name">Romain Di Vozzo</data>
      <data key="v_type">true</data>
    </node>
    <node id="n144">
      <data key="v_name">Paul Jerchel</data>
      <data key="v_type">true</data>
    </node>
    <node id="n145">
      <data key="v_name">Annette Dusabe</data>
      <data key="v_type">true</data>
    </node>
    <node id="n146">
      <data key="v_name">Aral Sürmeli</data>
      <data key="v_type">true</data>
    </node>
    <node id="n147">
      <data key="v_name">Yagiz Nizipli</data>
      <data key="v_type">true</data>
    </node>
    <node id="n148">
      <data key="v_name">Liu Bov</data>
      <data key="v_type">true</data>
    </node>
    <node id="n149">
      <data key="v_name">Aastha V</data>
      <data key="v_type">true</data>
    </node>
    <node id="n150">
      <data key="v_name">Cyril Mammar</data>
      <data key="v_type">true</data>
    </node>
    <node id="n151">
      <data key="v_name">Claudia Sarai Reyes Avila</data>
      <data key="v_type">true</data>
    </node>
    <node id="n152">
      <data key="v_name">Hitesh Kumar</data>
      <data key="v_type">true</data>
    </node>
    <node id="n153">
      <data key="v_name">Enzo MULLER</data>
      <data key="v_type">true</data>
    </node>
    <node id="n154">
      <data key="v_name">Alexandre Frydman</data>
      <data key="v_type">true</data>
    </node>
    <node id="n155">
      <data key="v_name">Antoine Heurtel</data>
      <data key="v_type">true</data>
    </node>
    <node id="n156">
      <data key="v_name">Toufic Khoriaty</data>
      <data key="v_type">true</data>
    </node>
    <node id="n157">
      <data key="v_name">Adrien Breger</data>
      <data key="v_type">true</data>
    </node>
    <node id="n158">
      <data key="v_name">vaibhav sahu</data>
      <data key="v_type">true</data>
    </node>
    <node id="n159">
      <data key="v_name">Yulia Venichenko</data>
      <data key="v_type">true</data>
    </node>
    <node id="n160">
      <data key="v_name">Khallil Doudou</data>
      <data key="v_type">true</data>
    </node>
    <node id="n161">
      <data key="v_name">guillaume Fagot</data>
      <data key="v_type">true</data>
    </node>
    <node id="n162">
      <data key="v_name">Ruben Cuadra</data>
      <data key="v_type">true</data>
    </node>
    <node id="n163">
      <data key="v_name">Robert Tolan</data>
      <data key="v_type">true</data>
    </node>
    <node id="n164">
      <data key="v_name">Bastian Greshake Tzovaras</data>
      <data key="v_type">true</data>
    </node>
    <node id="n165">
      <data key="v_name">noel ching</data>
      <data key="v_type">true</data>
    </node>
    <node id="n166">
      <data key="v_name">NIDHIBEN PATEL</data>
      <data key="v_type">true</data>
    </node>
    <node id="n167">
      <data key="v_name">Shibu Antony</data>
      <data key="v_type">true</data>
    </node>
    <node id="n168">
      <data key="v_name">Just One Giant Lab</data>
      <data key="v_type">true</data>
    </node>
    <node id="n169">
      <data key="v_name">Chetan Kumar Velumurugan</data>
      <data key="v_type">true</data>
    </node>
    <node id="n170">
      <data key="v_name">Antonin Counillon</data>
      <data key="v_type">true</data>
    </node>
    <node id="n171">
      <data key="v_name">rahel Becker</data>
      <data key="v_type">true</data>
    </node>
    <node id="n172">
      <data key="v_name">yassine Ait-baha</data>
      <data key="v_type">true</data>
    </node>
    <node id="n173">
      <data key="v_name">Adrien S</data>
      <data key="v_type">true</data>
    </node>
    <node id="n174">
      <data key="v_name">Yang-Min KIM</data>
      <data key="v_type">true</data>
    </node>
    <node id="n175">
      <data key="v_name">tristan alain</data>
      <data key="v_type">true</data>
    </node>
    <node id="n176">
      <data key="v_name">Mad Ball</data>
      <data key="v_type">true</data>
    </node>
    <node id="n177">
      <data key="v_name">Paul-Olivier Dehaye</data>
      <data key="v_type">true</data>
    </node>
    <node id="n178">
      <data key="v_name">Sevil TOPAL</data>
      <data key="v_type">true</data>
    </node>
    <node id="n179">
      <data key="v_name">Guilherme Kundlatsch</data>
      <data key="v_type">true</data>
    </node>
    <node id="n180">
      <data key="v_name">Alina Rodrigues</data>
      <data key="v_type">true</data>
    </node>
    <node id="n181">
      <data key="v_name">Marcelo de Souza</data>
      <data key="v_type">true</data>
    </node>
    <node id="n182">
      <data key="v_name">Muki Haklay</data>
      <data key="v_type">true</data>
    </node>
    <node id="n183">
      <data key="v_name">Imad Bougataya</data>
      <data key="v_type">true</data>
    </node>
    <node id="n184">
      <data key="v_name">Dalila Saulebekova</data>
      <data key="v_type">true</data>
    </node>
    <node id="n185">
      <data key="v_name">Alejandra Rodriguez Llerena</data>
      <data key="v_type">true</data>
    </node>
    <node id="n186">
      <data key="v_name">Victor Counillon</data>
      <data key="v_type">true</data>
    </node>
    <node id="n187">
      <data key="v_name">Jeanne Bonnel</data>
      <data key="v_type">true</data>
    </node>
    <node id="n188">
      <data key="v_name">Thea Chrysostomou</data>
      <data key="v_type">true</data>
    </node>
    <node id="n189">
      <data key="v_name">Mihaela Grigore</data>
      <data key="v_type">true</data>
    </node>
    <node id="n190">
      <data key="v_name">Selim Ben Slama</data>
      <data key="v_type">true</data>
    </node>
    <node id="n191">
      <data key="v_name">Thibault Morgenstern</data>
      <data key="v_type">true</data>
    </node>
    <node id="n192">
      <data key="v_name">Philippe Mougin</data>
      <data key="v_type">true</data>
    </node>
    <node id="n193">
      <data key="v_name">Florian Briand</data>
      <data key="v_type">true</data>
    </node>
    <node id="n194">
      <data key="v_name">Alexis Juif</data>
      <data key="v_type">true</data>
    </node>
    <node id="n195">
      <data key="v_name">Forum Shah</data>
      <data key="v_type">true</data>
    </node>
    <node id="n196">
      <data key="v_name">Gijs Van den Dool</data>
      <data key="v_type">true</data>
    </node>
    <node id="n197">
      <data key="v_name">Mose Wintner</data>
      <data key="v_type">true</data>
    </node>
    <node id="n198">
      <data key="v_name">Pierre Foulquié</data>
      <data key="v_type">true</data>
    </node>
    <node id="n199">
      <data key="v_name">Yahya JELLIL</data>
      <data key="v_type">true</data>
    </node>
    <node id="n200">
      <data key="v_name">Guillaume MESLAGE</data>
      <data key="v_type">true</data>
    </node>
    <node id="n201">
      <data key="v_name">Idir Boufadene</data>
      <data key="v_type">true</data>
    </node>
    <node id="n202">
      <data key="v_name">Brice Henault</data>
      <data key="v_type">true</data>
    </node>
    <node id="n203">
      <data key="v_name">Florian Carbuccia</data>
      <data key="v_type">true</data>
    </node>
    <node id="n204">
      <data key="v_name">Nuances de Verde</data>
      <data key="v_type">true</data>
    </node>
    <node id="n205">
      <data key="v_name">Mateo Quintero</data>
      <data key="v_type">true</data>
    </node>
    <node id="n206">
      <data key="v_name">Anisse JANY</data>
      <data key="v_type">true</data>
    </node>
    <node id="n207">
      <data key="v_name">Alan Cataldo</data>
      <data key="v_type">true</data>
    </node>
    <node id="n208">
      <data key="v_name">Hugo Gagliardi</data>
      <data key="v_type">true</data>
    </node>
    <node id="n209">
      <data key="v_name">Aurélien Aoustin</data>
      <data key="v_type">true</data>
    </node>
    <node id="n210">
      <data key="v_name">Miles Tonye</data>
      <data key="v_type">true</data>
    </node>
    <node id="n211">
      <data key="v_name">DIVIN BADIABO</data>
      <data key="v_type">true</data>
    </node>
    <node id="n212">
      <data key="v_name">Pot Ato</data>
      <data key="v_type">true</data>
    </node>
    <node id="n213">
      <data key="v_name">Aurelien Boch</data>
      <data key="v_type">true</data>
    </node>
    <node id="n214">
      <data key="v_name">Radhakrishna Sanka</data>
      <data key="v_type">true</data>
    </node>
    <node id="n215">
      <data key="v_name">UMUHOZA Roxane</data>
      <data key="v_type">true</data>
    </node>
    <node id="n216">
      <data key="v_name">David Kong</data>
      <data key="v_type">true</data>
    </node>
    <node id="n217">
      <data key="v_name">Adam Arabian</data>
      <data key="v_type">true</data>
    </node>
    <node id="n218">
      <data key="v_name">Zach Mueller</data>
      <data key="v_type">true</data>
    </node>
    <node id="n219">
      <data key="v_name">Naina Goel</data>
      <data key="v_type">true</data>
    </node>
    <node id="n220">
      <data key="v_name">Bartlomiej Zogala</data>
      <data key="v_type">true</data>
    </node>
    <node id="n221">
      <data key="v_name">Kat Holo</data>
      <data key="v_type">true</data>
    </node>
    <node id="n222">
      <data key="v_name">mathieu grisolia</data>
      <data key="v_type">true</data>
    </node>
    <node id="n223">
      <data key="v_name">Reginald Smith</data>
      <data key="v_type">true</data>
    </node>
    <node id="n224">
      <data key="v_name">Adrien Rigobello</data>
      <data key="v_type">true</data>
    </node>
    <node id="n225">
      <data key="v_name">Juan Calvo</data>
      <data key="v_type">true</data>
    </node>
    <node id="n226">
      <data key="v_name">A P</data>
      <data key="v_type">true</data>
    </node>
    <node id="n227">
      <data key="v_name">Tim Artz</data>
      <data key="v_type">true</data>
    </node>
    <node id="n228">
      <data key="v_name">Always Prime</data>
      <data key="v_type">true</data>
    </node>
    <node id="n229">
      <data key="v_name">Luke Tospace</data>
      <data key="v_type">true</data>
    </node>
    <node id="n230">
      <data key="v_name">TAUAN BERNARDO</data>
      <data key="v_type">true</data>
    </node>
    <node id="n231">
      <data key="v_name">Lakshmi Balasubramanian</data>
      <data key="v_type">true</data>
    </node>
    <node id="n232">
      <data key="v_name">Abdelhamid Raheem Abdulrazzq</data>
      <data key="v_type">true</data>
    </node>
    <node id="n233">
      <data key="v_name">Michael Bryan</data>
      <data key="v_type">true</data>
    </node>
    <node id="n234">
      <data key="v_name">Guillaume Rémont</data>
      <data key="v_type">true</data>
    </node>
    <node id="n235">
      <data key="v_name">Manuel Herrera</data>
      <data key="v_type">true</data>
    </node>
    <node id="n236">
      <data key="v_name">Roy Hui</data>
      <data key="v_type">true</data>
    </node>
    <node id="n237">
      <data key="v_name">Narcisse Zekpa</data>
      <data key="v_type">true</data>
    </node>
    <node id="n238">
      <data key="v_name">Vimal Raghubir</data>
      <data key="v_type">true</data>
    </node>
    <node id="n239">
      <data key="v_name">furkan öztürk</data>
      <data key="v_type">true</data>
    </node>
    <node id="n240">
      <data key="v_name">iván Larrauri</data>
      <data key="v_type">true</data>
    </node>
    <node id="n241">
      <data key="v_name">Kamil Dabrowski</data>
      <data key="v_type">true</data>
    </node>
    <node id="n242">
      <data key="v_name">Kishore Vasan</data>
      <data key="v_type">true</data>
    </node>
    <node id="n243">
      <data key="v_name">Antonio 174772711</data>
      <data key="v_type">true</data>
    </node>
    <node id="n244">
      <data key="v_name">Agnes Chavez</data>
      <data key="v_type">true</data>
    </node>
    <node id="n245">
      <data key="v_name">Antoine Coq</data>
      <data key="v_type">true</data>
    </node>
    <node id="n246">
      <data key="v_name">Pax Zhang</data>
      <data key="v_type">true</data>
    </node>
    <node id="n247">
      <data key="v_name">Phillip Nichols</data>
      <data key="v_type">true</data>
    </node>
    <node id="n248">
      <data key="v_name">Sarah Lasso</data>
      <data key="v_type">true</data>
    </node>
    <node id="n249">
      <data key="v_name">Intensify World</data>
      <data key="v_type">true</data>
    </node>
    <node id="n250">
      <data key="v_name">Silvino Miranda</data>
      <data key="v_type">true</data>
    </node>
    <node id="n251">
      <data key="v_name">Charles Montez</data>
      <data key="v_type">true</data>
    </node>
    <node id="n252">
      <data key="v_name">Nuno Filipe</data>
      <data key="v_type">true</data>
    </node>
    <node id="n253">
      <data key="v_name">Catherine Villeret</data>
      <data key="v_type">true</data>
    </node>
    <node id="n254">
      <data key="v_name">vivien roussel</data>
      <data key="v_type">true</data>
    </node>
    <node id="n255">
      <data key="v_name">Stephanie Vincent</data>
      <data key="v_type">true</data>
    </node>
    <node id="n256">
      <data key="v_name">Emma Barme</data>
      <data key="v_type">true</data>
    </node>
    <node id="n257">
      <data key="v_name">Sophie AFLALO</data>
      <data key="v_type">true</data>
    </node>
    <node id="n258">
      <data key="v_name">Francois Routhiau</data>
      <data key="v_type">true</data>
    </node>
    <node id="n259">
      <data key="v_name">VINOD SCARIA</data>
      <data key="v_type">true</data>
    </node>
    <node id="n260">
      <data key="v_name">Shreya Rangarajan</data>
      <data key="v_type">true</data>
    </node>
    <node id="n261">
      <data key="v_name">Manan Saksena</data>
      <data key="v_type">true</data>
    </node>
    <node id="n262">
      <data key="v_name">Meghna Ranpuria</data>
      <data key="v_type">true</data>
    </node>
    <node id="n263">
      <data key="v_name">Adeeb Mohammed salim</data>
      <data key="v_type">true</data>
    </node>
    <node id="n264">
      <data key="v_name">kanav anand</data>
      <data key="v_type">true</data>
    </node>
    <node id="n265">
      <data key="v_name">Hernán Morales Durand</data>
      <data key="v_type">true</data>
    </node>
    <node id="n266">
      <data key="v_name">tauheed khan</data>
      <data key="v_type">true</data>
    </node>
    <node id="n267">
      <data key="v_name">Rodolfo Maciéczyk</data>
      <data key="v_type">true</data>
    </node>
    <node id="n268">
      <data key="v_name">April Lenhard</data>
      <data key="v_type">true</data>
    </node>
    <node id="n269">
      <data key="v_name">Jessica Sagot</data>
      <data key="v_type">true</data>
    </node>
    <node id="n270">
      <data key="v_name">Pascal Piazzalunga</data>
      <data key="v_type">true</data>
    </node>
    <node id="n271">
      <data key="v_name">Arunesh Duttta</data>
      <data key="v_type">true</data>
    </node>
    <node id="n272">
      <data key="v_name">Lalhming Muana</data>
      <data key="v_type">true</data>
    </node>
    <node id="n273">
      <data key="v_name">Peter Molloy</data>
      <data key="v_type">true</data>
    </node>
    <node id="n274">
      <data key="v_name">Jonathan QUILLES</data>
      <data key="v_type">true</data>
    </node>
    <node id="n275">
      <data key="v_name">Patrice Blanchardie</data>
      <data key="v_type">true</data>
    </node>
    <node id="n276">
      <data key="v_name">Faisal Riyaz</data>
      <data key="v_type">true</data>
    </node>
    <node id="n277">
      <data key="v_name">Erik Zepka</data>
      <data key="v_type">true</data>
    </node>
    <node id="n278">
      <data key="v_name">Eesmyal Santos-Brault</data>
      <data key="v_type">true</data>
    </node>
    <node id="n279">
      <data key="v_name">Sanna Toropainen</data>
      <data key="v_type">true</data>
    </node>
    <node id="n280">
      <data key="v_name">Donald diffang</data>
      <data key="v_type">true</data>
    </node>
    <node id="n281">
      <data key="v_name">Scott Leibrand</data>
      <data key="v_type">true</data>
    </node>
    <node id="n282">
      <data key="v_name">Yassine Bridi</data>
      <data key="v_type">true</data>
    </node>
    <node id="n283">
      <data key="v_name">Ankit Raj</data>
      <data key="v_type">true</data>
    </node>
    <node id="n284">
      <data key="v_name">Anthony Cu</data>
      <data key="v_type">true</data>
    </node>
    <node id="n285">
      <data key="v_name">Valéry Ridde</data>
      <data key="v_type">true</data>
    </node>
    <node id="n286">
      <data key="v_name">Sofia Meister</data>
      <data key="v_type">true</data>
    </node>
    <node id="n287">
      <data key="v_name">Amish Chadha</data>
      <data key="v_type">true</data>
    </node>
    <node id="n288">
      <data key="v_name">Jean-Christophe Despres</data>
      <data key="v_type">true</data>
    </node>
    <node id="n289">
      <data key="v_name">Julie Legault</data>
      <data key="v_type">true</data>
    </node>
    <node id="n290">
      <data key="v_name">Cyrielle DL</data>
      <data key="v_type">true</data>
    </node>
    <node id="n291">
      <data key="v_name">Flavio Sartoretto</data>
      <data key="v_type">true</data>
    </node>
    <node id="n292">
      <data key="v_name">Antoine Bourguilleau</data>
      <data key="v_type">true</data>
    </node>
    <node id="n293">
      <data key="v_name">Shivam Garg</data>
      <data key="v_type">true</data>
    </node>
    <node id="n294">
      <data key="v_name">Tim Lipp</data>
      <data key="v_type">true</data>
    </node>
    <node id="n295">
      <data key="v_name">Anteneh Gashaw</data>
      <data key="v_type">true</data>
    </node>
    <node id="n296">
      <data key="v_name">Huwaidar alSumari</data>
      <data key="v_type">true</data>
    </node>
    <node id="n297">
      <data key="v_name">Thomas Killick</data>
      <data key="v_type">true</data>
    </node>
    <node id="n298">
      <data key="v_name">Viththiyakaran Nadarajah</data>
      <data key="v_type">true</data>
    </node>
    <node id="n299">
      <data key="v_name">BARATH KUMAR TR</data>
      <data key="v_type">true</data>
    </node>
    <node id="n300">
      <data key="v_name">Cécile Pélissier</data>
      <data key="v_type">true</data>
    </node>
    <node id="n301">
      <data key="v_name">Antonio Mangiapane</data>
      <data key="v_type">true</data>
    </node>
    <node id="n302">
      <data key="v_name">Petru Margunean</data>
      <data key="v_type">true</data>
    </node>
    <node id="n303">
      <data key="v_name">Angela Peebles</data>
      <data key="v_type">true</data>
    </node>
    <node id="n304">
      <data key="v_name">Manuel Pélégrin</data>
      <data key="v_type">true</data>
    </node>
    <node id="n305">
      <data key="v_name">Bilal Ghalib</data>
      <data key="v_type">true</data>
    </node>
    <node id="n306">
      <data key="v_name">Adam Krovina</data>
      <data key="v_type">true</data>
    </node>
    <node id="n307">
      <data key="v_name">Juan Carlos Trabanino</data>
      <data key="v_type">true</data>
    </node>
    <node id="n308">
      <data key="v_name">SERGIO GIUSTI</data>
      <data key="v_type">true</data>
    </node>
    <node id="n309">
      <data key="v_name">Theodore Dottavio</data>
      <data key="v_type">true</data>
    </node>
    <node id="n310">
      <data key="v_name">Stéphane MORICO</data>
      <data key="v_type">true</data>
    </node>
    <node id="n311">
      <data key="v_name">Ellen Jorgensen</data>
      <data key="v_type">true</data>
    </node>
    <node id="n312">
      <data key="v_name">Andrew Robinson</data>
      <data key="v_type">true</data>
    </node>
    <node id="n313">
      <data key="v_name">Thomas Chappuis</data>
      <data key="v_type">true</data>
    </node>
    <node id="n314">
      <data key="v_name">DIVYA SINGH</data>
      <data key="v_type">true</data>
    </node>
    <node id="n315">
      <data key="v_name">adrian Molecule</data>
      <data key="v_type">true</data>
    </node>
    <node id="n316">
      <data key="v_name">Bill Foote</data>
      <data key="v_type">true</data>
    </node>
    <node id="n317">
      <data key="v_name">Cesar VALENCIA GALLARDO</data>
      <data key="v_type">true</data>
    </node>
    <node id="n318">
      <data key="v_name">Arsalan Noorafkan</data>
      <data key="v_type">true</data>
    </node>
    <node id="n319">
      <data key="v_name">Avi (Dr Khalil Betz-Heinemann)</data>
      <data key="v_type">true</data>
    </node>
    <node id="n320">
      <data key="v_name">Charles Beach</data>
      <data key="v_type">true</data>
    </node>
    <node id="n321">
      <data key="v_name">Anthony Lejuez</data>
      <data key="v_type">true</data>
    </node>
    <node id="n322">
      <data key="v_name">Siddharth Shankar Swain</data>
      <data key="v_type">true</data>
    </node>
    <node id="n323">
      <data key="v_name">Arpit Jangir</data>
      <data key="v_type">true</data>
    </node>
    <node id="n324">
      <data key="v_name">Sarah Ware</data>
      <data key="v_type">true</data>
    </node>
    <node id="n325">
      <data key="v_name">Amos Traore</data>
      <data key="v_type">true</data>
    </node>
    <node id="n326">
      <data key="v_name">Aisen Chacin</data>
      <data key="v_type">true</data>
    </node>
    <node id="n327">
      <data key="v_name">luciano catazzo</data>
      <data key="v_type">true</data>
    </node>
    <node id="n328">
      <data key="v_name">Fundación Instituto de Biología Integrativa</data>
      <data key="v_type">true</data>
    </node>
    <node id="n329">
      <data key="v_name">jean-pierre tafani</data>
      <data key="v_type">true</data>
    </node>
    <node id="n330">
      <data key="v_name">Jordan Elevons</data>
      <data key="v_type">true</data>
    </node>
    <node id="n331">
      <data key="v_name">Juanpe Rivas</data>
      <data key="v_type">true</data>
    </node>
    <node id="n332">
      <data key="v_name">Jaleel UCA</data>
      <data key="v_type">true</data>
    </node>
    <node id="n333">
      <data key="v_name">John Urbanik</data>
      <data key="v_type">true</data>
    </node>
    <edge source="n0" target="n99">
    </edge>
    <edge source="n0" target="n100">
    </edge>
    <edge source="n0" target="n101">
    </edge>
    <edge source="n0" target="n102">
    </edge>
    <edge source="n0" target="n103">
    </edge>
    <edge source="n0" target="n104">
    </edge>
    <edge source="n1" target="n105">
    </edge>
    <edge source="n1" target="n106">
    </edge>
    <edge source="n1" target="n107">
    </edge>
    <edge source="n1" target="n108">
    </edge>
    <edge source="n1" target="n109">
    </edge>
    <edge source="n1" target="n110">
    </edge>
    <edge source="n2" target="n111">
    </edge>
    <edge source="n2" target="n112">
    </edge>
    <edge source="n2" target="n113">
    </edge>
    <edge source="n2" target="n114">
    </edge>
    <edge source="n2" target="n115">
    </edge>
    <edge source="n2" target="n116">
    </edge>
    <edge source="n3" target="n117">
    </edge>
    <edge source="n3" target="n118">
    </edge>
    <edge source="n3" target="n101">
    </edge>
    <edge source="n4" target="n119">
    </edge>
    <edge source="n4" target="n120">
    </edge>
    <edge source="n4" target="n121">
    </edge>
    <edge source="n4" target="n109">
    </edge>
    <edge source="n4" target="n122">
    </edge>
    <edge source="n4" target="n123">
    </edge>
    <edge source="n5" target="n124">
    </edge>
    <edge source="n5" target="n125">
    </edge>
    <edge source="n5" target="n126">
    </edge>
    <edge source="n5" target="n127">
    </edge>
    <edge source="n5" target="n128">
    </edge>
    <edge source="n5" target="n129">
    </edge>
    <edge source="n6" target="n130">
    </edge>
    <edge source="n6" target="n131">
    </edge>
    <edge source="n6" target="n132">
    </edge>
    <edge source="n6" target="n133">
    </edge>
    <edge source="n6" target="n134">
    </edge>
    <edge source="n6" target="n135">
    </edge>
    <edge source="n7" target="n136">
    </edge>
    <edge source="n8" target="n137">
    </edge>
    <edge source="n9" target="n138">
    </edge>
    <edge source="n10" target="n139">
    </edge>
    <edge source="n10" target="n140">
    </edge>
    <edge source="n10" target="n130">
    </edge>
    <edge source="n11" target="n105">
    </edge>
    <edge source="n12" target="n129">
    </edge>
    <edge source="n12" target="n124">
    </edge>
    <edge source="n13" target="n141">
    </edge>
    <edge source="n13" target="n142">
    </edge>
    <edge source="n14" target="n143">
    </edge>
    <edge source="n14" target="n144">
    </edge>
    <edge source="n15" target="n145">
    </edge>
    <edge source="n16" target="n146">
    </edge>
    <edge source="n16" target="n147">
    </edge>
    <edge source="n16" target="n148">
    </edge>
    <edge source="n16" target="n130">
    </edge>
    <edge source="n17" target="n149">
    </edge>
    <edge source="n18" target="n130">
    </edge>
    <edge source="n18" target="n150">
    </edge>
    <edge source="n18" target="n151">
    </edge>
    <edge source="n18" target="n152">
    </edge>
    <edge source="n18" target="n153">
    </edge>
    <edge source="n18" target="n154">
    </edge>
    <edge source="n19" target="n155">
    </edge>
    <edge source="n19" target="n156">
    </edge>
    <edge source="n20" target="n157">
    </edge>
    <edge source="n21" target="n158">
    </edge>
    <edge source="n21" target="n148">
    </edge>
    <edge source="n22" target="n159">
    </edge>
    <edge source="n22" target="n160">
    </edge>
    <edge source="n22" target="n139">
    </edge>
    <edge source="n22" target="n148">
    </edge>
    <edge source="n22" target="n161">
    </edge>
    <edge source="n22" target="n100">
    </edge>
    <edge source="n23" target="n100">
    </edge>
    <edge source="n23" target="n162">
    </edge>
    <edge source="n23" target="n151">
    </edge>
    <edge source="n23" target="n163">
    </edge>
    <edge source="n23" target="n164">
    </edge>
    <edge source="n23" target="n130">
    </edge>
    <edge source="n24" target="n165">
    </edge>
    <edge source="n24" target="n104">
    </edge>
    <edge source="n25" target="n166">
    </edge>
    <edge source="n25" target="n167">
    </edge>
    <edge source="n25" target="n168">
    </edge>
    <edge source="n26" target="n169">
    </edge>
    <edge source="n26" target="n170">
    </edge>
    <edge source="n26" target="n171">
    </edge>
    <edge source="n26" target="n172">
    </edge>
    <edge source="n26" target="n148">
    </edge>
    <edge source="n27" target="n173">
    </edge>
    <edge source="n27" target="n174">
    </edge>
    <edge source="n27" target="n175">
    </edge>
    <edge source="n28" target="n176">
    </edge>
    <edge source="n28" target="n177">
    </edge>
    <edge source="n28" target="n164">
    </edge>
    <edge source="n28" target="n178">
    </edge>
    <edge source="n29" target="n179">
    </edge>
    <edge source="n29" target="n180">
    </edge>
    <edge source="n29" target="n181">
    </edge>
    <edge source="n30" target="n182">
    </edge>
    <edge source="n30" target="n183">
    </edge>
    <edge source="n31" target="n166">
    </edge>
    <edge source="n32" target="n184">
    </edge>
    <edge source="n33" target="n185">
    </edge>
    <edge source="n33" target="n186">
    </edge>
    <edge source="n34" target="n187">
    </edge>
    <edge source="n34" target="n188">
    </edge>
    <edge source="n34" target="n189">
    </edge>
    <edge source="n34" target="n190">
    </edge>
    <edge source="n34" target="n191">
    </edge>
    <edge source="n34" target="n192">
    </edge>
    <edge source="n35" target="n193">
    </edge>
    <edge source="n36" target="n194">
    </edge>
    <edge source="n36" target="n195">
    </edge>
    <edge source="n37" target="n196">
    </edge>
    <edge source="n37" target="n167">
    </edge>
    <edge source="n37" target="n140">
    </edge>
    <edge source="n37" target="n197">
    </edge>
    <edge source="n38" target="n198">
    </edge>
    <edge source="n38" target="n199">
    </edge>
    <edge source="n38" target="n200">
    </edge>
    <edge source="n38" target="n201">
    </edge>
    <edge source="n38" target="n202">
    </edge>
    <edge source="n38" target="n203">
    </edge>
    <edge source="n39" target="n204">
    </edge>
    <edge source="n40" target="n198">
    </edge>
    <edge source="n40" target="n205">
    </edge>
    <edge source="n40" target="n151">
    </edge>
    <edge source="n40" target="n206">
    </edge>
    <edge source="n40" target="n207">
    </edge>
    <edge source="n40" target="n208">
    </edge>
    <edge source="n41" target="n198">
    </edge>
    <edge source="n41" target="n209">
    </edge>
    <edge source="n41" target="n210">
    </edge>
    <edge source="n41" target="n211">
    </edge>
    <edge source="n41" target="n212">
    </edge>
    <edge source="n41" target="n213">
    </edge>
    <edge source="n42" target="n214">
    </edge>
    <edge source="n43" target="n215">
    </edge>
    <edge source="n44" target="n192">
    </edge>
    <edge source="n45" target="n216">
    </edge>
    <edge source="n45" target="n217">
    </edge>
    <edge source="n45" target="n218">
    </edge>
    <edge source="n45" target="n99">
    </edge>
    <edge source="n46" target="n166">
    </edge>
    <edge source="n46" target="n219">
    </edge>
    <edge source="n46" target="n167">
    </edge>
    <edge source="n46" target="n220">
    </edge>
    <edge source="n46" target="n100">
    </edge>
    <edge source="n46" target="n140">
    </edge>
    <edge source="n47" target="n99">
    </edge>
    <edge source="n47" target="n216">
    </edge>
    <edge source="n47" target="n218">
    </edge>
    <edge source="n47" target="n221">
    </edge>
    <edge source="n47" target="n222">
    </edge>
    <edge source="n47" target="n223">
    </edge>
    <edge source="n48" target="n224">
    </edge>
    <edge source="n48" target="n225">
    </edge>
    <edge source="n48" target="n226">
    </edge>
    <edge source="n48" target="n99">
    </edge>
    <edge source="n49" target="n226">
    </edge>
    <edge source="n50" target="n226">
    </edge>
    <edge source="n50" target="n227">
    </edge>
    <edge source="n50" target="n228">
    </edge>
    <edge source="n50" target="n229">
    </edge>
    <edge source="n50" target="n230">
    </edge>
    <edge source="n50" target="n139">
    </edge>
    <edge source="n51" target="n139">
    </edge>
    <edge source="n51" target="n231">
    </edge>
    <edge source="n51" target="n232">
    </edge>
    <edge source="n51" target="n233">
    </edge>
    <edge source="n51" target="n234">
    </edge>
    <edge source="n51" target="n235">
    </edge>
    <edge source="n52" target="n236">
    </edge>
    <edge source="n52" target="n237">
    </edge>
    <edge source="n52" target="n238">
    </edge>
    <edge source="n52" target="n239">
    </edge>
    <edge source="n52" target="n240">
    </edge>
    <edge source="n52" target="n99">
    </edge>
    <edge source="n53" target="n241">
    </edge>
    <edge source="n53" target="n220">
    </edge>
    <edge source="n53" target="n232">
    </edge>
    <edge source="n53" target="n242">
    </edge>
    <edge source="n53" target="n243">
    </edge>
    <edge source="n53" target="n233">
    </edge>
    <edge source="n54" target="n244">
    </edge>
    <edge source="n54" target="n245">
    </edge>
    <edge source="n54" target="n246">
    </edge>
    <edge source="n54" target="n247">
    </edge>
    <edge source="n54" target="n248">
    </edge>
    <edge source="n55" target="n249">
    </edge>
    <edge source="n55" target="n250">
    </edge>
    <edge source="n56" target="n251">
    </edge>
    <edge source="n57" target="n252">
    </edge>
    <edge source="n58" target="n253">
    </edge>
    <edge source="n58" target="n254">
    </edge>
    <edge source="n58" target="n255">
    </edge>
    <edge source="n58" target="n256">
    </edge>
    <edge source="n58" target="n257">
    </edge>
    <edge source="n58" target="n258">
    </edge>
    <edge source="n59" target="n259">
    </edge>
    <edge source="n59" target="n260">
    </edge>
    <edge source="n59" target="n261">
    </edge>
    <edge source="n59" target="n262">
    </edge>
    <edge source="n59" target="n263">
    </edge>
    <edge source="n59" target="n264">
    </edge>
    <edge source="n60" target="n265">
    </edge>
    <edge source="n60" target="n101">
    </edge>
    <edge source="n60" target="n266">
    </edge>
    <edge source="n60" target="n267">
    </edge>
    <edge source="n60" target="n268">
    </edge>
    <edge source="n60" target="n269">
    </edge>
    <edge source="n61" target="n270">
    </edge>
    <edge source="n61" target="n271">
    </edge>
    <edge source="n61" target="n272">
    </edge>
    <edge source="n61" target="n273">
    </edge>
    <edge source="n61" target="n274">
    </edge>
    <edge source="n62" target="n275">
    </edge>
    <edge source="n63" target="n176">
    </edge>
    <edge source="n63" target="n164">
    </edge>
    <edge source="n63" target="n276">
    </edge>
    <edge source="n63" target="n277">
    </edge>
    <edge source="n63" target="n217">
    </edge>
    <edge source="n63" target="n278">
    </edge>
    <edge source="n64" target="n279">
    </edge>
    <edge source="n64" target="n273">
    </edge>
    <edge source="n64" target="n280">
    </edge>
    <edge source="n65" target="n281">
    </edge>
    <edge source="n65" target="n148">
    </edge>
    <edge source="n65" target="n265">
    </edge>
    <edge source="n65" target="n277">
    </edge>
    <edge source="n65" target="n282">
    </edge>
    <edge source="n65" target="n283">
    </edge>
    <edge source="n66" target="n284">
    </edge>
    <edge source="n66" target="n104">
    </edge>
    <edge source="n66" target="n285">
    </edge>
    <edge source="n66" target="n286">
    </edge>
    <edge source="n66" target="n287">
    </edge>
    <edge source="n66" target="n168">
    </edge>
    <edge source="n67" target="n288">
    </edge>
    <edge source="n68" target="n289">
    </edge>
    <edge source="n68" target="n290">
    </edge>
    <edge source="n68" target="n291">
    </edge>
    <edge source="n68" target="n292">
    </edge>
    <edge source="n68" target="n293">
    </edge>
    <edge source="n68" target="n294">
    </edge>
    <edge source="n69" target="n295">
    </edge>
    <edge source="n69" target="n296">
    </edge>
    <edge source="n69" target="n217">
    </edge>
    <edge source="n70" target="n295">
    </edge>
    <edge source="n70" target="n217">
    </edge>
    <edge source="n71" target="n295">
    </edge>
    <edge source="n71" target="n297">
    </edge>
    <edge source="n71" target="n217">
    </edge>
    <edge source="n72" target="n295">
    </edge>
    <edge source="n72" target="n271">
    </edge>
    <edge source="n72" target="n298">
    </edge>
    <edge source="n72" target="n299">
    </edge>
    <edge source="n73" target="n295">
    </edge>
    <edge source="n74" target="n295">
    </edge>
    <edge source="n75" target="n295">
    </edge>
    <edge source="n75" target="n300">
    </edge>
    <edge source="n75" target="n217">
    </edge>
    <edge source="n76" target="n295">
    </edge>
    <edge source="n77" target="n295">
    </edge>
    <edge source="n78" target="n99">
    </edge>
    <edge source="n78" target="n301">
    </edge>
    <edge source="n78" target="n302">
    </edge>
    <edge source="n78" target="n303">
    </edge>
    <edge source="n78" target="n304">
    </edge>
    <edge source="n78" target="n305">
    </edge>
    <edge source="n79" target="n306">
    </edge>
    <edge source="n79" target="n307">
    </edge>
    <edge source="n79" target="n308">
    </edge>
    <edge source="n79" target="n272">
    </edge>
    <edge source="n79" target="n309">
    </edge>
    <edge source="n79" target="n310">
    </edge>
    <edge source="n80" target="n311">
    </edge>
    <edge source="n81" target="n312">
    </edge>
    <edge source="n81" target="n231">
    </edge>
    <edge source="n82" target="n313">
    </edge>
    <edge source="n83" target="n295">
    </edge>
    <edge source="n83" target="n314">
    </edge>
    <edge source="n83" target="n299">
    </edge>
    <edge source="n84" target="n315">
    </edge>
    <edge source="n84" target="n316">
    </edge>
    <edge source="n84" target="n217">
    </edge>
    <edge source="n84" target="n317">
    </edge>
    <edge source="n85" target="n318">
    </edge>
    <edge source="n86" target="n295">
    </edge>
    <edge source="n87" target="n319">
    </edge>
    <edge source="n87" target="n320">
    </edge>
    <edge source="n87" target="n321">
    </edge>
    <edge source="n87" target="n322">
    </edge>
    <edge source="n87" target="n323">
    </edge>
    <edge source="n87" target="n324">
    </edge>
    <edge source="n88" target="n325">
    </edge>
    <edge source="n88" target="n310">
    </edge>
    <edge source="n89" target="n295">
    </edge>
    <edge source="n90" target="n326">
    </edge>
    <edge source="n90" target="n327">
    </edge>
    <edge source="n90" target="n307">
    </edge>
    <edge source="n91" target="n311">
    </edge>
    <edge source="n91" target="n324">
    </edge>
    <edge source="n91" target="n328">
    </edge>
    <edge source="n92" target="n329">
    </edge>
    <edge source="n93" target="n330">
    </edge>
    <edge source="n94" target="n295">
    </edge>
    <edge source="n95" target="n331">
    </edge>
    <edge source="n96" target="n332">
    </edge>
    <edge source="n97" target="n333">
    </edge>
    <edge source="n98" target="n295">
    </edge>
  </graph>
</graphml>
