[
    {
        "type": "message",
        "subtype": "channel_join",
        "ts": "1584698926.002800",
        "user": "U010FUU89B9",
        "text": "<@U010FUU89B9> has joined the channel"
    },
    {
        "client_msg_id": "320341f6-02ba-4e57-99c7-3f55486bbb88",
        "type": "message",
        "text": "viral transport media might have a bunch of RNALater in it",
        "user": "U010D9EGSTH",
        "ts": "1584701933.002900",
        "team": "TUU48M0T1",
        "user_team": "TUU48M0T1",
        "source_team": "TUU48M0T1",
        "user_profile": {
            "avatar_hash": "gc4df71cbae9",
            "image_72": "https:\/\/secure.gravatar.com\/avatar\/c4df71cbae90ff8819eff196c6ed3edf.jpg?s=72&d=https%3A%2F%2Fa.slack-edge.com%2Fdf10d%2Fimg%2Favatars%2Fava_0020-72.png",
            "first_name": "",
            "real_name": "Ilya Levantis",
            "display_name": "Ilya Levantis",
            "team": "TUU48M0T1",
            "name": "il79663",
            "is_restricted": false,
            "is_ultra_restricted": false
        },
        "blocks": [
            {
                "type": "rich_text",
                "block_id": "0fQx",
                "elements": [
                    {
                        "type": "rich_text_section",
                        "elements": [
                            {
                                "type": "text",
                                "text": "viral transport media might have a bunch of RNALater in it"
                            }
                        ]
                    }
                ]
            }
        ],
        "thread_ts": "1584661706.001400",
        "parent_user_id": "UVBQDE7R8"
    },
    {
        "client_msg_id": "3bfa273a-0602-4fcf-9797-e4e85f1ca138",
        "type": "message",
        "text": "I just found this paper <http:\/\/www.en-journal.org\/journal\/view.html?doi=10.5607\/en20009> were people collected the swab themselves. It is then put in DMEM. And Trizol is added (which ideally we want to avoid, unless we have fume hoods). The other problem is how to get around the BL-2 facilites problem.",
        "user": "UVALZTQ58",
        "ts": "1584715875.003100",
        "team": "TUU48M0T1",
        "user_team": "TUU48M0T1",
        "source_team": "TUU48M0T1",
        "user_profile": {
            "avatar_hash": "68ae03dc29bc",
            "image_72": "https:\/\/avatars.slack-edge.com\/2020-03-19\/1000158389970_68ae03dc29bc6cbe2e2c_72.png",
            "first_name": "",
            "real_name": "Larissa de Clauser",
            "display_name": "Larissa de Clauser",
            "team": "TUU48M0T1",
            "name": "larissa.declauser",
            "is_restricted": false,
            "is_ultra_restricted": false
        },
        "attachments": [
            {
                "title": "Development of a Laboratory-safe and Low-cost Detection Protocol for SARS-CoV-2 of the Coronavirus Disease 2019 (COVID-19)",
                "title_link": "http:\/\/www.en-journal.org\/journal\/view.html?doi=10.5607\/en20009",
                "text": "Joungha Won, Solji Lee, Myungsun Park, Tai Young Kim, Mingu Gordon Park, Byung Yoon Choi, Dongwan Kim, Hyeshik Chang, V. Narry Kim and C. Justin Lee*. -0001;0:. <https:\/\/doi.org\/10.5607\/en20009>",
                "fallback": "Development of a Laboratory-safe and Low-cost Detection Protocol for SARS-CoV-2 of the Coronavirus Disease 2019 (COVID-19)",
                "from_url": "http:\/\/www.en-journal.org\/journal\/view.html?doi=10.5607\/en20009",
                "service_name": "en-journal.org",
                "id": 1,
                "original_url": "http:\/\/www.en-journal.org\/journal\/view.html?doi=10.5607\/en20009"
            }
        ],
        "blocks": [
            {
                "type": "rich_text",
                "block_id": "d7X39",
                "elements": [
                    {
                        "type": "rich_text_section",
                        "elements": [
                            {
                                "type": "text",
                                "text": "I just found this paper "
                            },
                            {
                                "type": "link",
                                "url": "http:\/\/www.en-journal.org\/journal\/view.html?doi=10.5607\/en20009"
                            },
                            {
                                "type": "text",
                                "text": " were people collected the swab themselves. It is then put in DMEM. And Trizol is added (which ideally we want to avoid, unless we have fume hoods). The other problem is how to get around the BL-2 facilites problem."
                            }
                        ]
                    }
                ]
            }
        ],
        "thread_ts": "1584661706.001400",
        "parent_user_id": "UVBQDE7R8"
    },
    {
        "client_msg_id": "965f4e2a-9fd3-4930-af2d-d5620457fb88",
        "type": "message",
        "text": "Is there already a google doc where we summarize all RNA extraction alternatives out there?",
        "user": "UVALZTQ58",
        "ts": "1584725468.003800",
        "team": "TUU48M0T1",
        "user_team": "TUU48M0T1",
        "source_team": "TUU48M0T1",
        "user_profile": {
            "avatar_hash": "68ae03dc29bc",
            "image_72": "https:\/\/avatars.slack-edge.com\/2020-03-19\/1000158389970_68ae03dc29bc6cbe2e2c_72.png",
            "first_name": "",
            "real_name": "Larissa de Clauser",
            "display_name": "Larissa de Clauser",
            "team": "TUU48M0T1",
            "name": "larissa.declauser",
            "is_restricted": false,
            "is_ultra_restricted": false
        },
        "blocks": [
            {
                "type": "rich_text",
                "block_id": "s2Y",
                "elements": [
                    {
                        "type": "rich_text_section",
                        "elements": [
                            {
                                "type": "text",
                                "text": "Is there already a google doc where we summarize all RNA extraction alternatives out there?"
                            }
                        ]
                    }
                ]
            }
        ],
        "thread_ts": "1584725468.003800",
        "reply_count": 2,
        "reply_users_count": 1,
        "latest_reply": "1584726984.007100",
        "reply_users": [
            "UVBQDE7R8"
        ],
        "replies": [
            {
                "user": "UVBQDE7R8",
                "ts": "1584726500.004400"
            },
            {
                "user": "UVBQDE7R8",
                "ts": "1584726984.007100"
            }
        ],
        "subscribed": false,
        "reactions": [
            {
                "name": "+1",
                "users": [
                    "UVBQDE7R8"
                ],
                "count": 1
            }
        ]
    },
    {
        "client_msg_id": "402f64bb-012b-4b7d-b19e-1c7688e6cce7",
        "type": "message",
        "text": "Good points. RNAlater \/ buffered ammonium acetate + EDTA is a reasonable thing to expect in a swab for a RNA virus sample, even if not standard.",
        "user": "UVBQDE7R8",
        "ts": "1584726375.003900",
        "team": "TUU48M0T1",
        "user_team": "TUU48M0T1",
        "source_team": "TUU48M0T1",
        "user_profile": {
            "avatar_hash": "gb77d2e5c821",
            "image_72": "https:\/\/secure.gravatar.com\/avatar\/b77d2e5c8214c9643410000e998ef9f4.jpg?s=72&d=https%3A%2F%2Fa.slack-edge.com%2Fdf10d%2Fimg%2Favatars%2Fava_0018-72.png",
            "first_name": "",
            "real_name": "Darach",
            "display_name": "Darach",
            "team": "TUU48M0T1",
            "name": "dchmiller",
            "is_restricted": false,
            "is_ultra_restricted": false
        },
        "blocks": [
            {
                "type": "rich_text",
                "block_id": "xdyLm",
                "elements": [
                    {
                        "type": "rich_text_section",
                        "elements": [
                            {
                                "type": "text",
                                "text": "Good points. RNAlater \/ buffered ammonium acetate + EDTA is a reasonable thing to expect in a swab for a RNA virus sample, even if not standard."
                            }
                        ]
                    }
                ]
            }
        ],
        "thread_ts": "1584661706.001400",
        "parent_user_id": "UVBQDE7R8"
    },
    {
        "client_msg_id": "87a9c9cd-f57c-4225-a213-49cc5637078d",
        "type": "message",
        "text": "I'm more worried about the alcohol precipitation, thinking more about automation there is hard. It'd be great if the same prep could be devised for automated and non-automated workflows.",
        "user": "UVBQDE7R8",
        "ts": "1584726421.004100",
        "team": "TUU48M0T1",
        "user_team": "TUU48M0T1",
        "source_team": "TUU48M0T1",
        "user_profile": {
            "avatar_hash": "gb77d2e5c821",
            "image_72": "https:\/\/secure.gravatar.com\/avatar\/b77d2e5c8214c9643410000e998ef9f4.jpg?s=72&d=https%3A%2F%2Fa.slack-edge.com%2Fdf10d%2Fimg%2Favatars%2Fava_0018-72.png",
            "first_name": "",
            "real_name": "Darach",
            "display_name": "Darach",
            "team": "TUU48M0T1",
            "name": "dchmiller",
            "is_restricted": false,
            "is_ultra_restricted": false
        },
        "blocks": [
            {
                "type": "rich_text",
                "block_id": "CR9p+",
                "elements": [
                    {
                        "type": "rich_text_section",
                        "elements": [
                            {
                                "type": "text",
                                "text": "I'm more worried about the alcohol precipitation, thinking more about automation there is hard. It'd be great if the same prep could be devised for automated and non-automated workflows."
                            }
                        ]
                    }
                ]
            }
        ],
        "thread_ts": "1584661706.001400",
        "parent_user_id": "UVBQDE7R8"
    },
    {
        "client_msg_id": "0e5850fb-4fd7-46d8-a12d-4e93ed25dd07",
        "type": "message",
        "text": "There's a \"Detection method\" chart here: <https:\/\/docs.google.com\/spreadsheets\/d\/1iUrtiRLAXbJEzl1sxpJkNs5Z89pYgPFiidvYrKQ9Ta4\/edit#gid=0>\n\nNew tab for extractions?",
        "user": "UVBQDE7R8",
        "ts": "1584726500.004400",
        "team": "TUU48M0T1",
        "user_team": "TUU48M0T1",
        "source_team": "TUU48M0T1",
        "user_profile": {
            "avatar_hash": "gb77d2e5c821",
            "image_72": "https:\/\/secure.gravatar.com\/avatar\/b77d2e5c8214c9643410000e998ef9f4.jpg?s=72&d=https%3A%2F%2Fa.slack-edge.com%2Fdf10d%2Fimg%2Favatars%2Fava_0018-72.png",
            "first_name": "",
            "real_name": "Darach",
            "display_name": "Darach",
            "team": "TUU48M0T1",
            "name": "dchmiller",
            "is_restricted": false,
            "is_ultra_restricted": false
        },
        "blocks": [
            {
                "type": "rich_text",
                "block_id": "PQZi",
                "elements": [
                    {
                        "type": "rich_text_section",
                        "elements": [
                            {
                                "type": "text",
                                "text": "There's a \"Detection method\" chart here: "
                            },
                            {
                                "type": "link",
                                "url": "https:\/\/docs.google.com\/spreadsheets\/d\/1iUrtiRLAXbJEzl1sxpJkNs5Z89pYgPFiidvYrKQ9Ta4\/edit#gid=0"
                            },
                            {
                                "type": "text",
                                "text": "\n\nNew tab for extractions?"
                            }
                        ]
                    }
                ]
            }
        ],
        "thread_ts": "1584725468.003800",
        "parent_user_id": "UVALZTQ58",
        "reactions": [
            {
                "name": "100",
                "users": [
                    "UUNGFHSV8"
                ],
                "count": 1
            }
        ]
    },
    {
        "client_msg_id": "46a87396-9c79-4ea2-a8b6-e92d5501839d",
        "type": "message",
        "text": "What are experiments that should be done?",
        "user": "UVBQDE7R8",
        "ts": "1584726708.005000",
        "team": "TUU48M0T1",
        "user_team": "TUU48M0T1",
        "source_team": "TUU48M0T1",
        "user_profile": {
            "avatar_hash": "gb77d2e5c821",
            "image_72": "https:\/\/secure.gravatar.com\/avatar\/b77d2e5c8214c9643410000e998ef9f4.jpg?s=72&d=https%3A%2F%2Fa.slack-edge.com%2Fdf10d%2Fimg%2Favatars%2Fava_0018-72.png",
            "first_name": "",
            "real_name": "Darach",
            "display_name": "Darach",
            "team": "TUU48M0T1",
            "name": "dchmiller",
            "is_restricted": false,
            "is_ultra_restricted": false
        },
        "blocks": [
            {
                "type": "rich_text",
                "block_id": "RB0",
                "elements": [
                    {
                        "type": "rich_text_section",
                        "elements": [
                            {
                                "type": "text",
                                "text": "What are experiments that should be done?"
                            }
                        ]
                    }
                ]
            }
        ],
        "thread_ts": "1584726708.005000",
        "reply_count": 3,
        "reply_users_count": 2,
        "latest_reply": "1584726934.006800",
        "reply_users": [
            "UVBQDE7R8",
            "UUNGFHSV8"
        ],
        "replies": [
            {
                "user": "UVBQDE7R8",
                "ts": "1584726863.006400"
            },
            {
                "user": "UVBQDE7R8",
                "ts": "1584726877.006600"
            },
            {
                "user": "UUNGFHSV8",
                "ts": "1584726934.006800"
            }
        ],
        "subscribed": false
    },
    {
        "client_msg_id": "73f571c3-53f5-454e-a530-c8dba00ac113",
        "type": "message",
        "text": "So, it seems like it's always a mechanical swab ideally on a plastic rod, then put in various media. Usually it's just salts, but I wouldn't be surprised if someone tried adding preservatives like \"RNAlater\". Usually aqueous though, that should be true.",
        "user": "UVBQDE7R8",
        "ts": "1584726802.005100",
        "team": "TUU48M0T1",
        "user_team": "TUU48M0T1",
        "source_team": "TUU48M0T1",
        "user_profile": {
            "avatar_hash": "gb77d2e5c821",
            "image_72": "https:\/\/secure.gravatar.com\/avatar\/b77d2e5c8214c9643410000e998ef9f4.jpg?s=72&d=https%3A%2F%2Fa.slack-edge.com%2Fdf10d%2Fimg%2Favatars%2Fava_0018-72.png",
            "first_name": "",
            "real_name": "Darach",
            "display_name": "Darach",
            "team": "TUU48M0T1",
            "name": "dchmiller",
            "is_restricted": false,
            "is_ultra_restricted": false
        },
        "blocks": [
            {
                "type": "rich_text",
                "block_id": "11\/",
                "elements": [
                    {
                        "type": "rich_text_section",
                        "elements": [
                            {
                                "type": "text",
                                "text": "So, it seems like it's always a mechanical swab ideally on a plastic rod, then put in various media. Usually it's just salts, but I wouldn't be surprised if someone tried adding preservatives like \"RNAlater\". Usually aqueous though, that should be true."
                            }
                        ]
                    }
                ]
            }
        ],
        "thread_ts": "1584661706.001400",
        "parent_user_id": "UVBQDE7R8"
    },
    {
        "client_msg_id": "d264b939-e546-4923-b3d9-1220f6759245",
        "type": "message",
        "text": "But maybe we shouldn't plan on the media being the same thing.",
        "user": "UVBQDE7R8",
        "ts": "1584726821.005600",
        "team": "TUU48M0T1",
        "user_team": "TUU48M0T1",
        "source_team": "TUU48M0T1",
        "user_profile": {
            "avatar_hash": "gb77d2e5c821",
            "image_72": "https:\/\/secure.gravatar.com\/avatar\/b77d2e5c8214c9643410000e998ef9f4.jpg?s=72&d=https%3A%2F%2Fa.slack-edge.com%2Fdf10d%2Fimg%2Favatars%2Fava_0018-72.png",
            "first_name": "",
            "real_name": "Darach",
            "display_name": "Darach",
            "team": "TUU48M0T1",
            "name": "dchmiller",
            "is_restricted": false,
            "is_ultra_restricted": false
        },
        "blocks": [
            {
                "type": "rich_text",
                "block_id": "BD6",
                "elements": [
                    {
                        "type": "rich_text_section",
                        "elements": [
                            {
                                "type": "text",
                                "text": "But maybe we shouldn't plan on the media being the same thing."
                            }
                        ]
                    }
                ]
            }
        ],
        "thread_ts": "1584661706.001400",
        "parent_user_id": "UVBQDE7R8"
    },
    {
        "client_msg_id": "0f7f190b-ec58-4be4-a7da-43ca63c7a9fc",
        "type": "message",
        "text": "Can filter paper extract RNA from lysate well for clean ups?",
        "user": "UVBQDE7R8",
        "ts": "1584726863.006400",
        "team": "TUU48M0T1",
        "user_team": "TUU48M0T1",
        "source_team": "TUU48M0T1",
        "user_profile": {
            "avatar_hash": "gb77d2e5c821",
            "image_72": "https:\/\/secure.gravatar.com\/avatar\/b77d2e5c8214c9643410000e998ef9f4.jpg?s=72&d=https%3A%2F%2Fa.slack-edge.com%2Fdf10d%2Fimg%2Favatars%2Fava_0018-72.png",
            "first_name": "",
            "real_name": "Darach",
            "display_name": "Darach",
            "team": "TUU48M0T1",
            "name": "dchmiller",
            "is_restricted": false,
            "is_ultra_restricted": false
        },
        "blocks": [
            {
                "type": "rich_text",
                "block_id": "dTU",
                "elements": [
                    {
                        "type": "rich_text_section",
                        "elements": [
                            {
                                "type": "text",
                                "text": "Can filter paper extract RNA from lysate well for clean ups?"
                            }
                        ]
                    }
                ]
            }
        ],
        "thread_ts": "1584726708.005000",
        "parent_user_id": "UVBQDE7R8"
    },
    {
        "client_msg_id": "c70a7955-382f-45da-9554-5f0c464239ae",
        "type": "message",
        "text": "Does heat-treatment work for lysis?",
        "user": "UVBQDE7R8",
        "ts": "1584726877.006600",
        "team": "TUU48M0T1",
        "user_team": "TUU48M0T1",
        "source_team": "TUU48M0T1",
        "user_profile": {
            "avatar_hash": "gb77d2e5c821",
            "image_72": "https:\/\/secure.gravatar.com\/avatar\/b77d2e5c8214c9643410000e998ef9f4.jpg?s=72&d=https%3A%2F%2Fa.slack-edge.com%2Fdf10d%2Fimg%2Favatars%2Fava_0018-72.png",
            "first_name": "",
            "real_name": "Darach",
            "display_name": "Darach",
            "team": "TUU48M0T1",
            "name": "dchmiller",
            "is_restricted": false,
            "is_ultra_restricted": false
        },
        "blocks": [
            {
                "type": "rich_text",
                "block_id": "CPZK0",
                "elements": [
                    {
                        "type": "rich_text_section",
                        "elements": [
                            {
                                "type": "text",
                                "text": "Does heat-treatment work for lysis?"
                            }
                        ]
                    }
                ]
            }
        ],
        "thread_ts": "1584726708.005000",
        "parent_user_id": "UVBQDE7R8"
    },
    {
        "client_msg_id": "8a7161b3-fd17-4847-8d71-a1ce2b28f9de",
        "type": "message",
        "text": "Reproduce the bomb.bio RNA extraction protocol, and (if you’ve got the reagents and facilities to do it) try out their magbead synthesis protocols as well. Also 3D-print and assemble their magnetic rack designs <https:\/\/bomb.bio\/protocols\/>",
        "user": "UUNGFHSV8",
        "ts": "1584726934.006800",
        "team": "TUU48M0T1",
        "user_team": "TUU48M0T1",
        "source_team": "TUU48M0T1",
        "user_profile": {
            "avatar_hash": "1c55ee32397a",
            "image_72": "https:\/\/avatars.slack-edge.com\/2020-03-07\/987349161984_1c55ee32397a85a87ec4_72.png",
            "first_name": "Isaac",
            "real_name": "Isaac Larkin",
            "display_name": "Isaac Larkin",
            "team": "TUU48M0T1",
            "name": "eyesmo",
            "is_restricted": false,
            "is_ultra_restricted": false
        },
        "attachments": [
            {
                "service_name": "bomb.bio",
                "title": "Protocols",
                "title_link": "https:\/\/bomb.bio\/protocols\/",
                "text": "\/* Style Definitions *\/ table.MsoNormalTable {mso-style-name:”Table Normal”; mso-tstyle-rowband-size:0; mso-tstyle-colband-size:0; mso-style-noshow:yes; mso-style-priority:99; mso-style…",
                "fallback": "bomb.bio: Protocols",
                "thumb_url": "https:\/\/bomb.bio\/wp-content\/uploads\/2018\/08\/pockerack-1024x576.jpg",
                "ts": 1532327821,
                "from_url": "https:\/\/bomb.bio\/protocols\/",
                "thumb_width": 1024,
                "thumb_height": 576,
                "service_icon": "https:\/\/bomb.bio\/wp-content\/uploads\/2018\/07\/cropped-bomb_final_comp_550x550-180x180.png",
                "id": 1,
                "original_url": "https:\/\/bomb.bio\/protocols\/"
            }
        ],
        "blocks": [
            {
                "type": "rich_text",
                "block_id": "V+Ox",
                "elements": [
                    {
                        "type": "rich_text_section",
                        "elements": [
                            {
                                "type": "text",
                                "text": "Reproduce the bomb.bio RNA extraction protocol, and (if you’ve got the reagents and facilities to do it) try out their magbead synthesis protocols as well. Also 3D-print and assemble their magnetic rack designs "
                            },
                            {
                                "type": "link",
                                "url": "https:\/\/bomb.bio\/protocols\/"
                            }
                        ]
                    }
                ]
            }
        ],
        "thread_ts": "1584726708.005000",
        "parent_user_id": "UVBQDE7R8",
        "reactions": [
            {
                "name": "+1",
                "users": [
                    "UVBQDE7R8"
                ],
                "count": 1
            }
        ]
    },
    {
        "client_msg_id": "2589ae4b-1822-4ffe-96d0-1f404493a432",
        "type": "message",
        "text": "There is now a tab for extractions! Can people put a few on there?",
        "user": "UVBQDE7R8",
        "ts": "1584726984.007100",
        "team": "TUU48M0T1",
        "user_team": "TUU48M0T1",
        "source_team": "TUU48M0T1",
        "user_profile": {
            "avatar_hash": "gb77d2e5c821",
            "image_72": "https:\/\/secure.gravatar.com\/avatar\/b77d2e5c8214c9643410000e998ef9f4.jpg?s=72&d=https%3A%2F%2Fa.slack-edge.com%2Fdf10d%2Fimg%2Favatars%2Fava_0018-72.png",
            "first_name": "",
            "real_name": "Darach",
            "display_name": "Darach",
            "team": "TUU48M0T1",
            "name": "dchmiller",
            "is_restricted": false,
            "is_ultra_restricted": false
        },
        "blocks": [
            {
                "type": "rich_text",
                "block_id": "1WO",
                "elements": [
                    {
                        "type": "rich_text_section",
                        "elements": [
                            {
                                "type": "text",
                                "text": "There is now a tab for extractions! Can people put a few on there?"
                            }
                        ]
                    }
                ]
            }
        ],
        "thread_ts": "1584725468.003800",
        "parent_user_id": "UVALZTQ58"
    },
    {
        "client_msg_id": "ee874512-b1cf-4a62-9410-199510c3e94e",
        "type": "message",
        "text": "So I have been reading about DiaSorin, an italian comany whose test was approved by the FDA, which have thrown a lot of money on them, and apparently takes less than 1h. It basically goes from the samples directly and then requires you only to add the reaction reagents and use the Liason MDX, which is a thermocycler (<https:\/\/molecular.diasorin.com\/us\/liaison-mdx\/>), that apparently is present in many hospitals in the US. So that makes me suspect that the heating might work?",
        "user": "UVALZTQ58",
        "ts": "1584729471.009600",
        "team": "TUU48M0T1",
        "user_team": "TUU48M0T1",
        "source_team": "TUU48M0T1",
        "user_profile": {
            "avatar_hash": "68ae03dc29bc",
            "image_72": "https:\/\/avatars.slack-edge.com\/2020-03-19\/1000158389970_68ae03dc29bc6cbe2e2c_72.png",
            "first_name": "",
            "real_name": "Larissa de Clauser",
            "display_name": "Larissa de Clauser",
            "team": "TUU48M0T1",
            "name": "larissa.declauser",
            "is_restricted": false,
            "is_ultra_restricted": false
        },
        "attachments": [
            {
                "service_name": "DiaSorin Molecular",
                "title": "LIAISON® MDX - DiaSorin Molecular",
                "title_link": "https:\/\/molecular.diasorin.com\/us\/liaison-mdx\/",
                "text": "The LIAISON® MDX is an innovative thermocycler for molecular qualitative, quantitative and multi-analyte assays with two consumable disc options to support any testing volume.",
                "fallback": "DiaSorin Molecular: LIAISON® MDX - DiaSorin Molecular",
                "thumb_url": "https:\/\/molecular.diasorin.com\/us\/wp-content\/uploads\/2017\/11\/molecular_share.png",
                "from_url": "https:\/\/molecular.diasorin.com\/us\/liaison-mdx\/",
                "thumb_width": 1200,
                "thumb_height": 630,
                "id": 1,
                "original_url": "https:\/\/molecular.diasorin.com\/us\/liaison-mdx\/"
            }
        ],
        "blocks": [
            {
                "type": "rich_text",
                "block_id": "o3=t",
                "elements": [
                    {
                        "type": "rich_text_section",
                        "elements": [
                            {
                                "type": "text",
                                "text": "So I have been reading about DiaSorin, an italian comany whose test was approved by the FDA, which have thrown a lot of money on them, and apparently takes less than 1h. It basically goes from the samples directly and then requires you only to add the reaction reagents and use the Liason MDX, which is a thermocycler ("
                            },
                            {
                                "type": "link",
                                "url": "https:\/\/molecular.diasorin.com\/us\/liaison-mdx\/"
                            },
                            {
                                "type": "text",
                                "text": "), that apparently is present in many hospitals in the US. So that makes me suspect that the heating might work?"
                            }
                        ]
                    }
                ]
            }
        ],
        "reactions": [
            {
                "name": "thinking_face",
                "users": [
                    "UVBQDE7R8",
                    "UUNGFHSV8"
                ],
                "count": 2
            }
        ]
    },
    {
        "client_msg_id": "ac313241-76f2-4d4b-a72d-923637a1b416",
        "type": "message",
        "text": "Does anyone know if the viral RNA targeted is in in capsids or in human cells from a nasal swab ??? Is it actively replicating in that site, and does that matter?",
        "user": "UVBQDE7R8",
        "ts": "1584729834.010600",
        "team": "TUU48M0T1",
        "user_team": "TUU48M0T1",
        "source_team": "TUU48M0T1",
        "user_profile": {
            "avatar_hash": "gb77d2e5c821",
            "image_72": "https:\/\/secure.gravatar.com\/avatar\/b77d2e5c8214c9643410000e998ef9f4.jpg?s=72&d=https%3A%2F%2Fa.slack-edge.com%2Fdf10d%2Fimg%2Favatars%2Fava_0018-72.png",
            "first_name": "",
            "real_name": "Darach",
            "display_name": "Darach",
            "team": "TUU48M0T1",
            "name": "dchmiller",
            "is_restricted": false,
            "is_ultra_restricted": false
        },
        "blocks": [
            {
                "type": "rich_text",
                "block_id": "ZZE",
                "elements": [
                    {
                        "type": "rich_text_section",
                        "elements": [
                            {
                                "type": "text",
                                "text": "Does anyone know if the viral RNA targeted is in in capsids or in human cells from a nasal swab ??? Is it actively replicating in that site, and does that matter?"
                            }
                        ]
                    }
                ]
            }
        ],
        "thread_ts": "1584729834.010600",
        "reply_count": 4,
        "reply_users_count": 3,
        "latest_reply": "1584824723.016000",
        "reply_users": [
            "U010D9EGSTH",
            "UVALZTQ58",
            "U0103SR759U"
        ],
        "replies": [
            {
                "user": "U010D9EGSTH",
                "ts": "1584729909.010700"
            },
            {
                "user": "U010D9EGSTH",
                "ts": "1584730168.010900"
            },
            {
                "user": "UVALZTQ58",
                "ts": "1584730656.012100"
            },
            {
                "user": "U0103SR759U",
                "ts": "1584824723.016000"
            }
        ],
        "subscribed": false
    },
    {
        "client_msg_id": "b5538b5e-cfb2-4c09-b287-11c08bf36549",
        "type": "message",
        "text": "yes also would like to know this",
        "user": "U010D9EGSTH",
        "ts": "1584729909.010700",
        "team": "TUU48M0T1",
        "user_team": "TUU48M0T1",
        "source_team": "TUU48M0T1",
        "user_profile": {
            "avatar_hash": "gc4df71cbae9",
            "image_72": "https:\/\/secure.gravatar.com\/avatar\/c4df71cbae90ff8819eff196c6ed3edf.jpg?s=72&d=https%3A%2F%2Fa.slack-edge.com%2Fdf10d%2Fimg%2Favatars%2Fava_0020-72.png",
            "first_name": "",
            "real_name": "Ilya Levantis",
            "display_name": "Ilya Levantis",
            "team": "TUU48M0T1",
            "name": "il79663",
            "is_restricted": false,
            "is_ultra_restricted": false
        },
        "blocks": [
            {
                "type": "rich_text",
                "block_id": "Yy\/iG",
                "elements": [
                    {
                        "type": "rich_text_section",
                        "elements": [
                            {
                                "type": "text",
                                "text": "yes also would like to know this"
                            }
                        ]
                    }
                ]
            }
        ],
        "thread_ts": "1584729834.010600",
        "parent_user_id": "UVBQDE7R8"
    },
    {
        "client_msg_id": "4faa63f5-7537-495b-a9d7-9039632a8c19",
        "type": "message",
        "text": "my guess is it doesn't matter though if someone is infected you will get infected cells out of the swab which will have plenty of viral RNA unencapsulated in the nucleus as well as plenty of virions floating around",
        "user": "U010D9EGSTH",
        "ts": "1584730168.010900",
        "team": "TUU48M0T1",
        "user_team": "TUU48M0T1",
        "source_team": "TUU48M0T1",
        "user_profile": {
            "avatar_hash": "gc4df71cbae9",
            "image_72": "https:\/\/secure.gravatar.com\/avatar\/c4df71cbae90ff8819eff196c6ed3edf.jpg?s=72&d=https%3A%2F%2Fa.slack-edge.com%2Fdf10d%2Fimg%2Favatars%2Fava_0020-72.png",
            "first_name": "",
            "real_name": "Ilya Levantis",
            "display_name": "Ilya Levantis",
            "team": "TUU48M0T1",
            "name": "il79663",
            "is_restricted": false,
            "is_ultra_restricted": false
        },
        "blocks": [
            {
                "type": "rich_text",
                "block_id": "XNqQY",
                "elements": [
                    {
                        "type": "rich_text_section",
                        "elements": [
                            {
                                "type": "text",
                                "text": "my guess is it doesn't matter though if someone is infected you will get infected cells out of the swab which will have plenty of viral RNA unencapsulated in the nucleus as well as plenty of virions floating around"
                            }
                        ]
                    }
                ]
            }
        ],
        "thread_ts": "1584729834.010600",
        "parent_user_id": "UVBQDE7R8",
        "reactions": [
            {
                "name": "+1",
                "users": [
                    "UVBQDE7R8"
                ],
                "count": 1
            }
        ]
    },
    {
        "client_msg_id": "11e75d9a-2fd0-40e6-bbdd-372e65d8ef2c",
        "type": "message",
        "text": "These folks using heat extract <https:\/\/twitter.com\/JMRothberg\/status\/1240037146414714885>",
        "user": "UVBQDE7R8",
        "ts": "1584730330.011200",
        "team": "TUU48M0T1",
        "user_team": "TUU48M0T1",
        "source_team": "TUU48M0T1",
        "user_profile": {
            "avatar_hash": "gb77d2e5c821",
            "image_72": "https:\/\/secure.gravatar.com\/avatar\/b77d2e5c8214c9643410000e998ef9f4.jpg?s=72&d=https%3A%2F%2Fa.slack-edge.com%2Fdf10d%2Fimg%2Favatars%2Fava_0018-72.png",
            "first_name": "",
            "real_name": "Darach",
            "display_name": "Darach",
            "team": "TUU48M0T1",
            "name": "dchmiller",
            "is_restricted": false,
            "is_ultra_restricted": false
        },
        "blocks": [
            {
                "type": "rich_text",
                "block_id": "oNTM",
                "elements": [
                    {
                        "type": "rich_text_section",
                        "elements": [
                            {
                                "type": "text",
                                "text": "These folks using heat extract "
                            },
                            {
                                "type": "link",
                                "url": "https:\/\/twitter.com\/JMRothberg\/status\/1240037146414714885"
                            }
                        ]
                    }
                ]
            }
        ]
    },
    {
        "client_msg_id": "d642669d-c398-46a4-a8ca-42da5bb61e49",
        "type": "message",
        "text": "\"To get an at Home <https:\/\/twitter.com\/hashtag\/Coronavirus?src=hashtag_click|#Coronavirus> Test 2 or more weeks earlier, save one step &amp; make us confident we can do this, would you be ok with heating your sample collection tube in boiling water for 5 minutes (to crack open <https:\/\/twitter.com\/hashtag\/Covid19?src=hashtag_click|#Covid19> virus <https:\/\/twitter.com\/hashtag\/capsid?src=hashtag_click|#capsid> shell)?\"",
        "user": "UVBQDE7R8",
        "ts": "1584730348.011500",
        "team": "TUU48M0T1",
        "user_team": "TUU48M0T1",
        "source_team": "TUU48M0T1",
        "user_profile": {
            "avatar_hash": "gb77d2e5c821",
            "image_72": "https:\/\/secure.gravatar.com\/avatar\/b77d2e5c8214c9643410000e998ef9f4.jpg?s=72&d=https%3A%2F%2Fa.slack-edge.com%2Fdf10d%2Fimg%2Favatars%2Fava_0018-72.png",
            "first_name": "",
            "real_name": "Darach",
            "display_name": "Darach",
            "team": "TUU48M0T1",
            "name": "dchmiller",
            "is_restricted": false,
            "is_ultra_restricted": false
        },
        "edited": {
            "user": "UVBQDE7R8",
            "ts": "1584730366.000000"
        },
        "blocks": [
            {
                "type": "rich_text",
                "block_id": "lRoY",
                "elements": [
                    {
                        "type": "rich_text_section",
                        "elements": [
                            {
                                "type": "text",
                                "text": "\"To get an at Home "
                            },
                            {
                                "type": "link",
                                "url": "https:\/\/twitter.com\/hashtag\/Coronavirus?src=hashtag_click",
                                "text": "#Coronavirus"
                            },
                            {
                                "type": "text",
                                "text": " Test 2 or more weeks earlier, save one step & make us confident we can do this, would you be ok with heating your sample collection tube in boiling water for 5 minutes (to crack open "
                            },
                            {
                                "type": "link",
                                "url": "https:\/\/twitter.com\/hashtag\/Covid19?src=hashtag_click",
                                "text": "#Covid19"
                            },
                            {
                                "type": "text",
                                "text": " virus "
                            },
                            {
                                "type": "link",
                                "url": "https:\/\/twitter.com\/hashtag\/capsid?src=hashtag_click",
                                "text": "#capsid"
                            },
                            {
                                "type": "text",
                                "text": " shell)?\""
                            }
                        ]
                    }
                ]
            }
        ]
    },
    {
        "client_msg_id": "1ca21fce-994e-4746-a980-ae053c51af38",
        "type": "message",
        "text": "Same thoughts as Ilya",
        "user": "UVALZTQ58",
        "ts": "1584730656.012100",
        "team": "TUU48M0T1",
        "user_team": "TUU48M0T1",
        "source_team": "TUU48M0T1",
        "user_profile": {
            "avatar_hash": "68ae03dc29bc",
            "image_72": "https:\/\/avatars.slack-edge.com\/2020-03-19\/1000158389970_68ae03dc29bc6cbe2e2c_72.png",
            "first_name": "",
            "real_name": "Larissa de Clauser",
            "display_name": "Larissa de Clauser",
            "team": "TUU48M0T1",
            "name": "larissa.declauser",
            "is_restricted": false,
            "is_ultra_restricted": false
        },
        "blocks": [
            {
                "type": "rich_text",
                "block_id": "6Qx",
                "elements": [
                    {
                        "type": "rich_text_section",
                        "elements": [
                            {
                                "type": "text",
                                "text": "Same thoughts as Ilya"
                            }
                        ]
                    }
                ]
            }
        ],
        "thread_ts": "1584729834.010600",
        "parent_user_id": "UVBQDE7R8"
    },
    {
        "client_msg_id": "67b38b59-868f-4c9d-9362-d4dfc0bd2577",
        "type": "message",
        "text": "This is very cool: open protocol for a massively parallel COVID-19 test using NGS <https:\/\/docs.google.com\/document\/d\/1kP2w_uTMSep2UxTCOnUhh1TMCjWvHEY0sUUpkJHPYV4\/edit>",
        "user": "UUNGFHSV8",
        "ts": "1584741826.012500",
        "team": "TUU48M0T1",
        "user_team": "TUU48M0T1",
        "source_team": "TUU48M0T1",
        "user_profile": {
            "avatar_hash": "1c55ee32397a",
            "image_72": "https:\/\/avatars.slack-edge.com\/2020-03-07\/987349161984_1c55ee32397a85a87ec4_72.png",
            "first_name": "Isaac",
            "real_name": "Isaac Larkin",
            "display_name": "Isaac Larkin",
            "team": "TUU48M0T1",
            "name": "eyesmo",
            "is_restricted": false,
            "is_ultra_restricted": false
        },
        "blocks": [
            {
                "type": "rich_text",
                "block_id": "TnOE",
                "elements": [
                    {
                        "type": "rich_text_section",
                        "elements": [
                            {
                                "type": "text",
                                "text": "This is very cool: open protocol for a massively parallel COVID-19 test using NGS "
                            },
                            {
                                "type": "link",
                                "url": "https:\/\/docs.google.com\/document\/d\/1kP2w_uTMSep2UxTCOnUhh1TMCjWvHEY0sUUpkJHPYV4\/edit"
                            }
                        ]
                    }
                ]
            }
        ],
        "reactions": [
            {
                "name": "+1",
                "users": [
                    "UVBQDE7R8",
                    "U01099UVAUA"
                ],
                "count": 2
            }
        ]
    },
    {
        "client_msg_id": "8894f6fb-9bc6-4ecb-977a-1ab8158b1a01",
        "type": "message",
        "text": "^The massively parallel detection protocol above is limited primarily by RNA extraction throughput. RNA extraction more important than ever!",
        "user": "UUNGFHSV8",
        "ts": "1584741902.013600",
        "team": "TUU48M0T1",
        "user_team": "TUU48M0T1",
        "source_team": "TUU48M0T1",
        "user_profile": {
            "avatar_hash": "1c55ee32397a",
            "image_72": "https:\/\/avatars.slack-edge.com\/2020-03-07\/987349161984_1c55ee32397a85a87ec4_72.png",
            "first_name": "Isaac",
            "real_name": "Isaac Larkin",
            "display_name": "Isaac Larkin",
            "team": "TUU48M0T1",
            "name": "eyesmo",
            "is_restricted": false,
            "is_ultra_restricted": false
        },
        "blocks": [
            {
                "type": "rich_text",
                "block_id": "e=k",
                "elements": [
                    {
                        "type": "rich_text_section",
                        "elements": [
                            {
                                "type": "text",
                                "text": "^The massively parallel detection protocol above is limited primarily by RNA extraction throughput. RNA extraction more important than ever!"
                            }
                        ]
                    }
                ]
            }
        ]
    }
]