[
    {
        "client_msg_id": "221aaaf6-59e3-4a03-b2f0-5cd43cc275e7",
        "type": "message",
        "text": "<@U010J948MUP> sorry not familiar with slack; where can I find this tab? Would chamois leather be in there ? I am looking at all kinds of household materials that could be used as filter in case there are shortages.",
        "user": "U010E79BQ2H",
        "ts": "1584868485.232300",
        "team": "TUU48M0T1",
        "user_team": "TUU48M0T1",
        "source_team": "TUU48M0T1",
        "user_profile": {
            "avatar_hash": "1bd20b0542f9",
            "image_72": "https:\/\/avatars.slack-edge.com\/2020-03-20\/1016004848167_1bd20b0542f911651971_72.jpg",
            "first_name": "",
            "real_name": "Koen Samyn",
            "display_name": "Koen Samyn",
            "team": "TUU48M0T1",
            "name": "koen.samyn",
            "is_restricted": false,
            "is_ultra_restricted": false
        },
        "blocks": [
            {
                "type": "rich_text",
                "block_id": "gTW",
                "elements": [
                    {
                        "type": "rich_text_section",
                        "elements": [
                            {
                                "type": "user",
                                "user_id": "U010J948MUP"
                            },
                            {
                                "type": "text",
                                "text": " sorry not familiar with slack; where can I find this tab? Would chamois leather be in there ? I am looking at all kinds of household materials that could be used as filter in case there are shortages."
                            }
                        ]
                    }
                ]
            }
        ],
        "thread_ts": "1584868485.232300",
        "reply_count": 1,
        "reply_users_count": 1,
        "latest_reply": "1584872326.237000",
        "reply_users": [
            "UV2P3AQEN"
        ],
        "replies": [
            {
                "user": "UV2P3AQEN",
                "ts": "1584872326.237000"
            }
        ],
        "subscribed": false
    },
    {
        "client_msg_id": "e5a35ece-aea9-44a4-bf70-db489a0cc19a",
        "type": "message",
        "text": "a study that compare the efficacy some homemade masks make with diverse materials with surgical mask.\n<https:\/\/www.researchgate.net\/publication\/258525804_Testing_the_Efficacy_of_Homemade_Masks_Would_They_Protect_in_an_Influenza_Pandemic>\nI think it might help",
        "user": "U0100DEBABS",
        "ts": "1584870297.234700",
        "team": "TUU48M0T1",
        "user_team": "TUU48M0T1",
        "source_team": "TUU48M0T1",
        "user_profile": {
            "avatar_hash": "619e3ffdc5a5",
            "image_72": "https:\/\/avatars.slack-edge.com\/2020-03-14\/1000473259744_619e3ffdc5a532f83ce5_72.jpg",
            "first_name": "",
            "real_name": "Tetra",
            "display_name": "Tetra",
            "team": "TUU48M0T1",
            "name": "valentin.diard",
            "is_restricted": false,
            "is_ultra_restricted": false
        },
        "edited": {
            "user": "U0100DEBABS",
            "ts": "1584881747.000000"
        },
        "blocks": [
            {
                "type": "rich_text",
                "block_id": "h\/BZ",
                "elements": [
                    {
                        "type": "rich_text_section",
                        "elements": [
                            {
                                "type": "text",
                                "text": "a study that compare the efficacy some homemade masks make with diverse materials with surgical mask.\n"
                            },
                            {
                                "type": "link",
                                "url": "https:\/\/www.researchgate.net\/publication\/258525804_Testing_the_Efficacy_of_Homemade_Masks_Would_They_Protect_in_an_Influenza_Pandemic"
                            },
                            {
                                "type": "text",
                                "text": "\nI think it might help"
                            }
                        ]
                    }
                ]
            }
        ],
        "thread_ts": "1584870297.234700",
        "reply_count": 3,
        "reply_users_count": 2,
        "latest_reply": "1584881960.238300",
        "reply_users": [
            "U01081Y0TBP",
            "U010E79BQ2H"
        ],
        "replies": [
            {
                "user": "U01081Y0TBP",
                "ts": "1584879493.237800"
            },
            {
                "user": "U01081Y0TBP",
                "ts": "1584879734.238000"
            },
            {
                "user": "U010E79BQ2H",
                "ts": "1584881960.238300"
            }
        ],
        "subscribed": false,
        "reactions": [
            {
                "name": "+1",
                "users": [
                    "UV02WET96",
                    "U010E79BQ2H",
                    "UV3T7JS4A",
                    "U01081Y0TBP"
                ],
                "count": 4
            }
        ]
    },
    {
        "client_msg_id": "891C9F08-0344-4F88-AEDE-E428E924AAD6",
        "type": "message",
        "text": "We created a spreadsheet with all the designs already present on the internet. The resources tab is there.\n\n<https:\/\/docs.google.com\/spreadsheets\/d\/1e81ceSrVT6Bl4UaS1SxIUUUzgZAdkIstU7Hzot08Ld8\/htmlview|https:\/\/docs.google.com\/spreadsheets\/d\/1e81ceSrVT6Bl4UaS1SxIUUUzgZAdkIstU7Hzot08Ld8\/htmlview>",
        "user": "UV2P3AQEN",
        "ts": "1584872326.237000",
        "team": "TUU48M0T1",
        "user_team": "TUU48M0T1",
        "source_team": "TUU48M0T1",
        "user_profile": {
            "avatar_hash": "82d977ce9645",
            "image_72": "https:\/\/avatars.slack-edge.com\/2020-03-16\/1003452392327_82d977ce9645ebc30917_72.jpg",
            "first_name": "Antonio",
            "real_name": "Antonio Mangiapane",
            "display_name": "Antonio Mangiapane",
            "team": "TUU48M0T1",
            "name": "antonio.mangiapane29",
            "is_restricted": false,
            "is_ultra_restricted": false
        },
        "blocks": [
            {
                "type": "rich_text",
                "block_id": "GRKxd",
                "elements": [
                    {
                        "type": "rich_text_section",
                        "elements": [
                            {
                                "type": "text",
                                "text": "We created a spreadsheet with all the designs already present on the internet. The resources tab is there.\n"
                            },
                            {
                                "type": "text",
                                "text": "\n"
                            },
                            {
                                "type": "link",
                                "url": "https:\/\/docs.google.com\/spreadsheets\/d\/1e81ceSrVT6Bl4UaS1SxIUUUzgZAdkIstU7Hzot08Ld8\/htmlview",
                                "text": "https:\/\/docs.google.com\/spreadsheets\/d\/1e81ceSrVT6Bl4UaS1SxIUUUzgZAdkIstU7Hzot08Ld8\/htmlview"
                            }
                        ]
                    }
                ]
            }
        ],
        "thread_ts": "1584868485.232300",
        "parent_user_id": "U010E79BQ2H",
        "reactions": [
            {
                "name": "+1",
                "users": [
                    "U010E79BQ2H"
                ],
                "count": 1
            }
        ]
    },
    {
        "client_msg_id": "20e92028-53ff-4dfb-b975-3abf6fcf2499",
        "type": "message",
        "text": "I added the \"h\" for the link to work: <https:\/\/www.researchgate.net\/publication\/258525804_Testing_the_Efficacy_of_Homemade_Masks_Would_They_Protect_in_an_Influenza_Pandemic>",
        "user": "U01081Y0TBP",
        "ts": "1584879493.237800",
        "team": "TUU48M0T1",
        "user_team": "TUU48M0T1",
        "source_team": "TUU48M0T1",
        "user_profile": {
            "avatar_hash": "60ec5b47107a",
            "image_72": "https:\/\/avatars.slack-edge.com\/2020-03-18\/995274181218_60ec5b47107a3bd2ca7d_72.jpg",
            "first_name": "Peter",
            "real_name": "Peter Kooren",
            "display_name": "Peter Kooren",
            "team": "TUU48M0T1",
            "name": "peterkooren",
            "is_restricted": false,
            "is_ultra_restricted": false
        },
        "blocks": [
            {
                "type": "rich_text",
                "block_id": "7ajm",
                "elements": [
                    {
                        "type": "rich_text_section",
                        "elements": [
                            {
                                "type": "text",
                                "text": "I added the \"h\" for the link to work: "
                            },
                            {
                                "type": "link",
                                "url": "https:\/\/www.researchgate.net\/publication\/258525804_Testing_the_Efficacy_of_Homemade_Masks_Would_They_Protect_in_an_Influenza_Pandemic"
                            }
                        ]
                    }
                ]
            }
        ],
        "thread_ts": "1584870297.234700",
        "parent_user_id": "U0100DEBABS"
    },
    {
        "client_msg_id": "28b5e587-83c1-440d-98ca-934e4e0b5fc1",
        "type": "message",
        "text": "In short, the in 2013 homemade masks show 1\/3 as effective as surgical masks. Advised only as last resort",
        "user": "U01081Y0TBP",
        "ts": "1584879734.238000",
        "team": "TUU48M0T1",
        "user_team": "TUU48M0T1",
        "source_team": "TUU48M0T1",
        "user_profile": {
            "avatar_hash": "60ec5b47107a",
            "image_72": "https:\/\/avatars.slack-edge.com\/2020-03-18\/995274181218_60ec5b47107a3bd2ca7d_72.jpg",
            "first_name": "Peter",
            "real_name": "Peter Kooren",
            "display_name": "Peter Kooren",
            "team": "TUU48M0T1",
            "name": "peterkooren",
            "is_restricted": false,
            "is_ultra_restricted": false
        },
        "blocks": [
            {
                "type": "rich_text",
                "block_id": "TZS5",
                "elements": [
                    {
                        "type": "rich_text_section",
                        "elements": [
                            {
                                "type": "text",
                                "text": "In short, the in 2013 homemade masks show 1\/3 as effective as surgical masks. Advised only as last resort"
                            }
                        ]
                    }
                ]
            }
        ],
        "thread_ts": "1584870297.234700",
        "parent_user_id": "U0100DEBABS"
    },
    {
        "client_msg_id": "e2eac7e5-e418-417c-9f26-3a61c6c89b30",
        "type": "message",
        "text": "from what I hear, woven materials are not sufficient for medical grade applications",
        "user": "U010E79BQ2H",
        "ts": "1584881960.238300",
        "team": "TUU48M0T1",
        "user_team": "TUU48M0T1",
        "source_team": "TUU48M0T1",
        "user_profile": {
            "avatar_hash": "1bd20b0542f9",
            "image_72": "https:\/\/avatars.slack-edge.com\/2020-03-20\/1016004848167_1bd20b0542f911651971_72.jpg",
            "first_name": "",
            "real_name": "Koen Samyn",
            "display_name": "Koen Samyn",
            "team": "TUU48M0T1",
            "name": "koen.samyn",
            "is_restricted": false,
            "is_ultra_restricted": false
        },
        "blocks": [
            {
                "type": "rich_text",
                "block_id": "cH=",
                "elements": [
                    {
                        "type": "rich_text_section",
                        "elements": [
                            {
                                "type": "text",
                                "text": "from what I hear, woven materials are not sufficient for medical grade applications"
                            }
                        ]
                    }
                ]
            }
        ],
        "thread_ts": "1584870297.234700",
        "parent_user_id": "U0100DEBABS"
    },
    {
        "client_msg_id": "646db467-b4be-4f9e-b64d-971c13196b6f",
        "type": "message",
        "text": "The most popular facepiece *materials* are silicone, neoprene, and rubber. <https:\/\/www.osha.gov\/dts\/shib\/respiratory_protection_bulletin_2011.html|ref>",
        "user": "U01081Y0TBP",
        "ts": "1584882243.238900",
        "team": "TUU48M0T1",
        "user_team": "TUU48M0T1",
        "source_team": "TUU48M0T1",
        "user_profile": {
            "avatar_hash": "60ec5b47107a",
            "image_72": "https:\/\/avatars.slack-edge.com\/2020-03-18\/995274181218_60ec5b47107a3bd2ca7d_72.jpg",
            "first_name": "Peter",
            "real_name": "Peter Kooren",
            "display_name": "Peter Kooren",
            "team": "TUU48M0T1",
            "name": "peterkooren",
            "is_restricted": false,
            "is_ultra_restricted": false
        },
        "attachments": [
            {
                "title": "OSHA Bulletin | General Respiratory Protection Guidance for Employers and Workers | Occupational Safety and Health Administration",
                "title_link": "https:\/\/www.osha.gov\/dts\/shib\/respiratory_protection_bulletin_2011.html",
                "text": "OSHA Bulletin | General Respiratory Protection Guidance for Employers and Workers",
                "fallback": "OSHA Bulletin | General Respiratory Protection Guidance for Employers and Workers | Occupational Safety and Health Administration",
                "from_url": "https:\/\/www.osha.gov\/dts\/shib\/respiratory_protection_bulletin_2011.html",
                "service_icon": "https:\/\/www.osha.gov\/favicon.ico",
                "service_name": "osha.gov",
                "id": 1,
                "original_url": "https:\/\/www.osha.gov\/dts\/shib\/respiratory_protection_bulletin_2011.html"
            }
        ],
        "blocks": [
            {
                "type": "rich_text",
                "block_id": "VyG1N",
                "elements": [
                    {
                        "type": "rich_text_section",
                        "elements": [
                            {
                                "type": "text",
                                "text": "The most popular facepiece "
                            },
                            {
                                "type": "text",
                                "text": "materials ",
                                "style": {
                                    "bold": true
                                }
                            },
                            {
                                "type": "text",
                                "text": "are silicone, neoprene, and rubber. "
                            },
                            {
                                "type": "link",
                                "url": "https:\/\/www.osha.gov\/dts\/shib\/respiratory_protection_bulletin_2011.html",
                                "text": "ref"
                            }
                        ]
                    }
                ]
            }
        ],
        "thread_ts": "1584882243.238900",
        "reply_count": 1,
        "reply_users_count": 1,
        "latest_reply": "1584884511.241400",
        "reply_users": [
            "UV2P3AQEN"
        ],
        "replies": [
            {
                "user": "UV2P3AQEN",
                "ts": "1584884511.241400"
            }
        ],
        "subscribed": false,
        "reactions": [
            {
                "name": "+1",
                "users": [
                    "UV2P3AQEN"
                ],
                "count": 1
            }
        ]
    },
    {
        "client_msg_id": "9ad2a517-7ef9-436c-82e5-271127e709e6",
        "type": "message",
        "text": "<https:\/\/www.youtube.com\/watch?v=-fBWTDoa7x4>  Sewn mask from vacuum cleaner bag.",
        "user": "U01081Y0TBP",
        "ts": "1584884112.239300",
        "team": "TUU48M0T1",
        "user_team": "TUU48M0T1",
        "source_team": "TUU48M0T1",
        "user_profile": {
            "avatar_hash": "60ec5b47107a",
            "image_72": "https:\/\/avatars.slack-edge.com\/2020-03-18\/995274181218_60ec5b47107a3bd2ca7d_72.jpg",
            "first_name": "Peter",
            "real_name": "Peter Kooren",
            "display_name": "Peter Kooren",
            "team": "TUU48M0T1",
            "name": "peterkooren",
            "is_restricted": false,
            "is_ultra_restricted": false
        },
        "attachments": [
            {
                "service_name": "YouTube",
                "service_url": "https:\/\/www.youtube.com\/",
                "title": "How to make masks out of vacuum bags",
                "title_link": "https:\/\/www.youtube.com\/watch?v=-fBWTDoa7x4",
                "author_name": "Blow's Sew-n-Vac",
                "author_link": "https:\/\/www.youtube.com\/channel\/UCI9GGmFNlUB90oha01M11uA",
                "thumb_url": "https:\/\/i.ytimg.com\/vi\/-fBWTDoa7x4\/hqdefault.jpg",
                "thumb_width": 480,
                "thumb_height": 360,
                "fallback": "YouTube Video: How to make masks out of vacuum bags",
                "video_html": "<iframe width=\"400\" height=\"225\" src=\"https:\/\/www.youtube.com\/embed\/-fBWTDoa7x4?feature=oembed&autoplay=1&iv_load_policy=3\" frameborder=\"0\" allow=\"accelerometer; autoplay; encrypted-media; gyroscope; picture-in-picture\" allowfullscreen><\/iframe>",
                "video_html_width": 400,
                "video_html_height": 225,
                "from_url": "https:\/\/www.youtube.com\/watch?v=-fBWTDoa7x4",
                "service_icon": "https:\/\/a.slack-edge.com\/80588\/img\/unfurl_icons\/youtube.png",
                "id": 1,
                "original_url": "https:\/\/www.youtube.com\/watch?v=-fBWTDoa7x4"
            }
        ],
        "blocks": [
            {
                "type": "rich_text",
                "block_id": "UoX",
                "elements": [
                    {
                        "type": "rich_text_section",
                        "elements": [
                            {
                                "type": "link",
                                "url": "https:\/\/www.youtube.com\/watch?v=-fBWTDoa7x4"
                            },
                            {
                                "type": "text",
                                "text": "  Sewn mask from vacuum cleaner bag."
                            }
                        ]
                    }
                ]
            }
        ],
        "thread_ts": "1584884112.239300",
        "reply_count": 3,
        "reply_users_count": 2,
        "latest_reply": "1584907051.245600",
        "reply_users": [
            "U01081Y0TBP",
            "UUPQGNNTV"
        ],
        "replies": [
            {
                "user": "U01081Y0TBP",
                "ts": "1584884151.239500"
            },
            {
                "user": "UUPQGNNTV",
                "ts": "1584886691.241600"
            },
            {
                "user": "U01081Y0TBP",
                "ts": "1584907051.245600"
            }
        ],
        "subscribed": false
    },
    {
        "client_msg_id": "d5103b7d-b665-4173-b30b-7cb57149e3f8",
        "type": "message",
        "text": "Already added to solution excel list",
        "user": "U01081Y0TBP",
        "ts": "1584884151.239500",
        "team": "TUU48M0T1",
        "user_team": "TUU48M0T1",
        "source_team": "TUU48M0T1",
        "user_profile": {
            "avatar_hash": "60ec5b47107a",
            "image_72": "https:\/\/avatars.slack-edge.com\/2020-03-18\/995274181218_60ec5b47107a3bd2ca7d_72.jpg",
            "first_name": "Peter",
            "real_name": "Peter Kooren",
            "display_name": "Peter Kooren",
            "team": "TUU48M0T1",
            "name": "peterkooren",
            "is_restricted": false,
            "is_ultra_restricted": false
        },
        "blocks": [
            {
                "type": "rich_text",
                "block_id": "ngz",
                "elements": [
                    {
                        "type": "rich_text_section",
                        "elements": [
                            {
                                "type": "text",
                                "text": "Already added to solution excel list"
                            }
                        ]
                    }
                ]
            }
        ],
        "thread_ts": "1584884112.239300",
        "parent_user_id": "U01081Y0TBP"
    },
    {
        "client_msg_id": "B42CC858-1C73-400D-B09B-D81CB3C5449B",
        "type": "message",
        "text": "Yes, regardless of the final design it might be necessary to include some kind of bed for a silicone border\/gasket",
        "user": "UV2P3AQEN",
        "ts": "1584884511.241400",
        "team": "TUU48M0T1",
        "user_team": "TUU48M0T1",
        "source_team": "TUU48M0T1",
        "user_profile": {
            "avatar_hash": "82d977ce9645",
            "image_72": "https:\/\/avatars.slack-edge.com\/2020-03-16\/1003452392327_82d977ce9645ebc30917_72.jpg",
            "first_name": "Antonio",
            "real_name": "Antonio Mangiapane",
            "display_name": "Antonio Mangiapane",
            "team": "TUU48M0T1",
            "name": "antonio.mangiapane29",
            "is_restricted": false,
            "is_ultra_restricted": false
        },
        "blocks": [
            {
                "type": "rich_text",
                "block_id": "T2o4J",
                "elements": [
                    {
                        "type": "rich_text_section",
                        "elements": [
                            {
                                "type": "text",
                                "text": "Yes, regardless of the final design it might be necessary to include some kind of bed for a silicone border\/gasket"
                            }
                        ]
                    }
                ]
            }
        ],
        "thread_ts": "1584882243.238900",
        "parent_user_id": "U01081Y0TBP"
    },
    {
        "client_msg_id": "8c65615a-ae30-46da-be94-4013a6514b2f",
        "type": "message",
        "text": "The problem with vacuum cleaner bags is they are impossible to breathe through",
        "user": "UUPQGNNTV",
        "ts": "1584886691.241600",
        "team": "TUU48M0T1",
        "user_team": "TUU48M0T1",
        "source_team": "TUU48M0T1",
        "user_profile": {
            "avatar_hash": "c28127caf7eb",
            "image_72": "https:\/\/avatars.slack-edge.com\/2020-03-07\/989562470694_c28127caf7ebfe67df97_72.jpg",
            "first_name": "",
            "real_name": "Ellen Jorgensen",
            "display_name": "",
            "team": "TUU48M0T1",
            "name": "ejorgensen",
            "is_restricted": false,
            "is_ultra_restricted": false
        },
        "blocks": [
            {
                "type": "rich_text",
                "block_id": "L5Ko",
                "elements": [
                    {
                        "type": "rich_text_section",
                        "elements": [
                            {
                                "type": "text",
                                "text": "The problem with vacuum cleaner bags is they are impossible to breathe through"
                            }
                        ]
                    }
                ]
            }
        ],
        "thread_ts": "1584884112.239300",
        "parent_user_id": "U01081Y0TBP"
    },
    {
        "client_msg_id": "d6c33c56-4bdb-4d8c-b3b6-b0860899b4a3",
        "type": "message",
        "text": "Like this one? <https:\/\/smartairfilters.com\/en\/blog\/best-materials-make-diy-face-mask-virus\/|https:\/\/smartairfilters.com\/en\/blog\/best-materials-make-diy-face-mask-virus\/>\n\nThis is the really good article",
        "user": "UUPQGNNTV",
        "ts": "1584886731.241800",
        "team": "TUU48M0T1",
        "user_team": "TUU48M0T1",
        "source_team": "TUU48M0T1",
        "user_profile": {
            "avatar_hash": "c28127caf7eb",
            "image_72": "https:\/\/avatars.slack-edge.com\/2020-03-07\/989562470694_c28127caf7ebfe67df97_72.jpg",
            "first_name": "",
            "real_name": "Ellen Jorgensen",
            "display_name": "",
            "team": "TUU48M0T1",
            "name": "ejorgensen",
            "is_restricted": false,
            "is_ultra_restricted": false
        },
        "attachments": [
            {
                "service_name": "Smart Air Filters",
                "title": "What Are The Best Materials for Making DIY Masks? - Smart Air Filters",
                "title_link": "https:\/\/smartairfilters.com\/en\/blog\/best-materials-make-diy-face-mask-virus\/",
                "text": "As a last resort, DIY masks provide more protection than nothing. Researchers tested household materials. Here's which captured the most particles.",
                "fallback": "Smart Air Filters: What Are The Best Materials for Making DIY Masks? - Smart Air Filters",
                "thumb_url": "https:\/\/smartairfilters.com\/wordpress\/wp-content\/uploads\/2020\/03\/Best-material-for-making-DIY-masks-to-capture-viruses.jpg",
                "ts": 1583639069,
                "from_url": "https:\/\/smartairfilters.com\/en\/blog\/best-materials-make-diy-face-mask-virus\/",
                "thumb_width": 900,
                "thumb_height": 500,
                "service_icon": "https:\/\/smartairfilters.com\/favicon.ico",
                "id": 1,
                "original_url": "https:\/\/smartairfilters.com\/en\/blog\/best-materials-make-diy-face-mask-virus\/"
            }
        ],
        "blocks": [
            {
                "type": "rich_text",
                "block_id": "9aB",
                "elements": [
                    {
                        "type": "rich_text_section",
                        "elements": [
                            {
                                "type": "text",
                                "text": "Like this one? "
                            },
                            {
                                "type": "link",
                                "url": "https:\/\/smartairfilters.com\/en\/blog\/best-materials-make-diy-face-mask-virus\/",
                                "text": "https:\/\/smartairfilters.com\/en\/blog\/best-materials-make-diy-face-mask-virus\/"
                            },
                            {
                                "type": "text",
                                "text": "\n\nThis is the really good article"
                            }
                        ]
                    }
                ]
            }
        ],
        "thread_ts": "1584821533.229500",
        "parent_user_id": "U010J948MUP"
    },
    {
        "client_msg_id": "06673255-146a-4e2f-9351-49287c0d06b3",
        "type": "message",
        "text": "Saluons d'ailleurs la décision de Décathlon de partager gracieusement les modélisations 3D de ses masques pour faciliter la création des embouts adaptateurs ; un geste qui n'a fait l'objet d'aucune communication particulière dans la presse. :clap: (modifié)\n<https:\/\/www.isinnova.it\/easy-covid19-eng\/>",
        "user": "U010K92FMJT",
        "ts": "1584894970.243000",
        "team": "TUU48M0T1",
        "user_team": "TUU48M0T1",
        "source_team": "TUU48M0T1",
        "user_profile": {
            "avatar_hash": "gccf4737adc8",
            "image_72": "https:\/\/secure.gravatar.com\/avatar\/ccf4737adc8a9bca5a85a008b0b0c240.jpg?s=72&d=https%3A%2F%2Fa.slack-edge.com%2Fdf10d%2Fimg%2Favatars%2Fava_0009-72.png",
            "first_name": "",
            "real_name": "Erwan Bozec",
            "display_name": "Erwan Bozec",
            "team": "TUU48M0T1",
            "name": "erwan.b",
            "is_restricted": false,
            "is_ultra_restricted": false
        },
        "attachments": [
            {
                "service_name": "Isinnova",
                "title": "Easy – Covid19 ENG | Isinnova",
                "title_link": "https:\/\/www.isinnova.it\/easy-covid19-eng\/",
                "text": "EASY COVID 19 Versione italiana Emergency mask for hospital ventilators In recent days we have been contacted by a former head physician of",
                "fallback": "Isinnova: Easy – Covid19 ENG | Isinnova",
                "thumb_url": "https:\/\/www.isinnova.it\/wp-content\/uploads\/2018\/11\/Logo-Isinnova-Modifiche-5-1-e1541584415349.png",
                "from_url": "https:\/\/www.isinnova.it\/easy-covid19-eng\/",
                "thumb_width": 100,
                "thumb_height": 46,
                "service_icon": "https:\/\/www.isinnova.it\/wp-content\/uploads\/2017\/03\/favicip.png",
                "id": 1,
                "original_url": "https:\/\/www.isinnova.it\/easy-covid19-eng\/"
            }
        ],
        "blocks": [
            {
                "type": "rich_text",
                "block_id": "fsou",
                "elements": [
                    {
                        "type": "rich_text_section",
                        "elements": [
                            {
                                "type": "text",
                                "text": "Saluons d'ailleurs la décision de Décathlon de partager gracieusement les modélisations 3D de ses masques pour faciliter la création des embouts adaptateurs ; un geste qui n'a fait l'objet d'aucune communication particulière dans la presse. "
                            },
                            {
                                "type": "emoji",
                                "name": "clap"
                            },
                            {
                                "type": "text",
                                "text": " (modifié)\n"
                            },
                            {
                                "type": "link",
                                "url": "https:\/\/www.isinnova.it\/easy-covid19-eng\/"
                            }
                        ]
                    }
                ]
            }
        ],
        "reactions": [
            {
                "name": "clap",
                "users": [
                    "U0100DEBABS",
                    "UV02WET96"
                ],
                "count": 2
            }
        ]
    },
    {
        "client_msg_id": "177811b4-69ad-457a-8578-c3df136ad7ee",
        "type": "message",
        "text": "Hi, I contacted my former employer, who is a injection mold manufacturer and plastic part manufacturer for manufacturing the open source mask. Can we get the design for the molded version finalized? After that I can get the price offer for the molds and parts and we can get the funding on this.",
        "user": "U0108DWH5NH",
        "ts": "1584905129.243600",
        "team": "TUU48M0T1",
        "user_team": "TUU48M0T1",
        "source_team": "TUU48M0T1",
        "user_profile": {
            "avatar_hash": "gd582b07cb4c",
            "image_72": "https:\/\/secure.gravatar.com\/avatar\/d582b07cb4cff8ecfdf7095f4f4eefc5.jpg?s=72&d=https%3A%2F%2Fa.slack-edge.com%2Fdf10d%2Fimg%2Favatars%2Fava_0025-72.png",
            "first_name": "",
            "real_name": "Juraj Marak",
            "display_name": "Juraj Marak",
            "team": "TUU48M0T1",
            "name": "kukulo2011",
            "is_restricted": false,
            "is_ultra_restricted": false
        },
        "blocks": [
            {
                "type": "rich_text",
                "block_id": "xnNL",
                "elements": [
                    {
                        "type": "rich_text_section",
                        "elements": [
                            {
                                "type": "text",
                                "text": "Hi, I contacted my former employer, who is a injection mold manufacturer and plastic part manufacturer for manufacturing the open source mask. Can we get the design for the molded version finalized? After that I can get the price offer for the molds and parts and we can get the funding on this."
                            }
                        ]
                    }
                ]
            }
        ],
        "thread_ts": "1584905129.243600",
        "reply_count": 11,
        "reply_users_count": 3,
        "latest_reply": "1584958619.256000",
        "reply_users": [
            "UV2P3AQEN",
            "U0108DWH5NH",
            "UVADMLUB0"
        ],
        "replies": [
            {
                "user": "UV2P3AQEN",
                "ts": "1584905253.243800"
            },
            {
                "user": "U0108DWH5NH",
                "ts": "1584905389.244000"
            },
            {
                "user": "UV2P3AQEN",
                "ts": "1584905455.244200"
            },
            {
                "user": "U0108DWH5NH",
                "ts": "1584905509.244400"
            },
            {
                "user": "UV2P3AQEN",
                "ts": "1584905839.244600"
            },
            {
                "user": "U0108DWH5NH",
                "ts": "1584906294.244800"
            },
            {
                "user": "U0108DWH5NH",
                "ts": "1584906325.245000"
            },
            {
                "user": "UV2P3AQEN",
                "ts": "1584906578.245200"
            },
            {
                "user": "U0108DWH5NH",
                "ts": "1584906772.245400"
            },
            {
                "user": "UVADMLUB0",
                "ts": "1584919790.253200"
            },
            {
                "user": "U0108DWH5NH",
                "ts": "1584958619.256000"
            }
        ],
        "subscribed": false,
        "reactions": [
            {
                "name": "raised_hands",
                "users": [
                    "UV2P3AQEN",
                    "UV02WET96"
                ],
                "count": 2
            }
        ]
    },
    {
        "client_msg_id": "b833a3f3-5dfc-4349-bf6f-7678523a896f",
        "type": "message",
        "text": "That's perfect! Phase 1 ends on tuesday, after that we'll put the efforts on picking the best design and, in case, doing the necessary changes in order for it to be injection moulded (making sure there are no undercuts etc.). Let's keep this contact active, so that we can get back at him when we are done deciding",
        "user": "UV2P3AQEN",
        "ts": "1584905253.243800",
        "team": "TUU48M0T1",
        "user_team": "TUU48M0T1",
        "source_team": "TUU48M0T1",
        "user_profile": {
            "avatar_hash": "82d977ce9645",
            "image_72": "https:\/\/avatars.slack-edge.com\/2020-03-16\/1003452392327_82d977ce9645ebc30917_72.jpg",
            "first_name": "Antonio",
            "real_name": "Antonio Mangiapane",
            "display_name": "Antonio Mangiapane",
            "team": "TUU48M0T1",
            "name": "antonio.mangiapane29",
            "is_restricted": false,
            "is_ultra_restricted": false
        },
        "blocks": [
            {
                "type": "rich_text",
                "block_id": "S\/R2",
                "elements": [
                    {
                        "type": "rich_text_section",
                        "elements": [
                            {
                                "type": "text",
                                "text": "That's perfect! Phase 1 ends on tuesday, after that we'll put the efforts on picking the best design and, in case, doing the necessary changes in order for it to be injection moulded (making sure there are no undercuts etc.). Let's keep this contact active, so that we can get back at him when we are done deciding"
                            }
                        ]
                    }
                ]
            }
        ],
        "thread_ts": "1584905129.243600",
        "parent_user_id": "U0108DWH5NH"
    },
    {
        "client_msg_id": "6a03701f-49ed-4ff9-a7d3-123f8fe9a486",
        "type": "message",
        "text": "Tomorrow I will have a call with the company sales and director, I will keep updated.",
        "user": "U0108DWH5NH",
        "ts": "1584905389.244000",
        "team": "TUU48M0T1",
        "user_team": "TUU48M0T1",
        "source_team": "TUU48M0T1",
        "user_profile": {
            "avatar_hash": "gd582b07cb4c",
            "image_72": "https:\/\/secure.gravatar.com\/avatar\/d582b07cb4cff8ecfdf7095f4f4eefc5.jpg?s=72&d=https%3A%2F%2Fa.slack-edge.com%2Fdf10d%2Fimg%2Favatars%2Fava_0025-72.png",
            "first_name": "",
            "real_name": "Juraj Marak",
            "display_name": "Juraj Marak",
            "team": "TUU48M0T1",
            "name": "kukulo2011",
            "is_restricted": false,
            "is_ultra_restricted": false
        },
        "blocks": [
            {
                "type": "rich_text",
                "block_id": "yPx",
                "elements": [
                    {
                        "type": "rich_text_section",
                        "elements": [
                            {
                                "type": "text",
                                "text": "Tomorrow I will have a call with the company sales and director, I will keep updated."
                            }
                        ]
                    }
                ]
            }
        ],
        "thread_ts": "1584905129.243600",
        "parent_user_id": "U0108DWH5NH"
    },
    {
        "client_msg_id": "7f03287f-9eb6-4cbd-b67d-d6179da6cfb3",
        "type": "message",
        "text": "It's really great. Thank you",
        "user": "UV2P3AQEN",
        "ts": "1584905455.244200",
        "team": "TUU48M0T1",
        "user_team": "TUU48M0T1",
        "source_team": "TUU48M0T1",
        "user_profile": {
            "avatar_hash": "82d977ce9645",
            "image_72": "https:\/\/avatars.slack-edge.com\/2020-03-16\/1003452392327_82d977ce9645ebc30917_72.jpg",
            "first_name": "Antonio",
            "real_name": "Antonio Mangiapane",
            "display_name": "Antonio Mangiapane",
            "team": "TUU48M0T1",
            "name": "antonio.mangiapane29",
            "is_restricted": false,
            "is_ultra_restricted": false
        },
        "blocks": [
            {
                "type": "rich_text",
                "block_id": "TsY",
                "elements": [
                    {
                        "type": "rich_text_section",
                        "elements": [
                            {
                                "type": "text",
                                "text": "It's really great. Thank you"
                            }
                        ]
                    }
                ]
            }
        ],
        "thread_ts": "1584905129.243600",
        "parent_user_id": "U0108DWH5NH"
    },
    {
        "client_msg_id": "b99d70bc-9cea-4157-9e27-f8452f91c73e",
        "type": "message",
        "text": "Can we get a final design also on the shield?",
        "user": "U0108DWH5NH",
        "ts": "1584905509.244400",
        "team": "TUU48M0T1",
        "user_team": "TUU48M0T1",
        "source_team": "TUU48M0T1",
        "user_profile": {
            "avatar_hash": "gd582b07cb4c",
            "image_72": "https:\/\/secure.gravatar.com\/avatar\/d582b07cb4cff8ecfdf7095f4f4eefc5.jpg?s=72&d=https%3A%2F%2Fa.slack-edge.com%2Fdf10d%2Fimg%2Favatars%2Fava_0025-72.png",
            "first_name": "",
            "real_name": "Juraj Marak",
            "display_name": "Juraj Marak",
            "team": "TUU48M0T1",
            "name": "kukulo2011",
            "is_restricted": false,
            "is_ultra_restricted": false
        },
        "blocks": [
            {
                "type": "rich_text",
                "block_id": "OHrk",
                "elements": [
                    {
                        "type": "rich_text_section",
                        "elements": [
                            {
                                "type": "text",
                                "text": "Can we get a final design also on the shield?"
                            }
                        ]
                    }
                ]
            }
        ],
        "thread_ts": "1584905129.243600",
        "parent_user_id": "U0108DWH5NH"
    },
    {
        "client_msg_id": "0fb23a2c-193d-4b75-b26b-ca315233b45f",
        "type": "message",
        "text": "It might be possible that we choose a shield and not a mask, based on the feedback we got yesterday by Eric. In that case, the upper part would need to be injection moulded anyway, so it all comes down on how to manufacture the barrier. I'm thinking laser cutting PET or polycarbonate sheets",
        "user": "UV2P3AQEN",
        "ts": "1584905839.244600",
        "team": "TUU48M0T1",
        "user_team": "TUU48M0T1",
        "source_team": "TUU48M0T1",
        "user_profile": {
            "avatar_hash": "82d977ce9645",
            "image_72": "https:\/\/avatars.slack-edge.com\/2020-03-16\/1003452392327_82d977ce9645ebc30917_72.jpg",
            "first_name": "Antonio",
            "real_name": "Antonio Mangiapane",
            "display_name": "Antonio Mangiapane",
            "team": "TUU48M0T1",
            "name": "antonio.mangiapane29",
            "is_restricted": false,
            "is_ultra_restricted": false
        },
        "blocks": [
            {
                "type": "rich_text",
                "block_id": "3kQ",
                "elements": [
                    {
                        "type": "rich_text_section",
                        "elements": [
                            {
                                "type": "text",
                                "text": "It might be possible that we choose a shield and not a mask, based on the feedback we got yesterday by Eric. In that case, the upper part would need to be injection moulded anyway, so it all comes down on how to manufacture the barrier. I'm thinking laser cutting PET or polycarbonate sheets"
                            }
                        ]
                    }
                ]
            }
        ],
        "thread_ts": "1584905129.243600",
        "parent_user_id": "U0108DWH5NH"
    },
    {
        "client_msg_id": "78c400a0-8c77-47e5-9429-d293a4a5dc0a",
        "type": "message",
        "text": "My estimation is that we need to manufacture approx. 100 -150 molds worldwide in just 3 weeks.",
        "user": "U0108DWH5NH",
        "ts": "1584906294.244800",
        "team": "TUU48M0T1",
        "user_team": "TUU48M0T1",
        "source_team": "TUU48M0T1",
        "user_profile": {
            "avatar_hash": "gd582b07cb4c",
            "image_72": "https:\/\/secure.gravatar.com\/avatar\/d582b07cb4cff8ecfdf7095f4f4eefc5.jpg?s=72&d=https%3A%2F%2Fa.slack-edge.com%2Fdf10d%2Fimg%2Favatars%2Fava_0025-72.png",
            "first_name": "",
            "real_name": "Juraj Marak",
            "display_name": "Juraj Marak",
            "team": "TUU48M0T1",
            "name": "kukulo2011",
            "is_restricted": false,
            "is_ultra_restricted": false
        },
        "blocks": [
            {
                "type": "rich_text",
                "block_id": "QkE9",
                "elements": [
                    {
                        "type": "rich_text_section",
                        "elements": [
                            {
                                "type": "text",
                                "text": "My estimation is that we need to manufacture approx. 100 -150 molds worldwide in just 3 weeks."
                            }
                        ]
                    }
                ]
            }
        ],
        "thread_ts": "1584905129.243600",
        "parent_user_id": "U0108DWH5NH"
    },
    {
        "client_msg_id": "3847cf2a-028c-40e7-8b95-da9eb8d07d43",
        "type": "message",
        "text": "Can we get the highest FFP3 mask standard for the design?",
        "user": "U0108DWH5NH",
        "ts": "1584906325.245000",
        "team": "TUU48M0T1",
        "user_team": "TUU48M0T1",
        "source_team": "TUU48M0T1",
        "user_profile": {
            "avatar_hash": "gd582b07cb4c",
            "image_72": "https:\/\/secure.gravatar.com\/avatar\/d582b07cb4cff8ecfdf7095f4f4eefc5.jpg?s=72&d=https%3A%2F%2Fa.slack-edge.com%2Fdf10d%2Fimg%2Favatars%2Fava_0025-72.png",
            "first_name": "",
            "real_name": "Juraj Marak",
            "display_name": "Juraj Marak",
            "team": "TUU48M0T1",
            "name": "kukulo2011",
            "is_restricted": false,
            "is_ultra_restricted": false
        },
        "blocks": [
            {
                "type": "rich_text",
                "block_id": "JvJjl",
                "elements": [
                    {
                        "type": "rich_text_section",
                        "elements": [
                            {
                                "type": "text",
                                "text": "Can we get the highest FFP3 mask standard for the design?"
                            }
                        ]
                    }
                ]
            }
        ],
        "thread_ts": "1584905129.243600",
        "parent_user_id": "U0108DWH5NH"
    },
    {
        "client_msg_id": "40ce3d4d-c9c7-4ae0-816a-b61a31a1649e",
        "type": "message",
        "text": "That's hard to tell right now. I guess it depends on the filter, but I'm not sure that standard applies to shields",
        "user": "UV2P3AQEN",
        "ts": "1584906578.245200",
        "team": "TUU48M0T1",
        "user_team": "TUU48M0T1",
        "source_team": "TUU48M0T1",
        "user_profile": {
            "avatar_hash": "82d977ce9645",
            "image_72": "https:\/\/avatars.slack-edge.com\/2020-03-16\/1003452392327_82d977ce9645ebc30917_72.jpg",
            "first_name": "Antonio",
            "real_name": "Antonio Mangiapane",
            "display_name": "Antonio Mangiapane",
            "team": "TUU48M0T1",
            "name": "antonio.mangiapane29",
            "is_restricted": false,
            "is_ultra_restricted": false
        },
        "blocks": [
            {
                "type": "rich_text",
                "block_id": "ZWZ",
                "elements": [
                    {
                        "type": "rich_text_section",
                        "elements": [
                            {
                                "type": "text",
                                "text": "That's hard to tell right now. I guess it depends on the filter, but I'm not sure that standard applies to shields"
                            }
                        ]
                    }
                ]
            }
        ],
        "thread_ts": "1584905129.243600",
        "parent_user_id": "U0108DWH5NH"
    },
    {
        "client_msg_id": "6d6c9932-3999-419c-a002-684ad33094c4",
        "type": "message",
        "text": "My intention is to manufacture both, shield and the mask as well.",
        "user": "U0108DWH5NH",
        "ts": "1584906772.245400",
        "team": "TUU48M0T1",
        "user_team": "TUU48M0T1",
        "source_team": "TUU48M0T1",
        "user_profile": {
            "avatar_hash": "gd582b07cb4c",
            "image_72": "https:\/\/secure.gravatar.com\/avatar\/d582b07cb4cff8ecfdf7095f4f4eefc5.jpg?s=72&d=https%3A%2F%2Fa.slack-edge.com%2Fdf10d%2Fimg%2Favatars%2Fava_0025-72.png",
            "first_name": "",
            "real_name": "Juraj Marak",
            "display_name": "Juraj Marak",
            "team": "TUU48M0T1",
            "name": "kukulo2011",
            "is_restricted": false,
            "is_ultra_restricted": false
        },
        "blocks": [
            {
                "type": "rich_text",
                "block_id": "XQXD",
                "elements": [
                    {
                        "type": "rich_text_section",
                        "elements": [
                            {
                                "type": "text",
                                "text": "My intention is to manufacture both, shield and the mask as well."
                            }
                        ]
                    }
                ]
            }
        ],
        "thread_ts": "1584905129.243600",
        "parent_user_id": "U0108DWH5NH"
    },
    {
        "client_msg_id": "e51f7289-885a-44e9-aa42-c14df5410ffd",
        "type": "message",
        "text": "<https:\/\/starks.com\/vacuum-bag-surgical-masks\/#instructions|https:\/\/starks.com\/vacuum-bag-surgical-masks\/#instructions>  here is another source elaborating on this solution. I am out of vacuum cleaner bags, so I cannot try myself for now",
        "user": "U01081Y0TBP",
        "ts": "1584907051.245600",
        "team": "TUU48M0T1",
        "user_team": "TUU48M0T1",
        "source_team": "TUU48M0T1",
        "user_profile": {
            "avatar_hash": "60ec5b47107a",
            "image_72": "https:\/\/avatars.slack-edge.com\/2020-03-18\/995274181218_60ec5b47107a3bd2ca7d_72.jpg",
            "first_name": "Peter",
            "real_name": "Peter Kooren",
            "display_name": "Peter Kooren",
            "team": "TUU48M0T1",
            "name": "peterkooren",
            "is_restricted": false,
            "is_ultra_restricted": false
        },
        "attachments": [
            {
                "service_name": "Stark's Vacuums - Vacuum Service &amp; Repair - Vacuum Store with 9 Locations in the Portland OR area - Bend OR and Vancouver WA",
                "title": "DIY Face Masks from Vacuum Bags - Prevent the Spread of COVID-19",
                "title_link": "https:\/\/starks.com\/vacuum-bag-surgical-masks\/#instructions",
                "text": "Portland's own Stark's Vacuums is offering instructions on how to create a DIY surgical mask made out of vacuum bags to help prevent the spread of COVID-19.",
                "fallback": "Stark's Vacuums - Vacuum Service &amp; Repair - Vacuum Store with 9 Locations in the Portland OR area - Bend OR and Vancouver WA: DIY Face Masks from Vacuum Bags - Prevent the Spread of COVID-19",
                "thumb_url": "https:\/\/starks.com\/wp-content\/uploads\/2020\/03\/starks_facemask-social.jpg",
                "ts": 1584812334,
                "from_url": "https:\/\/starks.com\/vacuum-bag-surgical-masks\/#instructions",
                "thumb_width": 861,
                "thumb_height": 861,
                "service_icon": "https:\/\/starks.com\/wp-content\/uploads\/2018\/07\/starks-favicon.png",
                "id": 1,
                "original_url": "https:\/\/starks.com\/vacuum-bag-surgical-masks\/#instructions"
            }
        ],
        "blocks": [
            {
                "type": "rich_text",
                "block_id": "Wjh",
                "elements": [
                    {
                        "type": "rich_text_section",
                        "elements": [
                            {
                                "type": "link",
                                "url": "https:\/\/starks.com\/vacuum-bag-surgical-masks\/#instructions",
                                "text": "https:\/\/starks.com\/vacuum-bag-surgical-masks\/#instructions"
                            },
                            {
                                "type": "text",
                                "text": "  here is another source elaborating on this solution. I am out of vacuum cleaner bags, so I cannot try myself for now"
                            }
                        ]
                    }
                ]
            }
        ],
        "thread_ts": "1584884112.239300",
        "parent_user_id": "U01081Y0TBP"
    },
    {
        "client_msg_id": "b10bd617-7747-4e1d-9790-9ba8d9e46ba8",
        "type": "message",
        "text": "A couple of excellent resources on mask deocntamination that just got posted to the ABSA mailing list:",
        "user": "U0102NEMRTR",
        "ts": "1584909911.246700",
        "team": "TUU48M0T1",
        "user_team": "TUU48M0T1",
        "source_team": "TUU48M0T1",
        "user_profile": {
            "avatar_hash": "g6072d132593",
            "image_72": "https:\/\/secure.gravatar.com\/avatar\/6072d132593acb6de99356666ff0ed9e.jpg?s=72&d=https%3A%2F%2Fa.slack-edge.com%2Fdf10d%2Fimg%2Favatars%2Fava_0008-72.png",
            "first_name": "",
            "real_name": "Patrik D'haeseleer",
            "display_name": "Patrik D'haeseleer",
            "team": "TUU48M0T1",
            "name": "patrikd",
            "is_restricted": false,
            "is_ultra_restricted": false
        },
        "blocks": [
            {
                "type": "rich_text",
                "block_id": "yHIO6",
                "elements": [
                    {
                        "type": "rich_text_section",
                        "elements": [
                            {
                                "type": "text",
                                "text": "A couple of excellent resources on mask deocntamination that just got posted to the ABSA mailing list:"
                            }
                        ]
                    }
                ]
            }
        ]
    },
    {
        "client_msg_id": "bb934426-49d0-489a-9df7-7dfd9bdbcd82",
        "type": "message",
        "text": "UV N95 Mask decontamination protocol from Nebraska Medical: <https:\/\/nebraskamed.com\/sites\/default\/files\/documents\/covid-19\/n-95-decon-process.pdf>",
        "user": "U0102NEMRTR",
        "ts": "1584909933.247000",
        "team": "TUU48M0T1",
        "user_team": "TUU48M0T1",
        "source_team": "TUU48M0T1",
        "user_profile": {
            "avatar_hash": "g6072d132593",
            "image_72": "https:\/\/secure.gravatar.com\/avatar\/6072d132593acb6de99356666ff0ed9e.jpg?s=72&d=https%3A%2F%2Fa.slack-edge.com%2Fdf10d%2Fimg%2Favatars%2Fava_0008-72.png",
            "first_name": "",
            "real_name": "Patrik D'haeseleer",
            "display_name": "Patrik D'haeseleer",
            "team": "TUU48M0T1",
            "name": "patrikd",
            "is_restricted": false,
            "is_ultra_restricted": false
        },
        "blocks": [
            {
                "type": "rich_text",
                "block_id": "yU52E",
                "elements": [
                    {
                        "type": "rich_text_section",
                        "elements": [
                            {
                                "type": "text",
                                "text": "UV N95 Mask decontamination protocol from Nebraska Medical: "
                            },
                            {
                                "type": "link",
                                "url": "https:\/\/nebraskamed.com\/sites\/default\/files\/documents\/covid-19\/n-95-decon-process.pdf"
                            }
                        ]
                    }
                ]
            }
        ]
    },
    {
        "client_msg_id": "848e0889-1d18-4fe8-a4d1-e41182ed5f1a",
        "type": "message",
        "text": "Note the setup: UV lamps on *both* sides, with UV reflective material on the walls. Seems like you could design a smaller standalone box along these lines. Couple of useful references at the end as well. Several people on the list had serious concerns regarding UV breaking down the elastic of the masks in this setup. Might be why they are currently only recommending reuse 2-4 times.",
        "user": "U0102NEMRTR",
        "ts": "1584909956.247300",
        "team": "TUU48M0T1",
        "user_team": "TUU48M0T1",
        "source_team": "TUU48M0T1",
        "user_profile": {
            "avatar_hash": "g6072d132593",
            "image_72": "https:\/\/secure.gravatar.com\/avatar\/6072d132593acb6de99356666ff0ed9e.jpg?s=72&d=https%3A%2F%2Fa.slack-edge.com%2Fdf10d%2Fimg%2Favatars%2Fava_0008-72.png",
            "first_name": "",
            "real_name": "Patrik D'haeseleer",
            "display_name": "Patrik D'haeseleer",
            "team": "TUU48M0T1",
            "name": "patrikd",
            "is_restricted": false,
            "is_ultra_restricted": false
        },
        "blocks": [
            {
                "type": "rich_text",
                "block_id": "L8gt",
                "elements": [
                    {
                        "type": "rich_text_section",
                        "elements": [
                            {
                                "type": "text",
                                "text": "Note the setup: UV lamps on *both* sides, with UV reflective material on the walls. Seems like you could design a smaller standalone box along these lines. Couple of useful references at the end as well. Several people on the list had serious concerns regarding UV breaking down the elastic of the masks in this setup. Might be why they are currently only recommending reuse 2-4 times."
                            }
                        ]
                    }
                ]
            }
        ]
    },
    {
        "client_msg_id": "b3ba37ce-3461-4089-a249-e7e34e92639d",
        "type": "message",
        "text": "These folks also did a good literature search, and came up with UV radiation, microwave generated steam, or warm moist heat for N95: <https:\/\/consteril.com\/covid-19-pandemic-disinfection-and-sterilization-of-face-masks-for-viruses\/>",
        "user": "U0102NEMRTR",
        "ts": "1584909978.247600",
        "team": "TUU48M0T1",
        "user_team": "TUU48M0T1",
        "source_team": "TUU48M0T1",
        "user_profile": {
            "avatar_hash": "g6072d132593",
            "image_72": "https:\/\/secure.gravatar.com\/avatar\/6072d132593acb6de99356666ff0ed9e.jpg?s=72&d=https%3A%2F%2Fa.slack-edge.com%2Fdf10d%2Fimg%2Favatars%2Fava_0008-72.png",
            "first_name": "",
            "real_name": "Patrik D'haeseleer",
            "display_name": "Patrik D'haeseleer",
            "team": "TUU48M0T1",
            "name": "patrikd",
            "is_restricted": false,
            "is_ultra_restricted": false
        },
        "attachments": [
            {
                "service_name": "Consolidated Sterilizer Systems",
                "title": "Covid-19 Pandemic: Disinfection and Sterilization of Face Masks for Viruses",
                "title_link": "https:\/\/consteril.com\/covid-19-pandemic-disinfection-and-sterilization-of-face-masks-for-viruses\/",
                "text": "Consolidated Sterilizer Systems Covid-19 Pandemic: Disinfection and Sterilization of Face Masks for Viruses. The most reliable and easy-to-use steam autoclaves in the world.",
                "fallback": "Consolidated Sterilizer Systems: Covid-19 Pandemic: Disinfection and Sterilization of Face Masks for Viruses",
                "image_url": "https:\/\/consteril.com\/wp-content\/uploads\/2020\/03\/Covid-19-Pandemic-Disinfection-and-Sterilization-of-Face-Masks-for-Viruses_cover.jpg",
                "image_width": 375,
                "image_height": 250,
                "ts": 1584537044,
                "from_url": "https:\/\/consteril.com\/covid-19-pandemic-disinfection-and-sterilization-of-face-masks-for-viruses\/",
                "image_bytes": 128939,
                "service_icon": "https:\/\/consteril.com\/wp-content\/themes\/consteril\/assets\/images\/png\/favicon.png",
                "id": 1,
                "original_url": "https:\/\/consteril.com\/covid-19-pandemic-disinfection-and-sterilization-of-face-masks-for-viruses\/"
            }
        ],
        "blocks": [
            {
                "type": "rich_text",
                "block_id": "uRL1",
                "elements": [
                    {
                        "type": "rich_text_section",
                        "elements": [
                            {
                                "type": "text",
                                "text": "These folks also did a good literature search, and came up with UV radiation, microwave generated steam, or warm moist heat for N95: "
                            },
                            {
                                "type": "link",
                                "url": "https:\/\/consteril.com\/covid-19-pandemic-disinfection-and-sterilization-of-face-masks-for-viruses\/"
                            }
                        ]
                    }
                ]
            }
        ],
        "thread_ts": "1584909978.247600",
        "reply_count": 1,
        "reply_users_count": 1,
        "latest_reply": "1584910245.247900",
        "reply_users": [
            "UV2P3AQEN"
        ],
        "replies": [
            {
                "user": "UV2P3AQEN",
                "ts": "1584910245.247900"
            }
        ],
        "subscribed": false,
        "reactions": [
            {
                "name": "+1",
                "users": [
                    "UV2P3AQEN",
                    "U0103AWRSMV",
                    "UUPQGNNTV"
                ],
                "count": 3
            }
        ]
    },
    {
        "client_msg_id": "74666a3e-32a0-4347-bc3d-a21bf14d9dd5",
        "type": "message",
        "text": "This is good, thanks. We'll all need to take into account these aspects when it's time to make a pick",
        "user": "UV2P3AQEN",
        "ts": "1584910245.247900",
        "team": "TUU48M0T1",
        "user_team": "TUU48M0T1",
        "source_team": "TUU48M0T1",
        "user_profile": {
            "avatar_hash": "82d977ce9645",
            "image_72": "https:\/\/avatars.slack-edge.com\/2020-03-16\/1003452392327_82d977ce9645ebc30917_72.jpg",
            "first_name": "Antonio",
            "real_name": "Antonio Mangiapane",
            "display_name": "Antonio Mangiapane",
            "team": "TUU48M0T1",
            "name": "antonio.mangiapane29",
            "is_restricted": false,
            "is_ultra_restricted": false
        },
        "blocks": [
            {
                "type": "rich_text",
                "block_id": "tov",
                "elements": [
                    {
                        "type": "rich_text_section",
                        "elements": [
                            {
                                "type": "text",
                                "text": "This is good, thanks. We'll all need to take into account these aspects when it's time to make a pick"
                            }
                        ]
                    }
                ]
            }
        ],
        "thread_ts": "1584909978.247600",
        "parent_user_id": "U0102NEMRTR"
    },
    {
        "client_msg_id": "b5147384-94d0-4210-acfa-0c4dec18f76f",
        "type": "message",
        "text": "<!channel> - do we have a separate channel on developing decontamination methods for masks? Should this be included here, or shall we set up a new channel for that...",
        "user": "U0102NEMRTR",
        "ts": "1584910425.249200",
        "team": "TUU48M0T1",
        "user_team": "TUU48M0T1",
        "source_team": "TUU48M0T1",
        "user_profile": {
            "avatar_hash": "g6072d132593",
            "image_72": "https:\/\/secure.gravatar.com\/avatar\/6072d132593acb6de99356666ff0ed9e.jpg?s=72&d=https%3A%2F%2Fa.slack-edge.com%2Fdf10d%2Fimg%2Favatars%2Fava_0008-72.png",
            "first_name": "",
            "real_name": "Patrik D'haeseleer",
            "display_name": "Patrik D'haeseleer",
            "team": "TUU48M0T1",
            "name": "patrikd",
            "is_restricted": false,
            "is_ultra_restricted": false
        },
        "blocks": [
            {
                "type": "rich_text",
                "block_id": "tGcVo",
                "elements": [
                    {
                        "type": "rich_text_section",
                        "elements": [
                            {
                                "type": "broadcast",
                                "range": "channel"
                            },
                            {
                                "type": "text",
                                "text": " - do we have a separate channel on developing decontamination methods for masks? Should this be included here, or shall we set up a new channel for that..."
                            }
                        ]
                    }
                ]
            }
        ],
        "thread_ts": "1584910425.249200",
        "reply_count": 1,
        "reply_users_count": 1,
        "latest_reply": "1584910672.250400",
        "reply_users": [
            "UV2P3AQEN"
        ],
        "replies": [
            {
                "user": "UV2P3AQEN",
                "ts": "1584910672.250400"
            }
        ],
        "subscribed": false
    },
    {
        "client_msg_id": "10f8aa83-2b64-474c-8706-69459afc3abe",
        "type": "message",
        "text": "Something similar is being discussed in <#C010001FZ6J|proj-humidity-anti-covid19-shield> but I think that this is also useful here nonetheless",
        "user": "UV2P3AQEN",
        "ts": "1584910672.250400",
        "team": "TUU48M0T1",
        "user_team": "TUU48M0T1",
        "source_team": "TUU48M0T1",
        "user_profile": {
            "avatar_hash": "82d977ce9645",
            "image_72": "https:\/\/avatars.slack-edge.com\/2020-03-16\/1003452392327_82d977ce9645ebc30917_72.jpg",
            "first_name": "Antonio",
            "real_name": "Antonio Mangiapane",
            "display_name": "Antonio Mangiapane",
            "team": "TUU48M0T1",
            "name": "antonio.mangiapane29",
            "is_restricted": false,
            "is_ultra_restricted": false
        },
        "blocks": [
            {
                "type": "rich_text",
                "block_id": "Ywf",
                "elements": [
                    {
                        "type": "rich_text_section",
                        "elements": [
                            {
                                "type": "text",
                                "text": "Something similar is being discussed in "
                            },
                            {
                                "type": "channel",
                                "channel_id": "C010001FZ6J"
                            },
                            {
                                "type": "text",
                                "text": " but I think that this is also useful here nonetheless"
                            }
                        ]
                    }
                ]
            }
        ],
        "thread_ts": "1584910425.249200",
        "parent_user_id": "U0102NEMRTR"
    },
    {
        "client_msg_id": "a2b7ac4d-26dc-4653-95dd-4911c14dc92c",
        "type": "message",
        "text": "<http:\/\/ppereuse.com|ppereuse.com>  <https:\/\/bit.ly\/3bcrVFO>  <https:\/\/slack-redir.net\/link?url=https%3A%2F%2Fbit.ly%2F3dgU9kI|N95 Respirator Microwave Decontamination Procedure>  &lt;-- this has been implemented successfully in a few hospitals in Arkansas",
        "user": "U0103AWRSMV",
        "ts": "1584911317.251600",
        "team": "TUU48M0T1",
        "user_team": "TUU48M0T1",
        "source_team": "TUU48M0T1",
        "user_profile": {
            "avatar_hash": "c1fced1c89da",
            "image_72": "https:\/\/avatars.slack-edge.com\/2020-03-22\/1019622212103_c1fced1c89dadf000fa4_72.jpg",
            "first_name": "",
            "real_name": "Dan Fourie",
            "display_name": "Dan Fourie",
            "team": "TUU48M0T1",
            "name": "danielhfourie",
            "is_restricted": false,
            "is_ultra_restricted": false
        },
        "attachments": [
            {
                "service_name": "Google Docs",
                "title": "N95 Respirator Reuse &amp; Decontamination One Pager",
                "title_link": "https:\/\/bit.ly\/3bcrVFO",
                "text": "N95 Respirator Reuse &amp; Decontamination The COVID19 pandemic has many hospitals struggling to meet the needs of their own workers by providing adequate PPE while attending COVID patients. Supply stockpiles meant to last months are used so quickly they begin to dwindle in only days or weeks. This ...",
                "fallback": "Google Docs: N95 Respirator Reuse &amp; Decontamination One Pager",
                "image_url": "https:\/\/lh5.googleusercontent.com\/buj7Mw_IZosqvm_l1fa7W-6ArGClcDNFqRN8s26NGAZw8_X1RrLsQZExq8_upKLnRBAaXFGJdg",
                "image_width": 177,
                "image_height": 250,
                "from_url": "https:\/\/bit.ly\/3bcrVFO",
                "image_bytes": 357008,
                "service_icon": "https:\/\/ssl.gstatic.com\/docs\/documents\/images\/kix-favicon7.ico",
                "id": 1,
                "original_url": "https:\/\/bit.ly\/3bcrVFO"
            },
            {
                "service_name": "Google Docs",
                "title": "N95 Respirator Microwave Decontamination Procedure",
                "title_link": "https:\/\/slack-redir.net\/link?url=https%3A%2F%2Fbit.ly%2F3dgU9kI",
                "text": "N95 Respirator Microwave Decontamination Procedure Fill a plastic container with 50mL (¼ cup) of tap water Place a perforated plate over the container Place a single respirator on the perforated plate (so the steam can get through to it) Microwave on high for 2 minutes 1250W, 2450 MHz commerc...",
                "fallback": "Google Docs: N95 Respirator Microwave Decontamination Procedure",
                "image_url": "https:\/\/lh3.googleusercontent.com\/E8F0RAZAu4MWRohsmxA5bFlTo_TNIwTX291F4L1I0h0YBmqFzv0YYO4if-yy_yfusPbURdHKIA",
                "image_width": 177,
                "image_height": 250,
                "from_url": "https:\/\/slack-redir.net\/link?url=https%3A%2F%2Fbit.ly%2F3dgU9kI",
                "image_bytes": 258560,
                "service_icon": "https:\/\/ssl.gstatic.com\/docs\/documents\/images\/kix-favicon7.ico",
                "id": 2,
                "original_url": "https:\/\/slack-redir.net\/link?url=https%3A%2F%2Fbit.ly%2F3dgU9kI"
            }
        ],
        "blocks": [
            {
                "type": "rich_text",
                "block_id": "9j\/m",
                "elements": [
                    {
                        "type": "rich_text_section",
                        "elements": [
                            {
                                "type": "link",
                                "url": "http:\/\/ppereuse.com",
                                "text": "ppereuse.com"
                            },
                            {
                                "type": "text",
                                "text": "  "
                            },
                            {
                                "type": "link",
                                "url": "https:\/\/bit.ly\/3bcrVFO"
                            },
                            {
                                "type": "text",
                                "text": "  "
                            },
                            {
                                "type": "link",
                                "url": "https:\/\/slack-redir.net\/link?url=https%3A%2F%2Fbit.ly%2F3dgU9kI",
                                "text": "N95 Respirator Microwave Decontamination Procedure"
                            },
                            {
                                "type": "text",
                                "text": "  <-- this has been implemented successfully in a few hospitals in Arkansas"
                            }
                        ]
                    }
                ]
            }
        ],
        "thread_ts": "1584911317.251600",
        "reply_count": 4,
        "reply_users_count": 3,
        "latest_reply": "1585034505.263400",
        "reply_users": [
            "U0105KZPEJF",
            "U0102NEMRTR",
            "U0103AWRSMV"
        ],
        "replies": [
            {
                "user": "U0105KZPEJF",
                "ts": "1584911709.252000"
            },
            {
                "user": "U0102NEMRTR",
                "ts": "1584914759.252600"
            },
            {
                "user": "U0102NEMRTR",
                "ts": "1584914764.252800"
            },
            {
                "user": "U0103AWRSMV",
                "ts": "1585034505.263400"
            }
        ],
        "subscribed": false
    },
    {
        "client_msg_id": "1fd33edf-c8c5-4e93-9e80-2cdcdea8857a",
        "type": "message",
        "text": "dope. will pass on the papers to my doctor friend, she's currently just sanitizing and letting air out for multiple days. this looks promising.",
        "user": "U0105KZPEJF",
        "ts": "1584911709.252000",
        "team": "TUU48M0T1",
        "user_team": "TUU48M0T1",
        "source_team": "TUU48M0T1",
        "user_profile": {
            "avatar_hash": "gee6beb8148c",
            "image_72": "https:\/\/secure.gravatar.com\/avatar\/ee6beb8148cc650119898869bbaf9592.jpg?s=72&d=https%3A%2F%2Fa.slack-edge.com%2Fdf10d%2Fimg%2Favatars%2Fava_0019-72.png",
            "first_name": "",
            "real_name": "jeremy",
            "display_name": "jeremy",
            "team": "TUU48M0T1",
            "name": "jeremy.llewellyn",
            "is_restricted": false,
            "is_ultra_restricted": false
        },
        "edited": {
            "user": "U0105KZPEJF",
            "ts": "1584911729.000000"
        },
        "blocks": [
            {
                "type": "rich_text",
                "block_id": "6hn",
                "elements": [
                    {
                        "type": "rich_text_section",
                        "elements": [
                            {
                                "type": "text",
                                "text": "dope. will pass on the papers to my doctor friend, she's currently just sanitizing and letting air out for multiple days. this looks promising."
                            }
                        ]
                    }
                ]
            }
        ],
        "thread_ts": "1584911317.251600",
        "parent_user_id": "U0103AWRSMV"
    },
    {
        "client_msg_id": "23712042-49b0-42ca-b056-4ed967e3215c",
        "type": "message",
        "text": "Yeah, I really like the microwave station that Cornerstone set up for staff:",
        "user": "U0102NEMRTR",
        "ts": "1584914759.252600",
        "team": "TUU48M0T1",
        "user_team": "TUU48M0T1",
        "source_team": "TUU48M0T1",
        "user_profile": {
            "avatar_hash": "g6072d132593",
            "image_72": "https:\/\/secure.gravatar.com\/avatar\/6072d132593acb6de99356666ff0ed9e.jpg?s=72&d=https%3A%2F%2Fa.slack-edge.com%2Fdf10d%2Fimg%2Favatars%2Fava_0008-72.png",
            "first_name": "",
            "real_name": "Patrik D'haeseleer",
            "display_name": "Patrik D'haeseleer",
            "team": "TUU48M0T1",
            "name": "patrikd",
            "is_restricted": false,
            "is_ultra_restricted": false
        },
        "blocks": [
            {
                "type": "rich_text",
                "block_id": "cSq\/",
                "elements": [
                    {
                        "type": "rich_text_section",
                        "elements": [
                            {
                                "type": "text",
                                "text": "Yeah, I really like the microwave station that Cornerstone set up for staff:"
                            }
                        ]
                    }
                ]
            }
        ],
        "thread_ts": "1584911317.251600",
        "parent_user_id": "U0103AWRSMV"
    },
    {
        "client_msg_id": "71f68723-04d2-4a88-a197-180e74b55ae0",
        "type": "message",
        "text": "\"-Having someone else set everything up then open the microwave door, then having the user remove their mask and place it in the microwave themself, seems to help with cross-contamination\n\n-We have taped \/ laminated the protocol on top of the microwave, placed the microwave on a cart, with supplies on the 2nd shelf, and literature for review on the 3rd shelf, with an adjacent bin (in our now evacuated patient waiting area)\"",
        "user": "U0102NEMRTR",
        "ts": "1584914764.252800",
        "team": "TUU48M0T1",
        "user_team": "TUU48M0T1",
        "source_team": "TUU48M0T1",
        "user_profile": {
            "avatar_hash": "g6072d132593",
            "image_72": "https:\/\/secure.gravatar.com\/avatar\/6072d132593acb6de99356666ff0ed9e.jpg?s=72&d=https%3A%2F%2Fa.slack-edge.com%2Fdf10d%2Fimg%2Favatars%2Fava_0008-72.png",
            "first_name": "",
            "real_name": "Patrik D'haeseleer",
            "display_name": "Patrik D'haeseleer",
            "team": "TUU48M0T1",
            "name": "patrikd",
            "is_restricted": false,
            "is_ultra_restricted": false
        },
        "blocks": [
            {
                "type": "rich_text",
                "block_id": "S0Z",
                "elements": [
                    {
                        "type": "rich_text_section",
                        "elements": [
                            {
                                "type": "text",
                                "text": "\"-Having someone else set everything up then open the microwave door, then having the user remove their mask and place it in the microwave themself, seems to help with cross-contamination\n\n-We have taped \/ laminated the protocol on top of the microwave, placed the microwave on a cart, with supplies on the 2nd shelf, and literature for review on the 3rd shelf, with an adjacent bin (in our now evacuated patient waiting area)\""
                            }
                        ]
                    }
                ]
            }
        ],
        "thread_ts": "1584911317.251600",
        "parent_user_id": "U0103AWRSMV"
    },
    {
        "client_msg_id": "799322c0-2c21-44b7-ab12-a015d1e32e01",
        "type": "message",
        "text": "<@U0109B6RAJ0>",
        "user": "UVADMLUB0",
        "ts": "1584919790.253200",
        "team": "TUU48M0T1",
        "user_team": "TUU48M0T1",
        "source_team": "TUU48M0T1",
        "user_profile": {
            "avatar_hash": "14179705705a",
            "image_72": "https:\/\/avatars.slack-edge.com\/2020-03-11\/981468022482_14179705705a94b3db16_72.jpg",
            "first_name": "Bill",
            "real_name": "Bill Slavin",
            "display_name": "Bill Slavin- Executive Director, Indie Lab",
            "team": "TUU48M0T1",
            "name": "bill",
            "is_restricted": false,
            "is_ultra_restricted": false
        },
        "blocks": [
            {
                "type": "rich_text",
                "block_id": "wh9x",
                "elements": [
                    {
                        "type": "rich_text_section",
                        "elements": [
                            {
                                "type": "user",
                                "user_id": "U0109B6RAJ0"
                            }
                        ]
                    }
                ]
            }
        ],
        "thread_ts": "1584905129.243600",
        "parent_user_id": "U0108DWH5NH"
    }
]