[
    {
        "client_msg_id": "f7d933c8-e741-4efe-9e98-df5c6d796c14",
        "type": "message",
        "text": "I saw a headline this morning, this may be happening already!",
        "user": "UV1A22N3W",
        "ts": "1584462197.056400",
        "team": "TUU48M0T1",
        "user_team": "TUU48M0T1",
        "source_team": "TUU48M0T1",
        "user_profile": {
            "avatar_hash": "71f827776ad6",
            "image_72": "https:\/\/avatars.slack-edge.com\/2020-03-09\/988125642964_71f827776ad610af05a2_72.jpg",
            "first_name": "",
            "real_name": "RachelA",
            "display_name": "RachelA",
            "team": "TUU48M0T1",
            "name": "raronoff",
            "is_restricted": false,
            "is_ultra_restricted": false
        },
        "blocks": [
            {
                "type": "rich_text",
                "block_id": "AEM",
                "elements": [
                    {
                        "type": "rich_text_section",
                        "elements": [
                            {
                                "type": "text",
                                "text": "I saw a headline this morning, this may be happening already!"
                            }
                        ]
                    }
                ]
            }
        ],
        "thread_ts": "1584201259.014700",
        "parent_user_id": "UV1A22N3W"
    },
    {
        "client_msg_id": "7def2474-62ee-4ba3-a56b-b652a84d9389",
        "type": "message",
        "text": "<@UV1A22N3W> share please :smile:",
        "user": "U0100EPL9RT",
        "ts": "1584473547.056700",
        "team": "TUU48M0T1",
        "user_team": "TUU48M0T1",
        "source_team": "TUU48M0T1",
        "user_profile": {
            "avatar_hash": "gcb426d5e001",
            "image_72": "https:\/\/secure.gravatar.com\/avatar\/cb426d5e001776a4cbc74343e46f1916.jpg?s=72&d=https%3A%2F%2Fa.slack-edge.com%2Fdf10d%2Fimg%2Favatars%2Fava_0000-72.png",
            "first_name": "Zac",
            "real_name": "Zac",
            "display_name": "Zac",
            "team": "TUU48M0T1",
            "name": "zac",
            "is_restricted": false,
            "is_ultra_restricted": false
        },
        "blocks": [
            {
                "type": "rich_text",
                "block_id": "pcEg",
                "elements": [
                    {
                        "type": "rich_text_section",
                        "elements": [
                            {
                                "type": "user",
                                "user_id": "UV1A22N3W"
                            },
                            {
                                "type": "text",
                                "text": " share please "
                            },
                            {
                                "type": "emoji",
                                "name": "smile"
                            }
                        ]
                    }
                ]
            }
        ],
        "thread_ts": "1584201259.014700",
        "parent_user_id": "UV1A22N3W"
    },
    {
        "client_msg_id": "516fe195-55b4-4dd4-94d5-8cdd92d45433",
        "type": "message",
        "text": "I mean, simple inventions are always the best :smile:",
        "user": "U0100EPL9RT",
        "ts": "1584495644.057800",
        "team": "TUU48M0T1",
        "user_team": "TUU48M0T1",
        "source_team": "TUU48M0T1",
        "user_profile": {
            "avatar_hash": "gcb426d5e001",
            "image_72": "https:\/\/secure.gravatar.com\/avatar\/cb426d5e001776a4cbc74343e46f1916.jpg?s=72&d=https%3A%2F%2Fa.slack-edge.com%2Fdf10d%2Fimg%2Favatars%2Fava_0000-72.png",
            "first_name": "Zac",
            "real_name": "Zac",
            "display_name": "Zac",
            "team": "TUU48M0T1",
            "name": "zac",
            "is_restricted": false,
            "is_ultra_restricted": false
        },
        "blocks": [
            {
                "type": "rich_text",
                "block_id": "9me43",
                "elements": [
                    {
                        "type": "rich_text_section",
                        "elements": [
                            {
                                "type": "text",
                                "text": "I mean, simple inventions are always the best "
                            },
                            {
                                "type": "emoji",
                                "name": "smile"
                            }
                        ]
                    }
                ]
            }
        ],
        "thread_ts": "1584199656.006800",
        "parent_user_id": "UVCT4AT54",
        "reactions": [
            {
                "name": "man-shrugging",
                "users": [
                    "UVCT4AT54"
                ],
                "count": 1
            }
        ]
    },
    {
        "client_msg_id": "511689ba-50dc-4e9d-8d79-34b6927c9954",
        "type": "message",
        "text": "Why is ibuprofen contraindicated in the disease? Any facts?",
        "user": "UVCT4AT54",
        "ts": "1584507600.058300",
        "team": "TUU48M0T1",
        "user_team": "TUU48M0T1",
        "source_team": "TUU48M0T1",
        "user_profile": {
            "avatar_hash": "deae325ec149",
            "image_72": "https:\/\/avatars.slack-edge.com\/2020-03-13\/999319371812_deae325ec1496af7deb8_72.jpg",
            "first_name": "",
            "real_name": "Adrian Pascu",
            "display_name": "Adrian Pascu",
            "team": "TUU48M0T1",
            "name": "ionut.cepleanu",
            "is_restricted": false,
            "is_ultra_restricted": false
        },
        "blocks": [
            {
                "type": "rich_text",
                "block_id": "O4s",
                "elements": [
                    {
                        "type": "rich_text_section",
                        "elements": [
                            {
                                "type": "text",
                                "text": "Why is ibuprofen contraindicated in the disease? Any facts?"
                            }
                        ]
                    }
                ]
            }
        ],
        "thread_ts": "1584507600.058300",
        "reply_count": 11,
        "reply_users_count": 2,
        "latest_reply": "1584548638.068000",
        "reply_users": [
            "U0103128G4D",
            "UVCT4AT54"
        ],
        "replies": [
            {
                "user": "U0103128G4D",
                "ts": "1584508231.058600"
            },
            {
                "user": "U0103128G4D",
                "ts": "1584508238.058800"
            },
            {
                "user": "U0103128G4D",
                "ts": "1584508332.059000"
            },
            {
                "user": "UVCT4AT54",
                "ts": "1584514371.059500"
            },
            {
                "user": "UVCT4AT54",
                "ts": "1584514734.059700"
            },
            {
                "user": "U0103128G4D",
                "ts": "1584515748.059900"
            },
            {
                "user": "U0103128G4D",
                "ts": "1584515749.060100"
            },
            {
                "user": "U0103128G4D",
                "ts": "1584515760.060400"
            },
            {
                "user": "U0103128G4D",
                "ts": "1584515820.060700"
            },
            {
                "user": "U0103128G4D",
                "ts": "1584515867.061000"
            },
            {
                "user": "U0103128G4D",
                "ts": "1584548638.068000"
            }
        ],
        "subscribed": false,
        "reactions": [
            {
                "name": "+1",
                "users": [
                    "U0103128G4D"
                ],
                "count": 1
            }
        ]
    },
    {
        "client_msg_id": "c1afb354-8564-4232-9bec-959d899c4cc1",
        "type": "message",
        "text": "this was brought up sometime in <#CURQC583E|random>  I want to say? Definitely also suggest doing a general search",
        "user": "U0103128G4D",
        "ts": "1584508231.058600",
        "team": "TUU48M0T1",
        "user_team": "TUU48M0T1",
        "source_team": "TUU48M0T1",
        "user_profile": {
            "avatar_hash": "g76b7a7fcf75",
            "image_72": "https:\/\/secure.gravatar.com\/avatar\/76b7a7fcf754c895c0bf9763dfdebde4.jpg?s=72&d=https%3A%2F%2Fa.slack-edge.com%2Fdf10d%2Fimg%2Favatars%2Fava_0005-72.png",
            "first_name": "",
            "real_name": "Melody Wu",
            "display_name": "Melody Wu",
            "team": "TUU48M0T1",
            "name": "melody_w",
            "is_restricted": false,
            "is_ultra_restricted": false
        },
        "blocks": [
            {
                "type": "rich_text",
                "block_id": "=Ln",
                "elements": [
                    {
                        "type": "rich_text_section",
                        "elements": [
                            {
                                "type": "text",
                                "text": "this was brought up sometime in "
                            },
                            {
                                "type": "channel",
                                "channel_id": "CURQC583E"
                            },
                            {
                                "type": "text",
                                "text": "  I want to say? Definitely also suggest doing a general search"
                            }
                        ]
                    }
                ]
            }
        ],
        "thread_ts": "1584507600.058300",
        "parent_user_id": "UVCT4AT54"
    },
    {
        "client_msg_id": "286e4e02-a36f-4170-b497-55172d68286d",
        "type": "message",
        "text": "Snopes also has a fact check thing on this",
        "user": "U0103128G4D",
        "ts": "1584508238.058800",
        "team": "TUU48M0T1",
        "user_team": "TUU48M0T1",
        "source_team": "TUU48M0T1",
        "user_profile": {
            "avatar_hash": "g76b7a7fcf75",
            "image_72": "https:\/\/secure.gravatar.com\/avatar\/76b7a7fcf754c895c0bf9763dfdebde4.jpg?s=72&d=https%3A%2F%2Fa.slack-edge.com%2Fdf10d%2Fimg%2Favatars%2Fava_0005-72.png",
            "first_name": "",
            "real_name": "Melody Wu",
            "display_name": "Melody Wu",
            "team": "TUU48M0T1",
            "name": "melody_w",
            "is_restricted": false,
            "is_ultra_restricted": false
        },
        "blocks": [
            {
                "type": "rich_text",
                "block_id": "nP11l",
                "elements": [
                    {
                        "type": "rich_text_section",
                        "elements": [
                            {
                                "type": "text",
                                "text": "Snopes also has a fact check thing on this"
                            }
                        ]
                    }
                ]
            }
        ],
        "thread_ts": "1584507600.058300",
        "parent_user_id": "UVCT4AT54"
    },
    {
        "client_msg_id": "3a0a9679-76b6-4382-a98e-1a1758e169da",
        "type": "message",
        "text": "<https:\/\/www.snopes.com\/fact-check\/covid-19-nsaids-ibuprofen\/>",
        "user": "U0103128G4D",
        "ts": "1584508332.059000",
        "team": "TUU48M0T1",
        "user_team": "TUU48M0T1",
        "source_team": "TUU48M0T1",
        "user_profile": {
            "avatar_hash": "g76b7a7fcf75",
            "image_72": "https:\/\/secure.gravatar.com\/avatar\/76b7a7fcf754c895c0bf9763dfdebde4.jpg?s=72&d=https%3A%2F%2Fa.slack-edge.com%2Fdf10d%2Fimg%2Favatars%2Fava_0005-72.png",
            "first_name": "",
            "real_name": "Melody Wu",
            "display_name": "Melody Wu",
            "team": "TUU48M0T1",
            "name": "melody_w",
            "is_restricted": false,
            "is_ultra_restricted": false
        },
        "attachments": [
            {
                "service_name": "Snopes.com",
                "title": "Should COVID-19 Patients Avoid Taking Ibuprofen?",
                "title_link": "https:\/\/www.snopes.com\/fact-check\/covid-19-nsaids-ibuprofen\/",
                "text": "French medical advice warned that \"adverse effects\" of drugs such as ibuprofen had been reported in coronavirus patients.",
                "fallback": "Snopes.com: Should COVID-19 Patients Avoid Taking Ibuprofen?",
                "image_url": "https:\/\/www.snopes.com\/tachyon\/2018\/04\/ibuprofen_feature.jpg?fit=1200,628",
                "image_width": 478,
                "image_height": 250,
                "from_url": "https:\/\/www.snopes.com\/fact-check\/covid-19-nsaids-ibuprofen\/",
                "image_bytes": 119634,
                "service_icon": "https:\/\/www.snopes.com\/tachyon\/2018\/06\/16-SNO-001_Twitter_Profile_400x400_C.jpg?fit=180,180",
                "id": 1,
                "original_url": "https:\/\/www.snopes.com\/fact-check\/covid-19-nsaids-ibuprofen\/"
            }
        ],
        "blocks": [
            {
                "type": "rich_text",
                "block_id": "xXj",
                "elements": [
                    {
                        "type": "rich_text_section",
                        "elements": [
                            {
                                "type": "link",
                                "url": "https:\/\/www.snopes.com\/fact-check\/covid-19-nsaids-ibuprofen\/"
                            }
                        ]
                    }
                ]
            }
        ],
        "thread_ts": "1584507600.058300",
        "parent_user_id": "UVCT4AT54"
    },
    {
        "client_msg_id": "0a8e190a-21ff-4c1d-921c-45b3e8b0d210",
        "type": "message",
        "text": "I fail to see a “why” based on facts and studies, though. All I see is observational data. That does not mean it’s false by any means. But it doesn’t answer why. I’ll look into things further..",
        "user": "UVCT4AT54",
        "ts": "1584514371.059500",
        "team": "TUU48M0T1",
        "user_team": "TUU48M0T1",
        "source_team": "TUU48M0T1",
        "user_profile": {
            "avatar_hash": "deae325ec149",
            "image_72": "https:\/\/avatars.slack-edge.com\/2020-03-13\/999319371812_deae325ec1496af7deb8_72.jpg",
            "first_name": "",
            "real_name": "Adrian Pascu",
            "display_name": "Adrian Pascu",
            "team": "TUU48M0T1",
            "name": "ionut.cepleanu",
            "is_restricted": false,
            "is_ultra_restricted": false
        },
        "blocks": [
            {
                "type": "rich_text",
                "block_id": "ptg",
                "elements": [
                    {
                        "type": "rich_text_section",
                        "elements": [
                            {
                                "type": "text",
                                "text": "I fail to see a “why” based on facts and studies, though. All I see is observational data. That does not mean it’s false by any means. But it doesn’t answer why. I’ll look into things further.."
                            }
                        ]
                    }
                ]
            }
        ],
        "thread_ts": "1584507600.058300",
        "parent_user_id": "UVCT4AT54"
    },
    {
        "client_msg_id": "ace74a27-f093-415a-979a-c670369daeea",
        "type": "message",
        "text": "I can see why ibuprofen is not recommended in hypertension, asthma, aneurysms etc… but why in young patient with no other medical conditions?",
        "user": "UVCT4AT54",
        "ts": "1584514734.059700",
        "team": "TUU48M0T1",
        "user_team": "TUU48M0T1",
        "source_team": "TUU48M0T1",
        "user_profile": {
            "avatar_hash": "deae325ec149",
            "image_72": "https:\/\/avatars.slack-edge.com\/2020-03-13\/999319371812_deae325ec1496af7deb8_72.jpg",
            "first_name": "",
            "real_name": "Adrian Pascu",
            "display_name": "Adrian Pascu",
            "team": "TUU48M0T1",
            "name": "ionut.cepleanu",
            "is_restricted": false,
            "is_ultra_restricted": false
        },
        "blocks": [
            {
                "type": "rich_text",
                "block_id": "Oy=n",
                "elements": [
                    {
                        "type": "rich_text_section",
                        "elements": [
                            {
                                "type": "text",
                                "text": "I can see why ibuprofen is not recommended in hypertension, asthma, aneurysms etc… but why in young patient with no other medical conditions?"
                            }
                        ]
                    }
                ]
            }
        ],
        "thread_ts": "1584507600.058300",
        "parent_user_id": "UVCT4AT54"
    }
]