[
    {
        "type": "message",
        "subtype": "channel_join",
        "ts": "1584959318.001400",
        "user": "U01055WPGD9",
        "text": "<@U01055WPGD9> has joined the channel"
    },
    {
        "client_msg_id": "ddc951f3-1a3d-40e5-9387-840003f81342",
        "type": "message",
        "text": "<@UV02WET96> sharing some open source docs I made for HE that we can easily change to JOGL for anything that needs to be done before a UI\/UX proper JOGl system.",
        "user": "UV0RRGB6H",
        "ts": "1584978349.002100",
        "team": "TUU48M0T1",
        "user_team": "TUU48M0T1",
        "source_team": "TUU48M0T1",
        "user_profile": {
            "avatar_hash": "48d4ab64c90c",
            "image_72": "https:\/\/avatars.slack-edge.com\/2020-03-26\/1029789176912_48d4ab64c90c03f3af4a_72.jpg",
            "first_name": "",
            "real_name": "Chris LB Graham",
            "display_name": "",
            "team": "TUU48M0T1",
            "name": "chris.graham",
            "is_restricted": false,
            "is_ultra_restricted": false
        },
        "edited": {
            "user": "UV0RRGB6H",
            "ts": "1584979008.000000"
        },
        "blocks": [
            {
                "type": "rich_text",
                "block_id": "L7Oo",
                "elements": [
                    {
                        "type": "rich_text_section",
                        "elements": [
                            {
                                "type": "user",
                                "user_id": "UV02WET96"
                            },
                            {
                                "type": "text",
                                "text": " sharing some open source docs I made for HE that we can easily change to JOGL for anything that needs to be done before a UI\/UX proper JOGl system."
                            }
                        ]
                    }
                ]
            }
        ]
    },
    {
        "client_msg_id": "03fd4f59-dcf2-4f98-abc1-31b78ada4cab",
        "type": "message",
        "text": "Using the following pathway:",
        "user": "UV0RRGB6H",
        "ts": "1584978372.002400",
        "team": "TUU48M0T1",
        "user_team": "TUU48M0T1",
        "source_team": "TUU48M0T1",
        "user_profile": {
            "avatar_hash": "48d4ab64c90c",
            "image_72": "https:\/\/avatars.slack-edge.com\/2020-03-26\/1029789176912_48d4ab64c90c03f3af4a_72.jpg",
            "first_name": "",
            "real_name": "Chris LB Graham",
            "display_name": "",
            "team": "TUU48M0T1",
            "name": "chris.graham",
            "is_restricted": false,
            "is_ultra_restricted": false
        },
        "blocks": [
            {
                "type": "rich_text",
                "block_id": "gXiSu",
                "elements": [
                    {
                        "type": "rich_text_section",
                        "elements": [
                            {
                                "type": "text",
                                "text": "Using the following pathway:"
                            }
                        ]
                    }
                ]
            }
        ]
    },
    {
        "client_msg_id": "6d438ced-1b49-4021-8ead-1089bccbeffc",
        "type": "message",
        "text": "*Iterative Peer Review waves and Project funding*\n\n1.An open call for projects is created weekly\n2.The project proposal template is created which highlights quality and success chance.\n3.The expert peer reviewers are assembled by our HR lead and asked to be ready to review\n4.The project proposal submission form is published to gather documents\n5.The peer review form is created to best show our needs and the quality of the submissions\n6.The project proposal submission is closed\n7.The project proposals are cleaned up and put in a file ready for ease of viewing by reviewers\n8.The peer review form is opened for peer review\n9.The moderator\/Spokesperson advertises the peer review and requests people to use it\n10.The peer review is closed\n11.The peer review form is translated into meaningful stats and insights into projects\n12.The best projects are chosen and focused on by a focused specialist team\n13. Projects are given feedback to work on for the next round",
        "user": "UV0RRGB6H",
        "ts": "1584978408.002600",
        "team": "TUU48M0T1",
        "user_team": "TUU48M0T1",
        "source_team": "TUU48M0T1",
        "user_profile": {
            "avatar_hash": "48d4ab64c90c",
            "image_72": "https:\/\/avatars.slack-edge.com\/2020-03-26\/1029789176912_48d4ab64c90c03f3af4a_72.jpg",
            "first_name": "",
            "real_name": "Chris LB Graham",
            "display_name": "",
            "team": "TUU48M0T1",
            "name": "chris.graham",
            "is_restricted": false,
            "is_ultra_restricted": false
        },
        "blocks": [
            {
                "type": "rich_text",
                "block_id": "nI1",
                "elements": [
                    {
                        "type": "rich_text_section",
                        "elements": [
                            {
                                "type": "text",
                                "text": "Iterative Peer Review waves and Project funding",
                                "style": {
                                    "bold": true
                                }
                            },
                            {
                                "type": "text",
                                "text": "\n\n1.An open call for projects is created weekly\n2.The project proposal template is created which highlights quality and success chance.\n3.The expert peer reviewers are assembled by our HR lead and asked to be ready to review\n4.The project proposal submission form is published to gather documents\n5.The peer review form is created to best show our needs and the quality of the submissions\n6.The project proposal submission is closed\n7.The project proposals are cleaned up and put in a file ready for ease of viewing by reviewers\n8.The peer review form is opened for peer review\n9.The moderator\/Spokesperson advertises the peer review and requests people to use it\n10.The peer review is closed\n11.The peer review form is translated into meaningful stats and insights into projects\n12.The best projects are chosen and focused on by a focused specialist team\n13. Projects are given feedback to work on for the next round"
                            }
                        ]
                    }
                ]
            }
        ]
    },
    {
        "client_msg_id": "b20bc88b-6404-4a7e-afdd-70c4d77a1234",
        "type": "message",
        "text": "This is how we have implemented so far (negating some manual data handling which is necessary)\n\nStep 1. They apply using this proposal template:",
        "user": "UV0RRGB6H",
        "ts": "1584978505.003000",
        "team": "TUU48M0T1",
        "user_team": "TUU48M0T1",
        "source_team": "TUU48M0T1",
        "user_profile": {
            "avatar_hash": "48d4ab64c90c",
            "image_72": "https:\/\/avatars.slack-edge.com\/2020-03-26\/1029789176912_48d4ab64c90c03f3af4a_72.jpg",
            "first_name": "",
            "real_name": "Chris LB Graham",
            "display_name": "",
            "team": "TUU48M0T1",
            "name": "chris.graham",
            "is_restricted": false,
            "is_ultra_restricted": false
        },
        "edited": {
            "user": "UV0RRGB6H",
            "ts": "1584979356.000000"
        },
        "blocks": [
            {
                "type": "rich_text",
                "block_id": "H4E",
                "elements": [
                    {
                        "type": "rich_text_section",
                        "elements": [
                            {
                                "type": "text",
                                "text": "This is how we have implemented so far (negating some manual data handling which is necessary)\n\nStep 1. They apply using this proposal template:"
                            }
                        ]
                    }
                ]
            }
        ]
    },
    {
        "client_msg_id": "2bb3f1c5-a6ff-4ec9-9222-b6221551b473",
        "type": "message",
        "text": "*<https:\/\/docs.google.com\/document\/d\/19evtUmLD9zuDH26m60EUee2M_LDb4i_5Dkg5a9H1el8\/edit?usp=sharing>*",
        "user": "UV0RRGB6H",
        "ts": "1584978530.003200",
        "team": "TUU48M0T1",
        "user_team": "TUU48M0T1",
        "source_team": "TUU48M0T1",
        "user_profile": {
            "avatar_hash": "48d4ab64c90c",
            "image_72": "https:\/\/avatars.slack-edge.com\/2020-03-26\/1029789176912_48d4ab64c90c03f3af4a_72.jpg",
            "first_name": "",
            "real_name": "Chris LB Graham",
            "display_name": "",
            "team": "TUU48M0T1",
            "name": "chris.graham",
            "is_restricted": false,
            "is_ultra_restricted": false
        },
        "blocks": [
            {
                "type": "rich_text",
                "block_id": "iuY",
                "elements": [
                    {
                        "type": "rich_text_section",
                        "elements": [
                            {
                                "type": "link",
                                "url": "https:\/\/docs.google.com\/document\/d\/19evtUmLD9zuDH26m60EUee2M_LDb4i_5Dkg5a9H1el8\/edit?usp=sharing",
                                "style": {
                                    "bold": true
                                }
                            }
                        ]
                    }
                ]
            }
        ]
    },
    {
        "client_msg_id": "5efcf9f6-a3b1-4754-8f3d-9e5e55975b05",
        "type": "message",
        "text": "Step 2. They forward this to this form with a few other details:",
        "user": "UV0RRGB6H",
        "ts": "1584978553.003800",
        "team": "TUU48M0T1",
        "user_team": "TUU48M0T1",
        "source_team": "TUU48M0T1",
        "user_profile": {
            "avatar_hash": "48d4ab64c90c",
            "image_72": "https:\/\/avatars.slack-edge.com\/2020-03-26\/1029789176912_48d4ab64c90c03f3af4a_72.jpg",
            "first_name": "",
            "real_name": "Chris LB Graham",
            "display_name": "",
            "team": "TUU48M0T1",
            "name": "chris.graham",
            "is_restricted": false,
            "is_ultra_restricted": false
        },
        "blocks": [
            {
                "type": "rich_text",
                "block_id": "zpeKW",
                "elements": [
                    {
                        "type": "rich_text_section",
                        "elements": [
                            {
                                "type": "text",
                                "text": "Step 2. They forward this to this form with a few other details:"
                            }
                        ]
                    }
                ]
            }
        ]
    },
    {
        "client_msg_id": "3ff52c23-f5a4-47e0-a4d0-aa1b8944891b",
        "type": "message",
        "text": "*<https:\/\/forms.gle\/TBHqx6DDzsi8HErw8>*.",
        "user": "UV0RRGB6H",
        "ts": "1584978563.004000",
        "team": "TUU48M0T1",
        "user_team": "TUU48M0T1",
        "source_team": "TUU48M0T1",
        "user_profile": {
            "avatar_hash": "48d4ab64c90c",
            "image_72": "https:\/\/avatars.slack-edge.com\/2020-03-26\/1029789176912_48d4ab64c90c03f3af4a_72.jpg",
            "first_name": "",
            "real_name": "Chris LB Graham",
            "display_name": "",
            "team": "TUU48M0T1",
            "name": "chris.graham",
            "is_restricted": false,
            "is_ultra_restricted": false
        },
        "edited": {
            "user": "UV0RRGB6H",
            "ts": "1584979369.000000"
        },
        "blocks": [
            {
                "type": "rich_text",
                "block_id": "5fJ00",
                "elements": [
                    {
                        "type": "rich_text_section",
                        "elements": [
                            {
                                "type": "link",
                                "url": "https:\/\/forms.gle\/TBHqx6DDzsi8HErw8",
                                "style": {
                                    "bold": true
                                }
                            },
                            {
                                "type": "text",
                                "text": "."
                            }
                        ]
                    }
                ]
            }
        ]
    },
    {
        "client_msg_id": "b0dd1058-fd07-4039-9e95-ccf8ed1b3490",
        "type": "message",
        "text": "Step 3. 3 days pass to allow them to submit",
        "user": "UV0RRGB6H",
        "ts": "1584978580.004500",
        "team": "TUU48M0T1",
        "user_team": "TUU48M0T1",
        "source_team": "TUU48M0T1",
        "user_profile": {
            "avatar_hash": "48d4ab64c90c",
            "image_72": "https:\/\/avatars.slack-edge.com\/2020-03-26\/1029789176912_48d4ab64c90c03f3af4a_72.jpg",
            "first_name": "",
            "real_name": "Chris LB Graham",
            "display_name": "",
            "team": "TUU48M0T1",
            "name": "chris.graham",
            "is_restricted": false,
            "is_ultra_restricted": false
        },
        "blocks": [
            {
                "type": "rich_text",
                "block_id": "fTB5",
                "elements": [
                    {
                        "type": "rich_text_section",
                        "elements": [
                            {
                                "type": "text",
                                "text": "Step 3. 3 days pass to allow them to submit"
                            }
                        ]
                    }
                ]
            }
        ]
    },
    {
        "client_msg_id": "0faeffd6-29ac-44eb-898d-0c91214b41b1",
        "type": "message",
        "text": "Step 4. The gates close, and a review panel assembled is invited \"especially\" to review the projects using this form or similar. We also invite the crowd and contacts to review as many projects as possible. :",
        "user": "UV0RRGB6H",
        "ts": "1584978629.005300",
        "team": "TUU48M0T1",
        "user_team": "TUU48M0T1",
        "source_team": "TUU48M0T1",
        "user_profile": {
            "avatar_hash": "48d4ab64c90c",
            "image_72": "https:\/\/avatars.slack-edge.com\/2020-03-26\/1029789176912_48d4ab64c90c03f3af4a_72.jpg",
            "first_name": "",
            "real_name": "Chris LB Graham",
            "display_name": "",
            "team": "TUU48M0T1",
            "name": "chris.graham",
            "is_restricted": false,
            "is_ultra_restricted": false
        },
        "edited": {
            "user": "UV0RRGB6H",
            "ts": "1584978946.000000"
        },
        "blocks": [
            {
                "type": "rich_text",
                "block_id": "JU9c",
                "elements": [
                    {
                        "type": "rich_text_section",
                        "elements": [
                            {
                                "type": "text",
                                "text": "Step 4. The gates close, and a review panel assembled is invited \"especially\" to review the projects using this form or similar. We also invite the crowd and contacts to review as many projects as possible. :"
                            }
                        ]
                    }
                ]
            }
        ]
    },
    {
        "client_msg_id": "d945a502-1095-4a69-974e-e99a705045e0",
        "type": "message",
        "text": "<https:\/\/docs.google.com\/forms\/d\/11_35Exnur2KCVIyqt_wWonKSriS-D0zE42hdZpATS4U\/edit?usp=sharing>",
        "user": "UV0RRGB6H",
        "ts": "1584978799.005500",
        "team": "TUU48M0T1",
        "user_team": "TUU48M0T1",
        "source_team": "TUU48M0T1",
        "user_profile": {
            "avatar_hash": "48d4ab64c90c",
            "image_72": "https:\/\/avatars.slack-edge.com\/2020-03-26\/1029789176912_48d4ab64c90c03f3af4a_72.jpg",
            "first_name": "",
            "real_name": "Chris LB Graham",
            "display_name": "",
            "team": "TUU48M0T1",
            "name": "chris.graham",
            "is_restricted": false,
            "is_ultra_restricted": false
        },
        "blocks": [
            {
                "type": "rich_text",
                "block_id": "4i9D",
                "elements": [
                    {
                        "type": "rich_text_section",
                        "elements": [
                            {
                                "type": "link",
                                "url": "https:\/\/docs.google.com\/forms\/d\/11_35Exnur2KCVIyqt_wWonKSriS-D0zE42hdZpATS4U\/edit?usp=sharing"
                            }
                        ]
                    }
                ]
            }
        ]
    },
    {
        "client_msg_id": "c0497d73-cc29-4b83-acc3-0b2df8edfd4f",
        "type": "message",
        "text": "Step 5: These reviews are collated and analysed by various parameters such as in this document:",
        "user": "UV0RRGB6H",
        "ts": "1584978821.006100",
        "team": "TUU48M0T1",
        "user_team": "TUU48M0T1",
        "source_team": "TUU48M0T1",
        "user_profile": {
            "avatar_hash": "48d4ab64c90c",
            "image_72": "https:\/\/avatars.slack-edge.com\/2020-03-26\/1029789176912_48d4ab64c90c03f3af4a_72.jpg",
            "first_name": "",
            "real_name": "Chris LB Graham",
            "display_name": "",
            "team": "TUU48M0T1",
            "name": "chris.graham",
            "is_restricted": false,
            "is_ultra_restricted": false
        },
        "blocks": [
            {
                "type": "rich_text",
                "block_id": "lnV",
                "elements": [
                    {
                        "type": "rich_text_section",
                        "elements": [
                            {
                                "type": "text",
                                "text": "Step 5: These reviews are collated and analysed by various parameters such as in this document:"
                            }
                        ]
                    }
                ]
            }
        ]
    },
    {
        "client_msg_id": "da7fdd71-1e3c-48b2-b017-36937833d22d",
        "type": "message",
        "text": "Step 6: The final decisions are made based on the needs, and stats presented- along with red flags found in the responses by an admin team.",
        "user": "UV0RRGB6H",
        "ts": "1584978903.006900",
        "team": "TUU48M0T1",
        "user_team": "TUU48M0T1",
        "source_team": "TUU48M0T1",
        "user_profile": {
            "avatar_hash": "48d4ab64c90c",
            "image_72": "https:\/\/avatars.slack-edge.com\/2020-03-26\/1029789176912_48d4ab64c90c03f3af4a_72.jpg",
            "first_name": "",
            "real_name": "Chris LB Graham",
            "display_name": "",
            "team": "TUU48M0T1",
            "name": "chris.graham",
            "is_restricted": false,
            "is_ultra_restricted": false
        },
        "blocks": [
            {
                "type": "rich_text",
                "block_id": "pISE",
                "elements": [
                    {
                        "type": "rich_text_section",
                        "elements": [
                            {
                                "type": "text",
                                "text": "Step 6: The final decisions are made based on the needs, and stats presented- along with red flags found in the responses by an admin team."
                            }
                        ]
                    }
                ]
            }
        ]
    },
    {
        "client_msg_id": "7355e5b6-75e7-426e-8bee-c45cce552f77",
        "type": "message",
        "text": "This is all very improvised and not software based but its how we have done the proposals so far. I think you could maybe change this to a software thing?",
        "user": "UV0RRGB6H",
        "ts": "1584978922.007400",
        "team": "TUU48M0T1",
        "user_team": "TUU48M0T1",
        "source_team": "TUU48M0T1",
        "user_profile": {
            "avatar_hash": "48d4ab64c90c",
            "image_72": "https:\/\/avatars.slack-edge.com\/2020-03-26\/1029789176912_48d4ab64c90c03f3af4a_72.jpg",
            "first_name": "",
            "real_name": "Chris LB Graham",
            "display_name": "",
            "team": "TUU48M0T1",
            "name": "chris.graham",
            "is_restricted": false,
            "is_ultra_restricted": false
        },
        "edited": {
            "user": "UV0RRGB6H",
            "ts": "1584980206.000000"
        },
        "blocks": [
            {
                "type": "rich_text",
                "block_id": "kzmi",
                "elements": [
                    {
                        "type": "rich_text_section",
                        "elements": [
                            {
                                "type": "text",
                                "text": "This is all very improvised and not software based but its how we have done the proposals so far. I think you could maybe change this to a software thing?"
                            }
                        ]
                    }
                ]
            }
        ]
    },
    {
        "type": "message",
        "text": "",
        "files": [
            {
                "id": "F010KM3EM2L",
                "created": 1584978851,
                "timestamp": 1584978851,
                "name": "Helpful Engineering Wave 1 peer review.pdf",
                "title": "Helpful Engineering Wave 1 peer review.pdf",
                "mimetype": "application\/pdf",
                "filetype": "pdf",
                "pretty_type": "PDF",
                "user": "UV0RRGB6H",
                "editable": false,
                "size": 12663090,
                "mode": "hosted",
                "is_external": false,
                "external_type": "",
                "is_public": true,
                "public_url_shared": false,
                "display_as_bot": false,
                "username": "",
                "url_private": "https:\/\/files.slack.com\/files-pri\/TUU48M0T1-F010KM3EM2L\/helpful_engineering_wave_1_peer_review.pdf?t=xoxe-980144714919-1031585465028-1034106672247-1815eabca44f30d1d2d966083f8c8bbb",
                "url_private_download": "https:\/\/files.slack.com\/files-pri\/TUU48M0T1-F010KM3EM2L\/download\/helpful_engineering_wave_1_peer_review.pdf?t=xoxe-980144714919-1031585465028-1034106672247-1815eabca44f30d1d2d966083f8c8bbb",
                "thumb_pdf": "https:\/\/files.slack.com\/files-tmb\/TUU48M0T1-F010KM3EM2L-51da4c66af\/helpful_engineering_wave_1_peer_review_thumb_pdf.png?t=xoxe-980144714919-1031585465028-1034106672247-1815eabca44f30d1d2d966083f8c8bbb",
                "thumb_pdf_w": 1467,
                "thumb_pdf_h": 825,
                "permalink": "https:\/\/open-covid19.slack.com\/files\/UV0RRGB6H\/F010KM3EM2L\/helpful_engineering_wave_1_peer_review.pdf",
                "permalink_public": "https:\/\/slack-files.com\/TUU48M0T1-F010KM3EM2L-b183d8f42d",
                "is_starred": false,
                "has_rich_preview": false
            }
        ],
        "upload": true,
        "user": "UV0RRGB6H",
        "display_as_bot": false,
        "ts": "1584979537.007900",
        "client_msg_id": "9473b62f-5792-4fd1-a41b-db8e4cf673a7",
        "reactions": [
            {
                "name": "first_place_medal",
                "users": [
                    "UV87UQ37A",
                    "UV0QTJCMT"
                ],
                "count": 2
            }
        ]
    },
    {
        "client_msg_id": "16D222EF-4814-41EE-904F-7CC96D19F9D5",
        "type": "message",
        "text": "<@UV0RRGB6H> thanks for sharing this! we could probably adapt some of this to work for the micro grant distribution process. ",
        "user": "UV0QTJCMT",
        "ts": "1584981876.009200",
        "team": "TUU48M0T1",
        "user_team": "TUU48M0T1",
        "source_team": "TUU48M0T1",
        "user_profile": {
            "avatar_hash": "11e3deb6d1a9",
            "image_72": "https:\/\/avatars.slack-edge.com\/2020-03-06\/986844736421_11e3deb6d1a949327ddd_72.png",
            "first_name": "Katherine",
            "real_name": "Katherine Holo",
            "display_name": "Kat Holo",
            "team": "TUU48M0T1",
            "name": "katherineh245",
            "is_restricted": false,
            "is_ultra_restricted": false
        },
        "blocks": [
            {
                "type": "rich_text",
                "block_id": "GRuN",
                "elements": [
                    {
                        "type": "rich_text_section",
                        "elements": [
                            {
                                "type": "user",
                                "user_id": "UV0RRGB6H"
                            },
                            {
                                "type": "text",
                                "text": " thanks for sharing this! we could probably adapt some of this to work for the micro grant distribution process. "
                            }
                        ]
                    }
                ]
            }
        ],
        "thread_ts": "1584981876.009200",
        "reply_count": 1,
        "reply_users_count": 1,
        "latest_reply": "1584982389.009300",
        "reply_users": [
            "UV0RRGB6H"
        ],
        "replies": [
            {
                "user": "UV0RRGB6H",
                "ts": "1584982389.009300"
            }
        ],
        "subscribed": false
    },
    {
        "client_msg_id": "7e3ceb97-f080-45ec-95dc-8832371c1876",
        "type": "message",
        "text": "exactly! Im also available to help if needed. This is something im very interested in pushing",
        "user": "UV0RRGB6H",
        "ts": "1584982389.009300",
        "team": "TUU48M0T1",
        "user_team": "TUU48M0T1",
        "source_team": "TUU48M0T1",
        "user_profile": {
            "avatar_hash": "48d4ab64c90c",
            "image_72": "https:\/\/avatars.slack-edge.com\/2020-03-26\/1029789176912_48d4ab64c90c03f3af4a_72.jpg",
            "first_name": "",
            "real_name": "Chris LB Graham",
            "display_name": "",
            "team": "TUU48M0T1",
            "name": "chris.graham",
            "is_restricted": false,
            "is_ultra_restricted": false
        },
        "blocks": [
            {
                "type": "rich_text",
                "block_id": "06kE",
                "elements": [
                    {
                        "type": "rich_text_section",
                        "elements": [
                            {
                                "type": "text",
                                "text": "exactly! Im also available to help if needed. This is something im very interested in pushing"
                            }
                        ]
                    }
                ]
            }
        ],
        "thread_ts": "1584981876.009200",
        "parent_user_id": "UV0QTJCMT",
        "reactions": [
            {
                "name": "+1",
                "users": [
                    "UV0QTJCMT",
                    "UV02WET96"
                ],
                "count": 2
            }
        ]
    },
    {
        "client_msg_id": "e406b49d-8ef9-4cfb-a7ef-459c644e8d49",
        "type": "message",
        "text": "Thanks a lot Chris!!!! :raised_hands:",
        "user": "UV02WET96",
        "ts": "1584983597.009800",
        "team": "TUU48M0T1",
        "user_team": "TUU48M0T1",
        "source_team": "TUU48M0T1",
        "user_profile": {
            "avatar_hash": "a99c74a194f8",
            "image_72": "https:\/\/avatars.slack-edge.com\/2020-03-07\/975708504851_a99c74a194f86715ca7d_72.png",
            "first_name": "Thomas",
            "real_name": "Thomas Landrain",
            "display_name": "Thomas Landrain - CoFounder\/CEO JOGL",
            "team": "TUU48M0T1",
            "name": "thomas",
            "is_restricted": false,
            "is_ultra_restricted": false
        },
        "blocks": [
            {
                "type": "rich_text",
                "block_id": "Adsd8",
                "elements": [
                    {
                        "type": "rich_text_section",
                        "elements": [
                            {
                                "type": "text",
                                "text": "Thanks a lot Chris!!!! "
                            },
                            {
                                "type": "emoji",
                                "name": "raised_hands"
                            }
                        ]
                    }
                ]
            }
        ]
    },
    {
        "type": "message",
        "subtype": "channel_join",
        "ts": "1584985430.010300",
        "user": "U010844MSBT",
        "text": "<@U010844MSBT> has joined the channel"
    },
    {
        "type": "message",
        "subtype": "channel_join",
        "ts": "1584986321.010500",
        "user": "U0103128G4D",
        "text": "<@U0103128G4D> has joined the channel"
    },
    {
        "type": "message",
        "subtype": "channel_join",
        "ts": "1584986452.010700",
        "user": "UV6870881",
        "text": "<@UV6870881> has joined the channel"
    },
    {
        "type": "message",
        "subtype": "channel_join",
        "ts": "1584986568.010900",
        "user": "U0102EQJKR6",
        "text": "<@U0102EQJKR6> has joined the channel"
    },
    {
        "type": "message",
        "subtype": "channel_join",
        "ts": "1584990851.011100",
        "user": "UVC9WMA7N",
        "text": "<@UVC9WMA7N> has joined the channel"
    },
    {
        "type": "message",
        "subtype": "channel_join",
        "ts": "1584991447.011300",
        "user": "UUVG81TD0",
        "text": "<@UUVG81TD0> has joined the channel"
    },
    {
        "type": "message",
        "subtype": "channel_join",
        "ts": "1584992927.011500",
        "user": "U010HTBUHS9",
        "text": "<@U010HTBUHS9> has joined the channel",
        "inviter": "UV02WET96"
    },
    {
        "type": "message",
        "subtype": "channel_join",
        "ts": "1584992943.011900",
        "user": "UV87UQ37A",
        "text": "<@UV87UQ37A> has joined the channel",
        "inviter": "UV02WET96"
    },
    {
        "type": "message",
        "subtype": "channel_join",
        "ts": "1584992947.012100",
        "user": "U01080CJ6P3",
        "text": "<@U01080CJ6P3> has joined the channel",
        "inviter": "UV02WET96"
    },
    {
        "type": "message",
        "subtype": "channel_join",
        "ts": "1584996909.012300",
        "user": "U0103SR759U",
        "text": "<@U0103SR759U> has joined the channel"
    },
    {
        "type": "message",
        "text": "I was able to get the application questions from a foundation and ask a few questions around process and put that together with the community evaluation suggested by Chris to get this party started. here's the doc -- you can copy whatever to wherever t he appropriate spot is, or use it. <https:\/\/docs.google.com\/document\/d\/1HgaBxOonuP3tA_T46AdE_UKFUmx24nwsG5UYlA-nbdc\/edit?usp=sharing>",
        "files": [
            {
                "id": "F0109FK3S83",
                "created": 1585005796,
                "timestamp": 1585005796,
                "name": "Open COVID19 Grant Application",
                "title": "Open COVID19 Grant Application",
                "mimetype": "application\/vnd.google-apps.document",
                "filetype": "gdoc",
                "pretty_type": "GSuite Document",
                "user": "UV87UQ37A",
                "editable": false,
                "size": 5900,
                "mode": "external",
                "is_external": true,
                "external_type": "gdrive",
                "is_public": true,
                "public_url_shared": false,
                "display_as_bot": false,
                "username": "",
                "url_private": "https:\/\/docs.google.com\/document\/d\/1HgaBxOonuP3tA_T46AdE_UKFUmx24nwsG5UYlA-nbdc\/edit?usp=sharing",
                "thumb_64": "https:\/\/files.slack.com\/files-tmb\/TUU48M0T1-F0109FK3S83-ba7d662af5\/open_covid19_grant_application_64.png?t=xoxe-980144714919-1031585465028-1034106672247-1815eabca44f30d1d2d966083f8c8bbb",
                "thumb_80": "https:\/\/files.slack.com\/files-tmb\/TUU48M0T1-F0109FK3S83-ba7d662af5\/open_covid19_grant_application_80.png?t=xoxe-980144714919-1031585465028-1034106672247-1815eabca44f30d1d2d966083f8c8bbb",
                "thumb_360": "https:\/\/files.slack.com\/files-tmb\/TUU48M0T1-F0109FK3S83-ba7d662af5\/open_covid19_grant_application_360.png?t=xoxe-980144714919-1031585465028-1034106672247-1815eabca44f30d1d2d966083f8c8bbb",
                "thumb_360_w": 278,
                "thumb_360_h": 360,
                "thumb_480": "https:\/\/files.slack.com\/files-tmb\/TUU48M0T1-F0109FK3S83-ba7d662af5\/open_covid19_grant_application_480.png?t=xoxe-980144714919-1031585465028-1034106672247-1815eabca44f30d1d2d966083f8c8bbb",
                "thumb_480_w": 371,
                "thumb_480_h": 480,
                "thumb_160": "https:\/\/files.slack.com\/files-tmb\/TUU48M0T1-F0109FK3S83-ba7d662af5\/open_covid19_grant_application_160.png?t=xoxe-980144714919-1031585465028-1034106672247-1815eabca44f30d1d2d966083f8c8bbb",
                "thumb_720": "https:\/\/files.slack.com\/files-tmb\/TUU48M0T1-F0109FK3S83-ba7d662af5\/open_covid19_grant_application_720.png?t=xoxe-980144714919-1031585465028-1034106672247-1815eabca44f30d1d2d966083f8c8bbb",
                "thumb_720_w": 557,
                "thumb_720_h": 720,
                "thumb_800": "https:\/\/files.slack.com\/files-tmb\/TUU48M0T1-F0109FK3S83-ba7d662af5\/open_covid19_grant_application_800.png?t=xoxe-980144714919-1031585465028-1034106672247-1815eabca44f30d1d2d966083f8c8bbb",
                "thumb_800_w": 800,
                "thumb_800_h": 1035,
                "thumb_960": "https:\/\/files.slack.com\/files-tmb\/TUU48M0T1-F0109FK3S83-ba7d662af5\/open_covid19_grant_application_960.png?t=xoxe-980144714919-1031585465028-1034106672247-1815eabca44f30d1d2d966083f8c8bbb",
                "thumb_960_w": 742,
                "thumb_960_h": 960,
                "thumb_1024": "https:\/\/files.slack.com\/files-tmb\/TUU48M0T1-F0109FK3S83-ba7d662af5\/open_covid19_grant_application_1024.png?t=xoxe-980144714919-1031585465028-1034106672247-1815eabca44f30d1d2d966083f8c8bbb",
                "thumb_1024_w": 791,
                "thumb_1024_h": 1024,
                "image_exif_rotation": 1,
                "original_w": 800,
                "original_h": 1035,
                "thumb_tiny": "AwAwACXSzRn2pO9H4UAKDS00ewNHPvQA6igUUANJOegpQfXFIevajb9KAHcdqKTHsKMewoAWiiigBhOD3\/OnA5FNbr0pVoAdRRRQAUUUUAf\/2Q==",
                "permalink": "https:\/\/open-covid19.slack.com\/files\/UV87UQ37A\/F0109FK3S83\/open_covid19_grant_application",
                "is_starred": false,
                "external_id": "1HgaBxOonuP3tA_T46AdE_UKFUmx24nwsG5UYlA-nbdc",
                "external_url": "https:\/\/docs.google.com\/document\/d\/1HgaBxOonuP3tA_T46AdE_UKFUmx24nwsG5UYlA-nbdc\/edit?usp=sharing",
                "has_rich_preview": true
            }
        ],
        "upload": false,
        "blocks": [
            {
                "type": "rich_text",
                "block_id": "byr",
                "elements": [
                    {
                        "type": "rich_text_section",
                        "elements": [
                            {
                                "type": "text",
                                "text": "I was able to get the application questions from a foundation and ask a few questions around process and put that together with the community evaluation suggested by Chris to get this party started. here's the doc -- you can copy whatever to wherever t he appropriate spot is, or use it. "
                            },
                            {
                                "type": "link",
                                "url": "https:\/\/docs.google.com\/document\/d\/1HgaBxOonuP3tA_T46AdE_UKFUmx24nwsG5UYlA-nbdc\/edit?usp=sharing"
                            }
                        ]
                    }
                ]
            }
        ],
        "user": "UV87UQ37A",
        "display_as_bot": false,
        "x_files": [
            "F0109FK3S83"
        ],
        "ts": "1585005794.014000",
        "client_msg_id": "df2f255d-56c2-4ffc-a465-a05e450d51a4",
        "thread_ts": "1585005794.014000",
        "reply_count": 23,
        "reply_users_count": 2,
        "latest_reply": "1585070237.032800",
        "reply_users": [
            "UV0RRGB6H",
            "UV87UQ37A"
        ],
        "replies": [
            {
                "user": "UV0RRGB6H",
                "ts": "1585046188.014800"
            },
            {
                "user": "UV87UQ37A",
                "ts": "1585069747.028200"
            },
            {
                "user": "UV0RRGB6H",
                "ts": "1585069793.028400"
            },
            {
                "user": "UV0RRGB6H",
                "ts": "1585069797.028600"
            },
            {
                "user": "UV87UQ37A",
                "ts": "1585069806.028800"
            },
            {
                "user": "UV87UQ37A",
                "ts": "1585069838.029000"
            },
            {
                "user": "UV87UQ37A",
                "ts": "1585069855.029200"
            },
            {
                "user": "UV87UQ37A",
                "ts": "1585069889.029400"
            },
            {
                "user": "UV87UQ37A",
                "ts": "1585069930.029600"
            },
            {
                "user": "UV87UQ37A",
                "ts": "1585069957.029800"
            },
            {
                "user": "UV87UQ37A",
                "ts": "1585069976.030000"
            },
            {
                "user": "UV0RRGB6H",
                "ts": "1585069979.030200"
            },
            {
                "user": "UV0RRGB6H",
                "ts": "1585070005.030400"
            },
            {
                "user": "UV0RRGB6H",
                "ts": "1585070017.030600"
            },
            {
                "user": "UV0RRGB6H",
                "ts": "1585070031.030800"
            },
            {
                "user": "UV0RRGB6H",
                "ts": "1585070052.031000"
            },
            {
                "user": "UV87UQ37A",
                "ts": "1585070058.031200"
            },
            {
                "user": "UV87UQ37A",
                "ts": "1585070066.031400"
            },
            {
                "user": "UV87UQ37A",
                "ts": "1585070142.031600"
            },
            {
                "user": "UV87UQ37A",
                "ts": "1585070151.032200"
            },
            {
                "user": "UV87UQ37A",
                "ts": "1585070156.032400"
            },
            {
                "user": "UV87UQ37A",
                "ts": "1585070208.032600"
            },
            {
                "user": "UV0RRGB6H",
                "ts": "1585070237.032800"
            }
        ],
        "subscribed": false
    }
]