[
    {
        "type": "message",
        "subtype": "channel_join",
        "ts": "1584494595.000200",
        "user": "UV78JAX0S",
        "text": "<@UV78JAX0S> has joined the channel"
    },
    {
        "type": "message",
        "subtype": "channel_purpose",
        "ts": "1584494596.000300",
        "user": "UV78JAX0S",
        "text": "<@UV78JAX0S> set the channel purpose: For detection projects using aptamers",
        "purpose": "For detection projects using aptamers"
    },
    {
        "type": "message",
        "subtype": "channel_join",
        "ts": "1584494717.001000",
        "user": "UUPFF4TC3",
        "text": "<@UUPFF4TC3> has joined the channel"
    },
    {
        "client_msg_id": "974f4379-bb3f-4a79-8fcf-dff10d51128a",
        "type": "message",
        "text": "Hello everyone who will eventually join this channel. I'm Khalid and did my PhD in biochemistry at the University of Missouri, where I worked in Donald Burke's lab evolving and engineering aptamers.",
        "user": "UV78JAX0S",
        "ts": "1584494740.001900",
        "team": "TUU48M0T1",
        "user_team": "TUU48M0T1",
        "source_team": "TUU48M0T1",
        "user_profile": {
            "avatar_hash": "ab643489965e",
            "image_72": "https:\/\/avatars.slack-edge.com\/2020-03-17\/996174739571_ab643489965e0031c49d_72.png",
            "first_name": "Khalid",
            "real_name": "Khalid K. Alam",
            "display_name": "Khalid K. Alam",
            "team": "TUU48M0T1",
            "name": "khalid",
            "is_restricted": false,
            "is_ultra_restricted": false
        },
        "blocks": [
            {
                "type": "rich_text",
                "block_id": "+B=",
                "elements": [
                    {
                        "type": "rich_text_section",
                        "elements": [
                            {
                                "type": "text",
                                "text": "Hello everyone who will eventually join this channel. I'm Khalid and did my PhD in biochemistry at the University of Missouri, where I worked in Donald Burke's lab evolving and engineering aptamers."
                            }
                        ]
                    }
                ]
            }
        ]
    },
    {
        "type": "message",
        "subtype": "channel_join",
        "ts": "1584494743.002200",
        "user": "U0103128G4D",
        "text": "<@U0103128G4D> has joined the channel"
    },
    {
        "client_msg_id": "be659d7d-df4c-462f-a0a1-b59c2353de31",
        "type": "message",
        "text": "I worked on cell-surface aptamers, fluorescent light up aptamers, and HIV RT inhibitor-aptamers",
        "user": "UV78JAX0S",
        "ts": "1584494770.003600",
        "team": "TUU48M0T1",
        "user_team": "TUU48M0T1",
        "source_team": "TUU48M0T1",
        "user_profile": {
            "avatar_hash": "ab643489965e",
            "image_72": "https:\/\/avatars.slack-edge.com\/2020-03-17\/996174739571_ab643489965e0031c49d_72.png",
            "first_name": "Khalid",
            "real_name": "Khalid K. Alam",
            "display_name": "Khalid K. Alam",
            "team": "TUU48M0T1",
            "name": "khalid",
            "is_restricted": false,
            "is_ultra_restricted": false
        },
        "blocks": [
            {
                "type": "rich_text",
                "block_id": "sf5",
                "elements": [
                    {
                        "type": "rich_text_section",
                        "elements": [
                            {
                                "type": "text",
                                "text": "I worked on cell-surface aptamers, fluorescent light up aptamers, and HIV RT inhibitor-aptamers"
                            }
                        ]
                    }
                ]
            }
        ],
        "reactions": [
            {
                "name": "100",
                "users": [
                    "UUPFF4TC3",
                    "UV3URUKK5"
                ],
                "count": 2
            }
        ]
    },
    {
        "client_msg_id": "06327332-4bf2-4552-b302-3a83dd8b2534",
        "type": "message",
        "text": "continued my postdoc training at Northwestern where I started building cell-free biosensors with aptamer outputs and circuits!",
        "user": "UV78JAX0S",
        "ts": "1584494800.004400",
        "team": "TUU48M0T1",
        "user_team": "TUU48M0T1",
        "source_team": "TUU48M0T1",
        "user_profile": {
            "avatar_hash": "ab643489965e",
            "image_72": "https:\/\/avatars.slack-edge.com\/2020-03-17\/996174739571_ab643489965e0031c49d_72.png",
            "first_name": "Khalid",
            "real_name": "Khalid K. Alam",
            "display_name": "Khalid K. Alam",
            "team": "TUU48M0T1",
            "name": "khalid",
            "is_restricted": false,
            "is_ultra_restricted": false
        },
        "blocks": [
            {
                "type": "rich_text",
                "block_id": "SN7",
                "elements": [
                    {
                        "type": "rich_text_section",
                        "elements": [
                            {
                                "type": "text",
                                "text": "continued my postdoc training at Northwestern where I started building cell-free biosensors with aptamer outputs and circuits!"
                            }
                        ]
                    }
                ]
            }
        ]
    },
    {
        "type": "message",
        "subtype": "channel_join",
        "ts": "1584494826.004800",
        "user": "UV1CX069G",
        "text": "<@UV1CX069G> has joined the channel"
    },
    {
        "client_msg_id": "D6E58E29-0053-48F7-BCDB-75AE217CB94B",
        "type": "message",
        "text": "I’ve never worked on Aptamer development but I’ve been pretty interested in them after the 2019 iGEM conference. If we want to make aptamers we’d have to start with a library to do the SELEX process on. How does one design a library of aptamers?\n",
        "user": "UUPFF4TC3",
        "ts": "1584494869.005800",
        "team": "TUU48M0T1",
        "user_team": "TUU48M0T1",
        "source_team": "TUU48M0T1",
        "user_profile": {
            "avatar_hash": "g563e1ed9e36",
            "image_72": "https:\/\/secure.gravatar.com\/avatar\/563e1ed9e362af0ce5867baad4d7c568.jpg?s=72&d=https%3A%2F%2Fa.slack-edge.com%2Fdf10d%2Fimg%2Favatars%2Fava_0007-72.png",
            "first_name": "Sophie",
            "real_name": "Sophie Liu",
            "display_name": "Sophie Liu",
            "team": "TUU48M0T1",
            "name": "sophie006liu",
            "is_restricted": false,
            "is_ultra_restricted": false
        },
        "blocks": [
            {
                "type": "rich_text",
                "block_id": "5V=ZH",
                "elements": [
                    {
                        "type": "rich_text_section",
                        "elements": [
                            {
                                "type": "text",
                                "text": "I’ve never worked on Aptamer development but I’ve been pretty interested in them after the 2019 iGEM conference. If we want to make aptamers we’d have to start with a library to do the SELEX process on. How does one design a library of aptamers?\n"
                            }
                        ]
                    }
                ]
            }
        ],
        "thread_ts": "1584494869.005800",
        "reply_count": 2,
        "reply_users_count": 1,
        "latest_reply": "1584499032.000700",
        "reply_users": [
            "UV78JAX0S"
        ],
        "replies": [
            {
                "user": "UV78JAX0S",
                "ts": "1584498978.000500"
            },
            {
                "user": "UV78JAX0S",
                "ts": "1584499032.000700"
            }
        ],
        "subscribed": false
    },
    {
        "type": "message",
        "subtype": "channel_join",
        "ts": "1584494884.006000",
        "user": "UV6870881",
        "text": "<@UV6870881> has joined the channel"
    },
    {
        "client_msg_id": "1058BC2A-43FB-4381-9710-22B47B125D22",
        "type": "message",
        "text": "I’ve seen some papers that use aptamers to detect other coronaviruses though.",
        "user": "UUPFF4TC3",
        "ts": "1584494984.009300",
        "team": "TUU48M0T1",
        "user_team": "TUU48M0T1",
        "source_team": "TUU48M0T1",
        "user_profile": {
            "avatar_hash": "g563e1ed9e36",
            "image_72": "https:\/\/secure.gravatar.com\/avatar\/563e1ed9e362af0ce5867baad4d7c568.jpg?s=72&d=https%3A%2F%2Fa.slack-edge.com%2Fdf10d%2Fimg%2Favatars%2Fava_0007-72.png",
            "first_name": "Sophie",
            "real_name": "Sophie Liu",
            "display_name": "Sophie Liu",
            "team": "TUU48M0T1",
            "name": "sophie006liu",
            "is_restricted": false,
            "is_ultra_restricted": false
        },
        "blocks": [
            {
                "type": "rich_text",
                "block_id": "Ufzz",
                "elements": [
                    {
                        "type": "rich_text_section",
                        "elements": [
                            {
                                "type": "text",
                                "text": "I’ve seen some papers that use aptamers to detect other coronaviruses though."
                            }
                        ]
                    }
                ]
            }
        ],
        "thread_ts": "1584494984.009300",
        "reply_count": 4,
        "reply_users_count": 2,
        "latest_reply": "1584502163.001800",
        "reply_users": [
            "UV78JAX0S",
            "UV20M5HGQ"
        ],
        "replies": [
            {
                "user": "UV78JAX0S",
                "ts": "1584499082.001000"
            },
            {
                "user": "UV20M5HGQ",
                "ts": "1584501395.001300"
            },
            {
                "user": "UV20M5HGQ",
                "ts": "1584501557.001600"
            },
            {
                "user": "UV78JAX0S",
                "ts": "1584502163.001800"
            }
        ],
        "subscribed": false
    },
    {
        "client_msg_id": "2ce76ff1-7228-42f2-9cd8-dea02664afa4",
        "type": "message",
        "text": "Hello Khalid do u have access to a lab? Can u help prototype an aptamer based test for detecting Covid? It would help to know what u have access to and how much u want to be involved in developin prototypes. We have a design for example for a paper based and a microfluidics test, but don't have access to a lab to do a selex to find an aptamer for covid, can u help with that?",
        "user": "UV6870881",
        "ts": "1584495046.011100",
        "team": "TUU48M0T1",
        "user_team": "TUU48M0T1",
        "source_team": "TUU48M0T1",
        "user_profile": {
            "avatar_hash": "gbbbbcc3accd",
            "image_72": "https:\/\/secure.gravatar.com\/avatar\/bbbbcc3accdddb02dfb1c03a4a65b994.jpg?s=72&d=https%3A%2F%2Fa.slack-edge.com%2Fdf10d%2Fimg%2Favatars%2Fava_0011-72.png",
            "first_name": "Quant",
            "real_name": "Quant",
            "display_name": "",
            "team": "TUU48M0T1",
            "name": "admin",
            "is_restricted": false,
            "is_ultra_restricted": false
        },
        "blocks": [
            {
                "type": "rich_text",
                "block_id": "JDBW",
                "elements": [
                    {
                        "type": "rich_text_section",
                        "elements": [
                            {
                                "type": "text",
                                "text": "Hello Khalid do u have access to a lab? Can u help prototype an aptamer based test for detecting Covid? It would help to know what u have access to and how much u want to be involved in developin prototypes. We have a design for example for a paper based and a microfluidics test, but don't have access to a lab to do a selex to find an aptamer for covid, can u help with that?"
                            }
                        ]
                    }
                ]
            }
        ],
        "thread_ts": "1584495046.011100",
        "reply_count": 5,
        "reply_users_count": 2,
        "latest_reply": "1584497148.018100",
        "reply_users": [
            "UV78JAX0S",
            "UV6870881"
        ],
        "replies": [
            {
                "user": "UV78JAX0S",
                "ts": "1584495504.014300"
            },
            {
                "user": "UV78JAX0S",
                "ts": "1584495571.015800"
            },
            {
                "user": "UV6870881",
                "ts": "1584496433.016300"
            },
            {
                "user": "UV78JAX0S",
                "ts": "1584497106.016600"
            },
            {
                "user": "UV78JAX0S",
                "ts": "1584497148.018100"
            }
        ],
        "subscribed": false
    },
    {
        "type": "message",
        "subtype": "channel_join",
        "ts": "1584495126.011300",
        "user": "UV2SC7ZE3",
        "text": "<@UV2SC7ZE3> has joined the channel"
    },
    {
        "client_msg_id": "A56E7760-3F77-4BC5-AB65-59A6530FDB01",
        "type": "message",
        "text": "I run a company that’s incubating at Argonne National Laboratory, just outside of Chicago. I have been independently thinking about aptamers to COVID, but not sure if I’ll go that direction or a different route. Happy to brainstorm and guide everyone as best as I can. I’ll have limited\/no ability to do lab work outside of company activities (per agreement with Argonne). ",
        "user": "UV78JAX0S",
        "ts": "1584495504.014300",
        "team": "TUU48M0T1",
        "user_team": "TUU48M0T1",
        "source_team": "TUU48M0T1",
        "user_profile": {
            "avatar_hash": "ab643489965e",
            "image_72": "https:\/\/avatars.slack-edge.com\/2020-03-17\/996174739571_ab643489965e0031c49d_72.png",
            "first_name": "Khalid",
            "real_name": "Khalid K. Alam",
            "display_name": "Khalid K. Alam",
            "team": "TUU48M0T1",
            "name": "khalid",
            "is_restricted": false,
            "is_ultra_restricted": false
        },
        "blocks": [
            {
                "type": "rich_text",
                "block_id": "PM8",
                "elements": [
                    {
                        "type": "rich_text_section",
                        "elements": [
                            {
                                "type": "text",
                                "text": "I run a company that’s incubating at Argonne National Laboratory, just outside of Chicago. I have been independently thinking about aptamers to COVID, but not sure if I’ll go that direction or a different route. Happy to brainstorm and guide everyone as best as I can. I’ll have limited\/no ability to do lab work outside of company activities (per agreement with Argonne). "
                            }
                        ]
                    }
                ]
            }
        ],
        "thread_ts": "1584495046.011100",
        "parent_user_id": "UV6870881"
    },
    {
        "client_msg_id": "118D954A-0FF2-4D78-9A3E-E3C9D8C3273D",
        "type": "message",
        "text": "For full context I have been developing cell free biosensors for heavy metal detection (in water). We’ve been developing paper microfluidic platforms to embed these sensors in.",
        "user": "UV78JAX0S",
        "ts": "1584495571.015800",
        "team": "TUU48M0T1",
        "user_team": "TUU48M0T1",
        "source_team": "TUU48M0T1",
        "user_profile": {
            "avatar_hash": "ab643489965e",
            "image_72": "https:\/\/avatars.slack-edge.com\/2020-03-17\/996174739571_ab643489965e0031c49d_72.png",
            "first_name": "Khalid",
            "real_name": "Khalid K. Alam",
            "display_name": "Khalid K. Alam",
            "team": "TUU48M0T1",
            "name": "khalid",
            "is_restricted": false,
            "is_ultra_restricted": false
        },
        "blocks": [
            {
                "type": "rich_text",
                "block_id": "Ghnp",
                "elements": [
                    {
                        "type": "rich_text_section",
                        "elements": [
                            {
                                "type": "text",
                                "text": "For full context I have been developing cell free biosensors for heavy metal detection (in water). We’ve been developing paper microfluidic platforms to embed these sensors in."
                            }
                        ]
                    }
                ]
            }
        ],
        "thread_ts": "1584495046.011100",
        "parent_user_id": "UV6870881"
    },
    {
        "client_msg_id": "41992c2a-5da1-4ff4-a7a0-243323631cff",
        "type": "message",
        "text": "Niiice! Thats amazing any research published on this i can read? As fpr being involved in a company i understand no worries man, help as much as you are allowed\/can :)",
        "user": "UV6870881",
        "ts": "1584496433.016300",
        "team": "TUU48M0T1",
        "user_team": "TUU48M0T1",
        "source_team": "TUU48M0T1",
        "user_profile": {
            "avatar_hash": "gbbbbcc3accd",
            "image_72": "https:\/\/secure.gravatar.com\/avatar\/bbbbcc3accdddb02dfb1c03a4a65b994.jpg?s=72&d=https%3A%2F%2Fa.slack-edge.com%2Fdf10d%2Fimg%2Favatars%2Fava_0011-72.png",
            "first_name": "Quant",
            "real_name": "Quant",
            "display_name": "",
            "team": "TUU48M0T1",
            "name": "admin",
            "is_restricted": false,
            "is_ultra_restricted": false
        },
        "blocks": [
            {
                "type": "rich_text",
                "block_id": "jgv",
                "elements": [
                    {
                        "type": "rich_text_section",
                        "elements": [
                            {
                                "type": "text",
                                "text": "Niiice! Thats amazing any research published on this i can read? As fpr being involved in a company i understand no worries man, help as much as you are allowed\/can :)"
                            }
                        ]
                    }
                ]
            }
        ],
        "thread_ts": "1584495046.011100",
        "parent_user_id": "UV6870881"
    },
    {
        "client_msg_id": "E88BE405-BD8E-48B1-A712-E2675FDA4E09",
        "type": "message",
        "text": "<http:\/\/scholar.google.com\/citations?user=0_SxBnUAAAAJ&amp;hl=en|http:\/\/scholar.google.com\/citations?user=0_SxBnUAAAAJ&amp;hl=en>",
        "user": "UV78JAX0S",
        "ts": "1584497106.016600",
        "team": "TUU48M0T1",
        "user_team": "TUU48M0T1",
        "source_team": "TUU48M0T1",
        "user_profile": {
            "avatar_hash": "ab643489965e",
            "image_72": "https:\/\/avatars.slack-edge.com\/2020-03-17\/996174739571_ab643489965e0031c49d_72.png",
            "first_name": "Khalid",
            "real_name": "Khalid K. Alam",
            "display_name": "Khalid K. Alam",
            "team": "TUU48M0T1",
            "name": "khalid",
            "is_restricted": false,
            "is_ultra_restricted": false
        },
        "blocks": [
            {
                "type": "rich_text",
                "block_id": "H3oW",
                "elements": [
                    {
                        "type": "rich_text_section",
                        "elements": [
                            {
                                "type": "link",
                                "url": "http:\/\/scholar.google.com\/citations?user=0_SxBnUAAAAJ&hl=en",
                                "text": "http:\/\/scholar.google.com\/citations?user=0_SxBnUAAAAJ&hl=en"
                            }
                        ]
                    }
                ]
            }
        ],
        "thread_ts": "1584495046.011100",
        "parent_user_id": "UV6870881"
    },
    {
        "client_msg_id": "5686A02D-F8AD-43CD-814B-9F079767F770",
        "type": "message",
        "text": "Happy to provide copies if you need access! Have worked hard to make sure most of my work is published open access and\/or available as preprint.",
        "user": "UV78JAX0S",
        "ts": "1584497148.018100",
        "team": "TUU48M0T1",
        "user_team": "TUU48M0T1",
        "source_team": "TUU48M0T1",
        "user_profile": {
            "avatar_hash": "ab643489965e",
            "image_72": "https:\/\/avatars.slack-edge.com\/2020-03-17\/996174739571_ab643489965e0031c49d_72.png",
            "first_name": "Khalid",
            "real_name": "Khalid K. Alam",
            "display_name": "Khalid K. Alam",
            "team": "TUU48M0T1",
            "name": "khalid",
            "is_restricted": false,
            "is_ultra_restricted": false
        },
        "blocks": [
            {
                "type": "rich_text",
                "block_id": "yTpDR",
                "elements": [
                    {
                        "type": "rich_text_section",
                        "elements": [
                            {
                                "type": "text",
                                "text": "Happy to provide copies if you need access! Have worked hard to make sure most of my work is published open access and\/or available as preprint."
                            }
                        ]
                    }
                ]
            }
        ],
        "thread_ts": "1584495046.011100",
        "parent_user_id": "UV6870881"
    },
    {
        "type": "message",
        "subtype": "channel_join",
        "ts": "1584498771.000200",
        "user": "UV20M5HGQ",
        "text": "<@UV20M5HGQ> has joined the channel"
    },
    {
        "type": "message",
        "subtype": "channel_join",
        "ts": "1584498863.000400",
        "user": "UUPF597H9",
        "text": "<@UUPF597H9> has joined the channel"
    },
    {
        "client_msg_id": "50fb1056-6f1c-4c87-b31e-6c8c673f167f",
        "type": "message",
        "text": "first decision is DNA or RNA aptamer.\n\nIf DNA it's pretty simple... design a 5' and 3' constant region with a randomized region in between, then order the ssDNA from IDT.\n\nIf it's RNA you'll order a similar ssDNA template, but will also need to include a T7 promoter, either in the ssDNA template, or in the complement strand that you create when making a dsDNA template for transcription.",
        "user": "UV78JAX0S",
        "ts": "1584498978.000500",
        "team": "TUU48M0T1",
        "user_team": "TUU48M0T1",
        "source_team": "TUU48M0T1",
        "user_profile": {
            "avatar_hash": "ab643489965e",
            "image_72": "https:\/\/avatars.slack-edge.com\/2020-03-17\/996174739571_ab643489965e0031c49d_72.png",
            "first_name": "Khalid",
            "real_name": "Khalid K. Alam",
            "display_name": "Khalid K. Alam",
            "team": "TUU48M0T1",
            "name": "khalid",
            "is_restricted": false,
            "is_ultra_restricted": false
        },
        "blocks": [
            {
                "type": "rich_text",
                "block_id": "HWJ",
                "elements": [
                    {
                        "type": "rich_text_section",
                        "elements": [
                            {
                                "type": "text",
                                "text": "first decision is DNA or RNA aptamer.\n\nIf DNA it's pretty simple... design a 5' and 3' constant region with a randomized region in between, then order the ssDNA from IDT.\n\nIf it's RNA you'll order a similar ssDNA template, but will also need to include a T7 promoter, either in the ssDNA template, or in the complement strand that you create when making a dsDNA template for transcription."
                            }
                        ]
                    }
                ]
            }
        ],
        "thread_ts": "1584494869.005800",
        "parent_user_id": "UUPFF4TC3"
    },
    {
        "client_msg_id": "7640154c-d358-4305-a6dd-ffaf25f843f4",
        "type": "message",
        "text": "I can dig up an old methods paper that does a good job of library design considerations. the constant regions will need to be designed so that they're good for primer binding, but don't introduce too much structure to the library (unless you want it).",
        "user": "UV78JAX0S",
        "ts": "1584499032.000700",
        "team": "TUU48M0T1",
        "user_team": "TUU48M0T1",
        "source_team": "TUU48M0T1",
        "user_profile": {
            "avatar_hash": "ab643489965e",
            "image_72": "https:\/\/avatars.slack-edge.com\/2020-03-17\/996174739571_ab643489965e0031c49d_72.png",
            "first_name": "Khalid",
            "real_name": "Khalid K. Alam",
            "display_name": "Khalid K. Alam",
            "team": "TUU48M0T1",
            "name": "khalid",
            "is_restricted": false,
            "is_ultra_restricted": false
        },
        "blocks": [
            {
                "type": "rich_text",
                "block_id": "eGr",
                "elements": [
                    {
                        "type": "rich_text_section",
                        "elements": [
                            {
                                "type": "text",
                                "text": "I can dig up an old methods paper that does a good job of library design considerations. the constant regions will need to be designed so that they're good for primer binding, but don't introduce too much structure to the library (unless you want it)."
                            }
                        ]
                    }
                ]
            }
        ],
        "thread_ts": "1584494869.005800",
        "parent_user_id": "UUPFF4TC3"
    },
    {
        "client_msg_id": "381b2412-c6c8-41d5-8b19-4c0fbe895af8",
        "type": "message",
        "text": "can you share a link? would love to see what's out there... going to guess that, like most aptamers, its not that great\/specific\/sensitive",
        "user": "UV78JAX0S",
        "ts": "1584499082.001000",
        "team": "TUU48M0T1",
        "user_team": "TUU48M0T1",
        "source_team": "TUU48M0T1",
        "user_profile": {
            "avatar_hash": "ab643489965e",
            "image_72": "https:\/\/avatars.slack-edge.com\/2020-03-17\/996174739571_ab643489965e0031c49d_72.png",
            "first_name": "Khalid",
            "real_name": "Khalid K. Alam",
            "display_name": "Khalid K. Alam",
            "team": "TUU48M0T1",
            "name": "khalid",
            "is_restricted": false,
            "is_ultra_restricted": false
        },
        "blocks": [
            {
                "type": "rich_text",
                "block_id": "WoN",
                "elements": [
                    {
                        "type": "rich_text_section",
                        "elements": [
                            {
                                "type": "text",
                                "text": "can you share a link? would love to see what's out there... going to guess that, like most aptamers, its not that great\/specific\/sensitive"
                            }
                        ]
                    }
                ]
            }
        ],
        "thread_ts": "1584494984.009300",
        "parent_user_id": "UUPFF4TC3"
    },
    {
        "client_msg_id": "fed1254a-9dba-464a-b66d-9bbd1c197ce5",
        "type": "message",
        "text": "Here's one paper titled: RNA aptamer-based sensitive detection of SARS coronavirus nucleocapsid protein <https:\/\/pubs.rsc.org\/en\/content\/articlelanding\/2009\/AN\/b906788d#!divAbstract>",
        "user": "UV20M5HGQ",
        "ts": "1584501395.001300",
        "team": "TUU48M0T1",
        "user_team": "TUU48M0T1",
        "source_team": "TUU48M0T1",
        "user_profile": {
            "avatar_hash": "de7ea7b7e14e",
            "image_72": "https:\/\/avatars.slack-edge.com\/2020-03-11\/981865374050_de7ea7b7e14e7b4316b9_72.jpg",
            "first_name": "",
            "real_name": "Vesta Korniakova",
            "display_name": "Vesta Korniakova",
            "team": "TUU48M0T1",
            "name": "riboswitchvesta",
            "is_restricted": false,
            "is_ultra_restricted": false
        },
        "attachments": [
            {
                "title": "              RNA aptamer-based sensitive detection of SARS coronavirus nucleocapsid protein - Analyst (RSC Publishing)      ",
                "title_link": "https:\/\/pubs.rsc.org\/en\/content\/articlelanding\/2009\/AN\/b906788d#!divAbstract",
                "text": "Severe acute respiratory syndrome coronavirus (SARS-CoV) is the etiological agent of a newly emerged disease SARS. The SARS-CoV nucleocapsid (N) protein is one of the most abundant structural proteins and serves as a diagnostic marker for accurate and sensitive detection of the virus. Using a SELEX (systemat Coronavirus articles - free to access collection",
                "fallback": "              RNA aptamer-based sensitive detection of SARS coronavirus nucleocapsid protein - Analyst (RSC Publishing)      ",
                "from_url": "https:\/\/pubs.rsc.org\/en\/content\/articlelanding\/2009\/AN\/b906788d#!divAbstract",
                "service_icon": "https:\/\/pubs.rsc.org\/apple-touch-icon.png",
                "service_name": "pubs.rsc.org",
                "id": 1,
                "original_url": "https:\/\/pubs.rsc.org\/en\/content\/articlelanding\/2009\/AN\/b906788d#!divAbstract"
            }
        ],
        "blocks": [
            {
                "type": "rich_text",
                "block_id": "V4dh2",
                "elements": [
                    {
                        "type": "rich_text_section",
                        "elements": [
                            {
                                "type": "text",
                                "text": "Here's one paper titled: RNA aptamer-based sensitive detection of SARS coronavirus nucleocapsid protein "
                            },
                            {
                                "type": "link",
                                "url": "https:\/\/pubs.rsc.org\/en\/content\/articlelanding\/2009\/AN\/b906788d#!divAbstract"
                            }
                        ]
                    }
                ]
            }
        ],
        "thread_ts": "1584494984.009300",
        "parent_user_id": "UUPFF4TC3"
    },
    {
        "client_msg_id": "39d85c1a-f434-4c2e-9b99-d25e2d06bc98",
        "type": "message",
        "text": "There are quite a lot of aptamer-based sensors documented but unfortunately, as <@UV78JAX0S> mentions, it seems like binding affinities are not always reproduceable.",
        "user": "UV20M5HGQ",
        "ts": "1584501557.001600",
        "team": "TUU48M0T1",
        "user_team": "TUU48M0T1",
        "source_team": "TUU48M0T1",
        "user_profile": {
            "avatar_hash": "de7ea7b7e14e",
            "image_72": "https:\/\/avatars.slack-edge.com\/2020-03-11\/981865374050_de7ea7b7e14e7b4316b9_72.jpg",
            "first_name": "",
            "real_name": "Vesta Korniakova",
            "display_name": "Vesta Korniakova",
            "team": "TUU48M0T1",
            "name": "riboswitchvesta",
            "is_restricted": false,
            "is_ultra_restricted": false
        },
        "blocks": [
            {
                "type": "rich_text",
                "block_id": "xmS6",
                "elements": [
                    {
                        "type": "rich_text_section",
                        "elements": [
                            {
                                "type": "text",
                                "text": "There are quite a lot of aptamer-based sensors documented but unfortunately, as "
                            },
                            {
                                "type": "user",
                                "user_id": "UV78JAX0S"
                            },
                            {
                                "type": "text",
                                "text": " mentions, it seems like binding affinities are not always reproduceable."
                            }
                        ]
                    }
                ]
            }
        ],
        "thread_ts": "1584494984.009300",
        "parent_user_id": "UUPFF4TC3"
    },
    {
        "client_msg_id": "4afc19fc-6dd3-4748-a61a-f0cdd44df34b",
        "type": "message",
        "text": "I also just came across that one. Read the abstract, skimmed the paper. Several issues:\n\n1. It's against N protein. Nucleocapsid. Inherently winds up around nucleic acid (i.e. \"aptagenic\"). While it's a good target if you're going after PCR-based methods and a good selection target if you just want to find something that sticks, it probably binds ALOT of nucleic acids non-specifically.\n2. Related to that - the selection is poorly done. While they pre-cleared against the selection media (Ni-NTA), they did not counter select against it or against other closely related proteins (e.g., nucleocapsids from other viruses).\n3. Again related - no test for specificity. They compare to a methyltransferase of all things (even then they get 1 µM Kd)",
        "user": "UV78JAX0S",
        "ts": "1584502163.001800",
        "team": "TUU48M0T1",
        "user_team": "TUU48M0T1",
        "source_team": "TUU48M0T1",
        "user_profile": {
            "avatar_hash": "ab643489965e",
            "image_72": "https:\/\/avatars.slack-edge.com\/2020-03-17\/996174739571_ab643489965e0031c49d_72.png",
            "first_name": "Khalid",
            "real_name": "Khalid K. Alam",
            "display_name": "Khalid K. Alam",
            "team": "TUU48M0T1",
            "name": "khalid",
            "is_restricted": false,
            "is_ultra_restricted": false
        },
        "blocks": [
            {
                "type": "rich_text",
                "block_id": "Zcn",
                "elements": [
                    {
                        "type": "rich_text_section",
                        "elements": [
                            {
                                "type": "text",
                                "text": "I also just came across that one. Read the abstract, skimmed the paper. Several issues:\n\n"
                            }
                        ]
                    },
                    {
                        "type": "rich_text_list",
                        "elements": [
                            {
                                "type": "rich_text_section",
                                "elements": [
                                    {
                                        "type": "text",
                                        "text": "It's against N protein. Nucleocapsid. Inherently winds up around nucleic acid (i.e. \"aptagenic\"). While it's a good target if you're going after PCR-based methods and a good selection target if you just want to find something that sticks, it probably binds ALOT of nucleic acids non-specifically."
                                    }
                                ]
                            },
                            {
                                "type": "rich_text_section",
                                "elements": [
                                    {
                                        "type": "text",
                                        "text": "Related to that - the selection is poorly done. While they pre-cleared against the selection media (Ni-NTA), they did not counter select against it or against other closely related proteins (e.g., nucleocapsids from other viruses)."
                                    }
                                ]
                            },
                            {
                                "type": "rich_text_section",
                                "elements": [
                                    {
                                        "type": "text",
                                        "text": "Again related - no test for specificity. They compare to a methyltransferase of all things (even then they get 1 µM Kd)"
                                    }
                                ]
                            }
                        ],
                        "style": "ordered",
                        "indent": 0
                    }
                ]
            }
        ],
        "thread_ts": "1584494984.009300",
        "parent_user_id": "UUPFF4TC3",
        "reactions": [
            {
                "name": "100",
                "users": [
                    "UV20M5HGQ"
                ],
                "count": 1
            }
        ]
    }
]