[
    {
        "type": "message",
        "subtype": "channel_join",
        "ts": "1584282203.001500",
        "user": "UV0RRGB6H",
        "text": "<@UV0RRGB6H> has joined the channel"
    },
    {
        "type": "message",
        "subtype": "channel_archive",
        "ts": "1584300527.001600",
        "user": "UV0QTJCMT",
        "text": "<@UV0QTJCMT> archived the channel"
    }
]