[
    {
        "type": "message",
        "subtype": "channel_join",
        "ts": "1584103868.000200",
        "user": "UV2CNECM7",
        "text": "<@UV2CNECM7> has joined the channel"
    },
    {
        "type": "message",
        "subtype": "channel_join",
        "ts": "1584111723.000400",
        "user": "UV120B2P7",
        "text": "<@UV120B2P7> has joined the channel"
    },
    {
        "type": "message",
        "subtype": "channel_join",
        "ts": "1584151079.000700",
        "user": "U0101V2L3LP",
        "text": "<@U0101V2L3LP> has joined the channel"
    },
    {
        "type": "message",
        "subtype": "channel_join",
        "ts": "1584158404.000900",
        "user": "UVDTYV2MT",
        "text": "<@UVDTYV2MT> has joined the channel"
    }
]