[
    {
        "type": "message",
        "subtype": "channel_join",
        "ts": "1584299848.000200",
        "user": "UVDR74SJU",
        "text": "<@UVDR74SJU> has joined the channel"
    },
    {
        "type": "message",
        "subtype": "channel_purpose",
        "ts": "1584299850.000300",
        "user": "UVDR74SJU",
        "text": "<@UVDR74SJU> set the channel purpose: Channel for people to request support in building physical things",
        "purpose": "Channel for people to request support in building physical things"
    },
    {
        "client_msg_id": "c4b5975b-2275-47c9-9b27-45f600068a4a",
        "type": "message",
        "text": "There are a ton of people on here with deep skills in software, data, biology, communications, medicine etc.  For those of us with expertise in building physical things it's hard to figure out what people actually need built.  The purpose of this channel is for those who see a need for some physical thing to be built to reach out and ask for it to be built, without the people who know how to build things having to parse the large amount of technical stuff we don't understand.  Hopefully  people with design and fabrication experience(electrical, mechanical) can congregate here and people will come ask us to build things. So subscribe if that's you.",
        "user": "UVDR74SJU",
        "ts": "1584300059.003700",
        "team": "TUU48M0T1",
        "user_team": "TUU48M0T1",
        "source_team": "TUU48M0T1",
        "user_profile": {
            "avatar_hash": "gb64199438a6",
            "image_72": "https:\/\/secure.gravatar.com\/avatar\/b64199438a6ccf3a4c976026ae1fa555.jpg?s=72&d=https%3A%2F%2Fa.slack-edge.com%2Fdf10d%2Fimg%2Favatars%2Fava_0019-72.png",
            "first_name": "",
            "real_name": "Lafe Spietz",
            "display_name": "Lafe Spietz",
            "team": "TUU48M0T1",
            "name": "lafelabs",
            "is_restricted": false,
            "is_ultra_restricted": false
        },
        "blocks": [
            {
                "type": "rich_text",
                "block_id": "DvsE",
                "elements": [
                    {
                        "type": "rich_text_section",
                        "elements": [
                            {
                                "type": "text",
                                "text": "There are a ton of people on here with deep skills in software, data, biology, communications, medicine etc.  For those of us with expertise in building physical things it's hard to figure out what people actually need built.  The purpose of this channel is for those who see a need for some physical thing to be built to reach out and ask for it to be built, without the people who know how to build things having to parse the large amount of technical stuff we don't understand.  Hopefully  people with design and fabrication experience(electrical, mechanical) can congregate here and people will come ask us to build things. So subscribe if that's you."
                            }
                        ]
                    }
                ]
            }
        ]
    },
    {
        "type": "message",
        "subtype": "channel_join",
        "ts": "1584300785.003900",
        "user": "UV0QTJCMT",
        "text": "<@UV0QTJCMT> has joined the channel"
    },
    {
        "type": "message",
        "subtype": "channel_join",
        "ts": "1584300802.004200",
        "user": "UV7N8HX28",
        "text": "<@UV7N8HX28> has joined the channel"
    },
    {
        "type": "message",
        "subtype": "channel_topic",
        "ts": "1584300890.005400",
        "user": "UV0QTJCMT",
        "text": "<@UV0QTJCMT> set the channel topic: Where people with design and fabrication experience(electrical, mechanical) can congregate here and other members can ask us to build things",
        "topic": "Where people with design and fabrication experience(electrical, mechanical) can congregate here and other members can ask us to build things",
        "reactions": [
            {
                "name": "+1",
                "users": [
                    "UVDR74SJU"
                ],
                "count": 1
            }
        ]
    },
    {
        "client_msg_id": "a27bc254-d461-4d19-adb7-d4edc304d5bc",
        "type": "message",
        "text": "Hi Lafe, I'm also a physicist :slightly_smiling_face: What I think could be useful is a simple translation stage (actually a 3d printer movement stage could do, but less movement is required) for moving around well plates (see e.g. here for an example <https:\/\/ibidi.com\/multiwell-plates\/20--plate-24-well.html>; there should be drawings and they are standarized). A combination of such a movement stage and some simple optical detection electronics (fixed position and measuring in transmission each well) gives you a plate reader, for example, which can be a readout system for assays. It is not a full-blown pipetting robot but a good building stage. It might be even small enough to be completely 3d printed, like the truly awesome <https:\/\/openflexure.org\/> system (which is high precision but has a smaller movement range). Maybe even a combination of course and fine movement in the future, in case one wants to use 96 well plates. I think it should be possible to build such a stage including stepper motors and drive electronics for &lt;50$ and a full plate reader for &lt;100$ (that's the price for the parts only). Another application would be dipping electrodes into each well for electrochemical readout (e.g. <https:\/\/www.nature.com\/articles\/s41467-019-08799-6>)",
        "user": "UV7N8HX28",
        "ts": "1584301419.012000",
        "team": "TUU48M0T1",
        "user_team": "TUU48M0T1",
        "source_team": "TUU48M0T1",
        "user_profile": {
            "avatar_hash": "g06a721369ab",
            "image_72": "https:\/\/secure.gravatar.com\/avatar\/06a721369ab99a35191f524535947505.jpg?s=72&d=https%3A%2F%2Fa.slack-edge.com%2Fdf10d%2Fimg%2Favatars%2Fava_0010-72.png",
            "first_name": "",
            "real_name": "Moritz_LabLab",
            "display_name": "Moritz_LabLab",
            "team": "TUU48M0T1",
            "name": "moritz",
            "is_restricted": false,
            "is_ultra_restricted": false
        },
        "attachments": [
            {
                "service_name": "ibidi",
                "title": "µ-Plate 24 Well | Black Walls &amp; Flat Coverslip Bottom | ibidi",
                "title_link": "https:\/\/ibidi.com\/multiwell-plates\/20--plate-24-well.html",
                "text": "A black 24 well micro-Plate with black walls and a flat, coverslip-like bottom for high-throughput cell-based assays | Excellent optical quality",
                "fallback": "ibidi: µ-Plate 24 Well | Black Walls &amp; Flat Coverslip Bottom | ibidi",
                "thumb_url": "https:\/\/ibidi.com\/567-large_default\/-plate-24-well.jpg",
                "from_url": "https:\/\/ibidi.com\/multiwell-plates\/20--plate-24-well.html",
                "thumb_width": 700,
                "thumb_height": 524,
                "service_icon": "https:\/\/ibidi.com\/img\/favicon.ico?1550485149",
                "id": 1,
                "original_url": "https:\/\/ibidi.com\/multiwell-plates\/20--plate-24-well.html"
            },
            {
                "title": "The OpenFlexure project",
                "title_link": "https:\/\/openflexure.org\/",
                "text": "The OpenFlexure project aims to make high precision mechanical positioning available to anyone with a 3D printer - for use in microscopes, micromanipulators, and more.",
                "fallback": "The OpenFlexure project",
                "from_url": "https:\/\/openflexure.org\/",
                "service_icon": "https:\/\/openflexure.org\/favicon.ico",
                "service_name": "openflexure.org",
                "id": 2,
                "original_url": "https:\/\/openflexure.org\/"
            },
            {
                "service_name": "Nature Communications",
                "title": "Measuring luteinising hormone pulsatility with a robotic aptamer-enabl",
                "title_link": "https:\/\/www.nature.com\/articles\/s41467-019-08799-6",
                "text": "Assessment of luteinising hormone pulsatility is important in the diagnosis of reproductive disorders. Here the authors develop a DNA aptamer-based electrochemical analysis integrated into a robotic platform for high-throughput and sensitive analysis.",
                "fallback": "Nature Communications: Measuring luteinising hormone pulsatility with a robotic aptamer-enabl",
                "thumb_url": "https:\/\/media.springernature.com\/full\/springer-static\/image\/art%3A10.1038%2Fs41467-019-08799-6\/MediaObjects\/41467_2019_8799_Fig1_HTML.png",
                "from_url": "https:\/\/www.nature.com\/articles\/s41467-019-08799-6",
                "thumb_width": 2024,
                "thumb_height": 1538,
                "id": 3,
                "original_url": "https:\/\/www.nature.com\/articles\/s41467-019-08799-6"
            }
        ],
        "blocks": [
            {
                "type": "rich_text",
                "block_id": "jg6o",
                "elements": [
                    {
                        "type": "rich_text_section",
                        "elements": [
                            {
                                "type": "text",
                                "text": "Hi Lafe, I'm also a physicist "
                            },
                            {
                                "type": "emoji",
                                "name": "slightly_smiling_face"
                            },
                            {
                                "type": "text",
                                "text": " What I think could be useful is a simple translation stage (actually a 3d printer movement stage could do, but less movement is required) for moving around well plates (see e.g. here for an example "
                            },
                            {
                                "type": "link",
                                "url": "https:\/\/ibidi.com\/multiwell-plates\/20--plate-24-well.html"
                            },
                            {
                                "type": "text",
                                "text": "; there should be drawings and they are standarized). A combination of such a movement stage and some simple optical detection electronics (fixed position and measuring in transmission each well) gives you a plate reader, for example, which can be a readout system for assays. It is not a full-blown pipetting robot but a good building stage. It might be even small enough to be completely 3d printed, like the truly awesome "
                            },
                            {
                                "type": "link",
                                "url": "https:\/\/openflexure.org\/"
                            },
                            {
                                "type": "text",
                                "text": " system (which is high precision but has a smaller movement range). Maybe even a combination of course and fine movement in the future, in case one wants to use 96 well plates. I think it should be possible to build such a stage including stepper motors and drive electronics for <50$ and a full plate reader for <100$ (that's the price for the parts only). Another application would be dipping electrodes into each well for electrochemical readout (e.g. "
                            },
                            {
                                "type": "link",
                                "url": "https:\/\/www.nature.com\/articles\/s41467-019-08799-6"
                            },
                            {
                                "type": "text",
                                "text": ")"
                            }
                        ]
                    }
                ]
            }
        ],
        "thread_ts": "1584301419.012000",
        "reply_count": 1,
        "reply_users_count": 1,
        "latest_reply": "1584323515.020300",
        "reply_users": [
            "UVDR74SJU"
        ],
        "replies": [
            {
                "user": "UVDR74SJU",
                "ts": "1584323515.020300"
            }
        ],
        "subscribed": false
    },
    {
        "type": "message",
        "subtype": "channel_name",
        "ts": "1584301462.012200",
        "user": "UV0QTJCMT",
        "text": "<@UV0QTJCMT> has renamed the channel from \"physical-build-requests\" to \"prgm-hardware-team\"",
        "old_name": "physical-build-requests",
        "name": "prgm-hardware-team"
    },
    {
        "client_msg_id": "6e8792f1-ddf9-48f0-8edc-afe04e306983",
        "type": "message",
        "text": "If anybody is interested to discuss this, I know pretty much what I want and could set up a github or something for collaboration.",
        "user": "UV7N8HX28",
        "ts": "1584301523.013000",
        "team": "TUU48M0T1",
        "user_team": "TUU48M0T1",
        "source_team": "TUU48M0T1",
        "user_profile": {
            "avatar_hash": "g06a721369ab",
            "image_72": "https:\/\/secure.gravatar.com\/avatar\/06a721369ab99a35191f524535947505.jpg?s=72&d=https%3A%2F%2Fa.slack-edge.com%2Fdf10d%2Fimg%2Favatars%2Fava_0010-72.png",
            "first_name": "",
            "real_name": "Moritz_LabLab",
            "display_name": "Moritz_LabLab",
            "team": "TUU48M0T1",
            "name": "moritz",
            "is_restricted": false,
            "is_ultra_restricted": false
        },
        "blocks": [
            {
                "type": "rich_text",
                "block_id": "G\/li",
                "elements": [
                    {
                        "type": "rich_text_section",
                        "elements": [
                            {
                                "type": "text",
                                "text": "If anybody is interested to discuss this, I know pretty much what I want and could set up a github or something for collaboration."
                            }
                        ]
                    }
                ]
            }
        ]
    },
    {
        "type": "message",
        "subtype": "channel_join",
        "ts": "1584301790.013200",
        "user": "UV2CNECM7",
        "text": "<@UV2CNECM7> has joined the channel"
    },
    {
        "type": "message",
        "subtype": "channel_join",
        "ts": "1584303747.013400",
        "user": "UVBEDFNPJ",
        "text": "<@UVBEDFNPJ> has joined the channel"
    },
    {
        "client_msg_id": "59040f0d-3553-49ef-b894-2a69e8084a12",
        "type": "message",
        "text": "Hi - glad to join. We normally make data acquisition and telemetry systems for motorsports (race cars) but interested in helping out where we can.  We have expertise in hardware design, PCB layout, DFM, mechanical assemblies and embedded systems, on top of all of the software things we do (app development, cloud platforms, etc)\n<http:\/\/autosportlabs.com\/about\/|autosportlabs.com\/about\/>",
        "user": "UVBEDFNPJ",
        "ts": "1584304151.014800",
        "team": "TUU48M0T1",
        "user_team": "TUU48M0T1",
        "source_team": "TUU48M0T1",
        "user_profile": {
            "avatar_hash": "g283f55a73d8",
            "image_72": "https:\/\/secure.gravatar.com\/avatar\/283f55a73d87c092accdfe6d3073482d.jpg?s=72&d=https%3A%2F%2Fa.slack-edge.com%2Fdf10d%2Fimg%2Favatars%2Fava_0009-72.png",
            "first_name": "",
            "real_name": "Brent Picasso",
            "display_name": "Brent Picasso",
            "team": "TUU48M0T1",
            "name": "brent",
            "is_restricted": false,
            "is_ultra_restricted": false
        },
        "blocks": [
            {
                "type": "rich_text",
                "block_id": "\/yPE",
                "elements": [
                    {
                        "type": "rich_text_section",
                        "elements": [
                            {
                                "type": "text",
                                "text": "Hi - glad to join. We normally make data acquisition and telemetry systems for motorsports (race cars) but interested in helping out where we can.  We have expertise in hardware design, PCB layout, DFM, mechanical assemblies and embedded systems, on top of all of the software things we do (app development, cloud platforms, etc)\n"
                            },
                            {
                                "type": "link",
                                "url": "http:\/\/autosportlabs.com\/about\/",
                                "text": "autosportlabs.com\/about\/"
                            }
                        ]
                    }
                ]
            }
        ],
        "reactions": [
            {
                "name": "+1",
                "users": [
                    "UVDR74SJU",
                    "UVBLWGLQ3"
                ],
                "count": 2
            }
        ]
    },
    {
        "client_msg_id": "0e7867d3-91b0-47d3-b546-b638680b3ea6",
        "type": "message",
        "text": "A relevant project that could probably use some hardware expertise is the <#C010001FZ6J|proj-humidity-anti-covid19-shield>!",
        "user": "UV0QTJCMT",
        "ts": "1584305713.015300",
        "team": "TUU48M0T1",
        "user_team": "TUU48M0T1",
        "source_team": "TUU48M0T1",
        "user_profile": {
            "avatar_hash": "11e3deb6d1a9",
            "image_72": "https:\/\/avatars.slack-edge.com\/2020-03-06\/986844736421_11e3deb6d1a949327ddd_72.png",
            "first_name": "Katherine",
            "real_name": "Katherine Holo",
            "display_name": "Kat Holo",
            "team": "TUU48M0T1",
            "name": "katherineh245",
            "is_restricted": false,
            "is_ultra_restricted": false
        },
        "blocks": [
            {
                "type": "rich_text",
                "block_id": "aXY4U",
                "elements": [
                    {
                        "type": "rich_text_section",
                        "elements": [
                            {
                                "type": "text",
                                "text": "A relevant project that could probably use some hardware expertise is the "
                            },
                            {
                                "type": "channel",
                                "channel_id": "C010001FZ6J"
                            },
                            {
                                "type": "text",
                                "text": "!"
                            }
                        ]
                    }
                ]
            }
        ]
    },
    {
        "type": "message",
        "subtype": "channel_join",
        "ts": "1584306125.015500",
        "user": "UV3URUKK5",
        "text": "<@UV3URUKK5> has joined the channel"
    },
    {
        "type": "message",
        "subtype": "channel_join",
        "ts": "1584317182.015700",
        "user": "UV2P3AQEN",
        "text": "<@UV2P3AQEN> has joined the channel"
    },
    {
        "type": "message",
        "subtype": "channel_join",
        "ts": "1584318140.015900",
        "user": "U0100AN3E9J",
        "text": "<@U0100AN3E9J> has joined the channel"
    },
    {
        "client_msg_id": "987a6f6f-6258-4957-8206-9cd70420b98e",
        "type": "message",
        "text": "aloha all, you can see my post in <#C0102E5J2S3|prgm-introductions> for more details. if we get to a point where we are CADing things up, I recommend Onshape, which was made by the founders of Solidworks. Anyone who has done parametric CAD (Creo, Fusion to name a few) can pick this up quickly. free accounts if we make everything public\n\nkey benefits:\n-cloud-based\n-simultaneous designing\n-version control (like Github)\n-variables and configuration\n\nthis is what I teach at school, so I have a whole suite of videos for anyone to learn and watch.\n\nalthough I can't commit time at the moment to oversee any development of hardware, I share this with you in case it is needed soon.\n<https:\/\/www.youtube.com\/playlist?list=PLh3iFL9dzjQRidilBX8E5ECdMu_69Gu6Z|Hours of Onshape tutorials I made>\n<https:\/\/www.onshape.com\/products\/free?hsCtaTracking=12ef09fd-fa65-48a5-a496-d17c85a4662a%7C7bfa3811-7cbc-49db-9c26-50fb7bd007cd|details for free Onshape plan>",
        "user": "U0100AN3E9J",
        "ts": "1584320016.019300",
        "team": "TUU48M0T1",
        "user_team": "TUU48M0T1",
        "source_team": "TUU48M0T1",
        "user_profile": {
            "avatar_hash": "ga85b00f9b08",
            "image_72": "https:\/\/secure.gravatar.com\/avatar\/a85b00f9b0879618ac76e6aff39cfb7b.jpg?s=72&d=https%3A%2F%2Fa.slack-edge.com%2Fdf10d%2Fimg%2Favatars%2Fava_0008-72.png",
            "first_name": "Justin",
            "real_name": "Justin",
            "display_name": "",
            "team": "TUU48M0T1",
            "name": "alohadesignwork",
            "is_restricted": false,
            "is_ultra_restricted": false
        },
        "attachments": [
            {
                "service_name": "YouTube",
                "title": "Onshape - YouTube",
                "title_link": "https:\/\/www.youtube.com\/playlist?list=PLh3iFL9dzjQRidilBX8E5ECdMu_69Gu6Z",
                "text": "<http:\/\/tinyurl.com\/Onshape-trello> also see prepping for 3dp and laser: <https:\/\/www.youtube.com\/playlist?list=PLh3iFL9dzjQTJfD51kNRnU6mvvMIrQBRz>",
                "fallback": "YouTube: Onshape - YouTube",
                "thumb_url": "https:\/\/i.ytimg.com\/vi\/bOwHEkgYYTM\/hqdefault.jpg?sqp=-oaymwEWCKgBEF5IWvKriqkDCQgBFQAAiEIYAQ==&rs=AOn4CLA9PsqpcR6GD3KaH7ZnubFlDdkRvw",
                "from_url": "https:\/\/www.youtube.com\/playlist?list=PLh3iFL9dzjQRidilBX8E5ECdMu_69Gu6Z",
                "thumb_width": 168,
                "thumb_height": 94,
                "service_icon": "https:\/\/s.ytimg.com\/yts\/img\/favicon-vfl8qSV2F.ico",
                "id": 1,
                "original_url": "https:\/\/www.youtube.com\/playlist?list=PLh3iFL9dzjQRidilBX8E5ECdMu_69Gu6Z"
            },
            {
                "title": "Free Plan | Onshape",
                "title_link": "https:\/\/www.onshape.com\/products\/free?hsCtaTracking=12ef09fd-fa65-48a5-a496-d17c85a4662a%7C7bfa3811-7cbc-49db-9c26-50fb7bd007cd",
                "text": "Onshape Free extends professional-grade modern CAD tools to nonprofessional designers, hobbyists, makers, and open-source projects at no cost.",
                "fallback": "Free Plan | Onshape",
                "from_url": "https:\/\/www.onshape.com\/products\/free?hsCtaTracking=12ef09fd-fa65-48a5-a496-d17c85a4662a%7C7bfa3811-7cbc-49db-9c26-50fb7bd007cd",
                "service_icon": "https:\/\/www.onshape.com\/favicon.ico",
                "service_name": "Onshape",
                "id": 2,
                "original_url": "https:\/\/www.onshape.com\/products\/free?hsCtaTracking=12ef09fd-fa65-48a5-a496-d17c85a4662a%7C7bfa3811-7cbc-49db-9c26-50fb7bd007cd"
            }
        ],
        "blocks": [
            {
                "type": "rich_text",
                "block_id": "X2n2",
                "elements": [
                    {
                        "type": "rich_text_section",
                        "elements": [
                            {
                                "type": "text",
                                "text": "aloha all, you can see my post in "
                            },
                            {
                                "type": "channel",
                                "channel_id": "C0102E5J2S3"
                            },
                            {
                                "type": "text",
                                "text": " for more details. if we get to a point where we are CADing things up, I recommend Onshape, which was made by the founders of Solidworks. Anyone who has done parametric CAD (Creo, Fusion to name a few) can pick this up quickly. free accounts if we make everything public\n\nkey benefits:\n-cloud-based\n-simultaneous designing\n-version control (like Github)\n-variables and configuration\n\nthis is what I teach at school, so I have a whole suite of videos for anyone to learn and watch.\n\nalthough I can't commit time at the moment to oversee any development of hardware, I share this with you in case it is needed soon.\n"
                            },
                            {
                                "type": "link",
                                "url": "https:\/\/www.youtube.com\/playlist?list=PLh3iFL9dzjQRidilBX8E5ECdMu_69Gu6Z",
                                "text": "Hours of Onshape tutorials I made"
                            },
                            {
                                "type": "text",
                                "text": "\n"
                            },
                            {
                                "type": "link",
                                "url": "https:\/\/www.onshape.com\/products\/free?hsCtaTracking=12ef09fd-fa65-48a5-a496-d17c85a4662a%7C7bfa3811-7cbc-49db-9c26-50fb7bd007cd",
                                "text": "details for free Onshape plan"
                            }
                        ]
                    }
                ]
            }
        ],
        "thread_ts": "1584320016.019300",
        "reply_count": 2,
        "reply_users_count": 2,
        "latest_reply": "1584384052.024800",
        "reply_users": [
            "UV3URUKK5",
            "U0100AN3E9J"
        ],
        "replies": [
            {
                "user": "UV3URUKK5",
                "ts": "1584360206.023700"
            },
            {
                "user": "U0100AN3E9J",
                "ts": "1584384052.024800"
            }
        ],
        "subscribed": false,
        "reactions": [
            {
                "name": "+1",
                "users": [
                    "UVDR74SJU",
                    "UV3URUKK5"
                ],
                "count": 2
            }
        ]
    },
    {
        "client_msg_id": "e9df8c60-6c42-4d26-930f-0496658e3bd8",
        "type": "message",
        "text": "<@U0100AN3E9J> thanks! I'm signing up for the free version now. I'm a solidworks user at work so hopefully this will just translate over.",
        "user": "UVDR74SJU",
        "ts": "1584322866.020200",
        "team": "TUU48M0T1",
        "user_team": "TUU48M0T1",
        "source_team": "TUU48M0T1",
        "user_profile": {
            "avatar_hash": "gb64199438a6",
            "image_72": "https:\/\/secure.gravatar.com\/avatar\/b64199438a6ccf3a4c976026ae1fa555.jpg?s=72&d=https%3A%2F%2Fa.slack-edge.com%2Fdf10d%2Fimg%2Favatars%2Fava_0019-72.png",
            "first_name": "",
            "real_name": "Lafe Spietz",
            "display_name": "Lafe Spietz",
            "team": "TUU48M0T1",
            "name": "lafelabs",
            "is_restricted": false,
            "is_ultra_restricted": false
        },
        "blocks": [
            {
                "type": "rich_text",
                "block_id": "yN0\/J",
                "elements": [
                    {
                        "type": "rich_text_section",
                        "elements": [
                            {
                                "type": "user",
                                "user_id": "U0100AN3E9J"
                            },
                            {
                                "type": "text",
                                "text": " thanks! I'm signing up for the free version now. I'm a solidworks user at work so hopefully this will just translate over."
                            }
                        ]
                    }
                ]
            }
        ]
    },
    {
        "client_msg_id": "27afb642-7de6-4056-82bd-e6ca8e1ece5d",
        "type": "message",
        "text": "thank you for that!  I've played around a lot with the linear positioning stage you can salvage from DVD\/CD drives.  they have maybe about 2-3 cm of range, with a precision of maybe a fraction of a mm.  Would that work? I made some Arduino stuff that could be used to drive that at scale fast if that's enough precision\/range(old dvd drives can be found on ebay cheap or scavenged).  Also if there is an application here that has people that actually want it I can probably rope a lot more applied physics types in if you're short on spare cycles right now.  If you can help guide on the applications side I'm open to recruiting some more bodies for this and pushing it forward on a github repo.",
        "user": "UVDR74SJU",
        "ts": "1584323515.020300",
        "team": "TUU48M0T1",
        "user_team": "TUU48M0T1",
        "source_team": "TUU48M0T1",
        "user_profile": {
            "avatar_hash": "gb64199438a6",
            "image_72": "https:\/\/secure.gravatar.com\/avatar\/b64199438a6ccf3a4c976026ae1fa555.jpg?s=72&d=https%3A%2F%2Fa.slack-edge.com%2Fdf10d%2Fimg%2Favatars%2Fava_0019-72.png",
            "first_name": "",
            "real_name": "Lafe Spietz",
            "display_name": "Lafe Spietz",
            "team": "TUU48M0T1",
            "name": "lafelabs",
            "is_restricted": false,
            "is_ultra_restricted": false
        },
        "blocks": [
            {
                "type": "rich_text",
                "block_id": "HZ8",
                "elements": [
                    {
                        "type": "rich_text_section",
                        "elements": [
                            {
                                "type": "text",
                                "text": "thank you for that!  I've played around a lot with the linear positioning stage you can salvage from DVD\/CD drives.  they have maybe about 2-3 cm of range, with a precision of maybe a fraction of a mm.  Would that work? I made some Arduino stuff that could be used to drive that at scale fast if that's enough precision\/range(old dvd drives can be found on ebay cheap or scavenged).  Also if there is an application here that has people that actually want it I can probably rope a lot more applied physics types in if you're short on spare cycles right now.  If you can help guide on the applications side I'm open to recruiting some more bodies for this and pushing it forward on a github repo."
                            }
                        ]
                    }
                ]
            }
        ],
        "thread_ts": "1584301419.012000",
        "parent_user_id": "UV7N8HX28"
    },
    {
        "client_msg_id": "6acc37e0-3e9c-4fc8-9a21-4bd8a1bf3342",
        "type": "message",
        "text": "<@UVDR74SJU> perfect. I learned SW in undergrad. after having not done it much in five years, I picked it up pretty quickly in 2015 and have taught it to countless students and they use it to develop high-functioning robots (FRC competition). I myself haven't done much actual product development on it, but happy to help in whatever way I can",
        "user": "U0100AN3E9J",
        "ts": "1584330355.022600",
        "team": "TUU48M0T1",
        "user_team": "TUU48M0T1",
        "source_team": "TUU48M0T1",
        "user_profile": {
            "avatar_hash": "ga85b00f9b08",
            "image_72": "https:\/\/secure.gravatar.com\/avatar\/a85b00f9b0879618ac76e6aff39cfb7b.jpg?s=72&d=https%3A%2F%2Fa.slack-edge.com%2Fdf10d%2Fimg%2Favatars%2Fava_0008-72.png",
            "first_name": "Justin",
            "real_name": "Justin",
            "display_name": "",
            "team": "TUU48M0T1",
            "name": "alohadesignwork",
            "is_restricted": false,
            "is_ultra_restricted": false
        },
        "blocks": [
            {
                "type": "rich_text",
                "block_id": "yZJ",
                "elements": [
                    {
                        "type": "rich_text_section",
                        "elements": [
                            {
                                "type": "user",
                                "user_id": "UVDR74SJU"
                            },
                            {
                                "type": "text",
                                "text": " perfect. I learned SW in undergrad. after having not done it much in five years, I picked it up pretty quickly in 2015 and have taught it to countless students and they use it to develop high-functioning robots (FRC competition). I myself haven't done much actual product development on it, but happy to help in whatever way I can"
                            }
                        ]
                    }
                ]
            }
        ]
    }
]