[
    {
        "type": "message",
        "subtype": "thread_broadcast",
        "text": "Please count me in.",
        "user": "U0106PLV8PJ",
        "ts": "1584515044.040900",
        "thread_ts": "1584460580.038200",
        "root": {
            "client_msg_id": "fdf0f48a-3ab6-4a5b-8513-fff29546ccaa",
            "type": "message",
            "text": "We're funded to build O2 generators via zeolite\/CMS combo separation.  If anyone wants to help with that get at me.",
            "user": "UVADMLUB0",
            "ts": "1584460580.038200",
            "team": "TUU48M0T1",
            "blocks": [
                {
                    "type": "rich_text",
                    "block_id": "0V3bz",
                    "elements": [
                        {
                            "type": "rich_text_section",
                            "elements": [
                                {
                                    "type": "text",
                                    "text": "We're funded to build O2 generators via zeolite\/CMS combo separation.  If anyone wants to help with that get at me."
                                }
                            ]
                        }
                    ]
                }
            ],
            "thread_ts": "1584460580.038200",
            "reply_count": 1,
            "reply_users_count": 1,
            "latest_reply": "1584515044.040900",
            "reply_users": [
                "U0106PLV8PJ"
            ],
            "replies": [
                {
                    "user": "U0106PLV8PJ",
                    "ts": "1584515044.040900"
                }
            ],
            "subscribed": false
        },
        "blocks": [
            {
                "type": "rich_text",
                "block_id": "2io",
                "elements": [
                    {
                        "type": "rich_text_section",
                        "elements": [
                            {
                                "type": "text",
                                "text": "Please count me in."
                            }
                        ]
                    }
                ]
            }
        ],
        "client_msg_id": "00ac6cad-7b77-4808-94fd-4f867b09ce01"
    },
    {
        "type": "message",
        "subtype": "thread_broadcast",
        "text": "@channel Would *7PM Paris time on Saturday, 3\/21* work for a call? And could someone create an agenda doc so everyone can start listing some project ideas and questions to answer? ",
        "user": "UV0QTJCMT",
        "ts": "1584519318.043000",
        "thread_ts": "1584421277.027900",
        "root": {
            "client_msg_id": "78aa4c26-a3ce-44c0-967a-8fd9bc53a926",
            "type": "message",
            "text": "<!channel> sent a similar message to the developer group, but i think it'd be great for this group to have a call this week to figure out everyone's skill sets, interests, and determine a purpose for this group and brainstorm possible hardware\/device-specific projects to work on. since this is a small group (for now) as compared to the developer group, *if you could respond to this thread with your location and what times (morning, afternoon, evening) on _friday_ and _saturday_ work for you*, that would be much appreciated!",
            "user": "UV0QTJCMT",
            "ts": "1584421277.027900",
            "team": "TUU48M0T1",
            "blocks": [
                {
                    "type": "rich_text",
                    "block_id": "Y6NTw",
                    "elements": [
                        {
                            "type": "rich_text_section",
                            "elements": [
                                {
                                    "type": "broadcast",
                                    "range": "channel"
                                },
                                {
                                    "type": "text",
                                    "text": " sent a similar message to the developer group, but i think it'd be great for this group to have a call this week to figure out everyone's skill sets, interests, and determine a purpose for this group and brainstorm possible hardware\/device-specific projects to work on. since this is a small group (for now) as compared to the developer group, "
                                },
                                {
                                    "type": "text",
                                    "text": "if you could respond to this thread with your location and what times (morning, afternoon, evening) on ",
                                    "style": {
                                        "bold": true
                                    }
                                },
                                {
                                    "type": "text",
                                    "text": "friday ",
                                    "style": {
                                        "bold": true,
                                        "italic": true
                                    }
                                },
                                {
                                    "type": "text",
                                    "text": "and ",
                                    "style": {
                                        "bold": true
                                    }
                                },
                                {
                                    "type": "text",
                                    "text": "saturday ",
                                    "style": {
                                        "bold": true,
                                        "italic": true
                                    }
                                },
                                {
                                    "type": "text",
                                    "text": "work for you",
                                    "style": {
                                        "bold": true
                                    }
                                },
                                {
                                    "type": "text",
                                    "text": ", that would be much appreciated!"
                                }
                            ]
                        }
                    ]
                }
            ],
            "thread_ts": "1584421277.027900",
            "reply_count": 21,
            "reply_users_count": 11,
            "latest_reply": "1584813424.008300",
            "reply_users": [
                "UV0QTJCMT",
                "UV2P3AQEN",
                "UV3URUKK5",
                "UVADMLUB0",
                "UV7CJF9SN",
                "UVA8VCCP5",
                "U0106PLV8PJ",
                "U0108C2Q332",
                "U0107NS25A4",
                "U0109G7NH0D",
                "UV8FL0JCA"
            ],
            "replies": [
                {
                    "user": "UV0QTJCMT",
                    "ts": "1584421315.028000"
                },
                {
                    "user": "UV2P3AQEN",
                    "ts": "1584437783.035300"
                },
                {
                    "user": "UV3URUKK5",
                    "ts": "1584451561.035800"
                },
                {
                    "user": "UVADMLUB0",
                    "ts": "1584454180.036100"
                },
                {
                    "user": "UV7CJF9SN",
                    "ts": "1584461953.038400"
                },
                {
                    "user": "UVA8VCCP5",
                    "ts": "1584508564.040200"
                },
                {
                    "user": "UV0QTJCMT",
                    "ts": "1584519318.043000"
                },
                {
                    "user": "UV2P3AQEN",
                    "ts": "1584527717.043400"
                },
                {
                    "user": "U0106PLV8PJ",
                    "ts": "1584529480.043600"
                },
                {
                    "user": "U0108C2Q332",
                    "ts": "1584537976.043900"
                },
                {
                    "user": "U0107NS25A4",
                    "ts": "1584544718.044400"
                },
                {
                    "user": "UVA8VCCP5",
                    "ts": "1584545739.045100"
                },
                {
                    "user": "U0109G7NH0D",
                    "ts": "1584553336.045800"
                },
                {
                    "user": "UV2P3AQEN",
                    "ts": "1584560636.046200"
                },
                {
                    "user": "UV0QTJCMT",
                    "ts": "1584561367.047900"
                },
                {
                    "user": "UV8FL0JCA",
                    "ts": "1584566967.048200"
                },
                {
                    "user": "UV2P3AQEN",
                    "ts": "1584607139.063900"
                },
                {
                    "user": "UV0QTJCMT",
                    "ts": "1584629905.077300"
                },
                {
                    "user": "UV2P3AQEN",
                    "ts": "1584629932.077500"
                },
                {
                    "user": "U0108C2Q332",
                    "ts": "1584812993.007500"
                },
                {
                    "user": "UV2P3AQEN",
                    "ts": "1584813424.008300"
                }
            ],
            "subscribed": false
        },
        "blocks": [
            {
                "type": "rich_text",
                "block_id": "aFM",
                "elements": [
                    {
                        "type": "rich_text_section",
                        "elements": [
                            {
                                "type": "text",
                                "text": "@channel"
                            },
                            {
                                "type": "text",
                                "text": " Would "
                            },
                            {
                                "type": "text",
                                "text": "7PM Paris time on Saturday, 3\/21",
                                "style": {
                                    "bold": true
                                }
                            },
                            {
                                "type": "text",
                                "text": " work for a call? And could someone create an agenda doc so everyone can start listing some project ideas and questions to answer? "
                            }
                        ]
                    }
                ]
            }
        ],
        "client_msg_id": "B47B136C-F53B-4477-AB42-EF391FD71075",
        "reactions": [
            {
                "name": "+1",
                "users": [
                    "U0107NS25A4",
                    "U0109G7NH0D",
                    "UV2P3AQEN",
                    "UVADMLUB0",
                    "U010B4EJG2C"
                ],
                "count": 5
            }
        ]
    },
    {
        "client_msg_id": "6511719a-c7dc-4958-a52f-930d061cc547",
        "type": "message",
        "text": "Yes, good for me!",
        "user": "UV2P3AQEN",
        "ts": "1584527717.043400",
        "team": "TUU48M0T1",
        "user_team": "TUU48M0T1",
        "source_team": "TUU48M0T1",
        "user_profile": {
            "avatar_hash": "82d977ce9645",
            "image_72": "https:\/\/avatars.slack-edge.com\/2020-03-16\/1003452392327_82d977ce9645ebc30917_72.jpg",
            "first_name": "Antonio",
            "real_name": "Antonio Mangiapane",
            "display_name": "Antonio Mangiapane",
            "team": "TUU48M0T1",
            "name": "antonio.mangiapane29",
            "is_restricted": false,
            "is_ultra_restricted": false
        },
        "blocks": [
            {
                "type": "rich_text",
                "block_id": "sx2",
                "elements": [
                    {
                        "type": "rich_text_section",
                        "elements": [
                            {
                                "type": "text",
                                "text": "Yes, good for me!"
                            }
                        ]
                    }
                ]
            }
        ],
        "thread_ts": "1584421277.027900",
        "parent_user_id": "UV0QTJCMT"
    },
    {
        "client_msg_id": "0b8006ce-1701-424a-bd7e-aaf5aa1b0360",
        "type": "message",
        "text": "I can make it.",
        "user": "U0106PLV8PJ",
        "ts": "1584529480.043600",
        "team": "TUU48M0T1",
        "user_team": "TUU48M0T1",
        "source_team": "TUU48M0T1",
        "user_profile": {
            "avatar_hash": "g2cfc1aee243",
            "image_72": "https:\/\/secure.gravatar.com\/avatar\/2cfc1aee24305a18a647efef16d68e02.jpg?s=72&d=https%3A%2F%2Fa.slack-edge.com%2Fdf10d%2Fimg%2Favatars%2Fava_0012-72.png",
            "first_name": "",
            "real_name": "Rupin Chheda",
            "display_name": "",
            "team": "TUU48M0T1",
            "name": "rupin.chheda",
            "is_restricted": false,
            "is_ultra_restricted": false
        },
        "blocks": [
            {
                "type": "rich_text",
                "block_id": "95K",
                "elements": [
                    {
                        "type": "rich_text_section",
                        "elements": [
                            {
                                "type": "text",
                                "text": "I can make it."
                            }
                        ]
                    }
                ]
            }
        ],
        "thread_ts": "1584421277.027900",
        "parent_user_id": "UV0QTJCMT"
    },
    {
        "client_msg_id": "c92cb621-2c05-4ec9-917a-9f3c9cee01dc",
        "type": "message",
        "text": "I will also join!",
        "user": "U0108C2Q332",
        "ts": "1584537976.043900",
        "team": "TUU48M0T1",
        "user_team": "TUU48M0T1",
        "source_team": "TUU48M0T1",
        "user_profile": {
            "avatar_hash": "a1a4ad71da8e",
            "image_72": "https:\/\/avatars.slack-edge.com\/2020-03-18\/996024024914_a1a4ad71da8ea2b5cfff_72.jpg",
            "first_name": "",
            "real_name": "Alessandro Meoli",
            "display_name": "Alessandro Meoli",
            "team": "TUU48M0T1",
            "name": "alessandromeoli",
            "is_restricted": false,
            "is_ultra_restricted": false
        },
        "blocks": [
            {
                "type": "rich_text",
                "block_id": "=ahVB",
                "elements": [
                    {
                        "type": "rich_text_section",
                        "elements": [
                            {
                                "type": "text",
                                "text": "I will also join!"
                            }
                        ]
                    }
                ]
            }
        ],
        "thread_ts": "1584421277.027900",
        "parent_user_id": "UV0QTJCMT"
    },
    {
        "client_msg_id": "4ae3eaec-c1bc-4c90-a785-2ed0adb63e37",
        "type": "message",
        "text": "<https:\/\/www.worldtimebuddy.com\/?qm=1&amp;lid=8,5,12&amp;h=12&amp;date=2020-3-21&amp;sln=19-20>",
        "user": "U0107NS25A4",
        "ts": "1584544718.044400",
        "team": "TUU48M0T1",
        "user_team": "TUU48M0T1",
        "source_team": "TUU48M0T1",
        "user_profile": {
            "avatar_hash": "g59a46c49b36",
            "image_72": "https:\/\/secure.gravatar.com\/avatar\/59a46c49b36e636ad0775c910915ee3b.jpg?s=72&d=https%3A%2F%2Fa.slack-edge.com%2Fdf10d%2Fimg%2Favatars%2Fava_0012-72.png",
            "first_name": "jmunsch",
            "real_name": "jmunsch",
            "display_name": "jmunsch",
            "team": "TUU48M0T1",
            "name": "james.a.munsch",
            "is_restricted": false,
            "is_ultra_restricted": false
        },
        "edited": {
            "user": "U0107NS25A4",
            "ts": "1584544757.000000"
        },
        "blocks": [
            {
                "type": "rich_text",
                "block_id": "52gh",
                "elements": [
                    {
                        "type": "rich_text_section",
                        "elements": [
                            {
                                "type": "link",
                                "url": "https:\/\/www.worldtimebuddy.com\/?qm=1&lid=8,5,12&h=12&date=2020-3-21&sln=19-20"
                            }
                        ]
                    }
                ]
            }
        ],
        "thread_ts": "1584421277.027900",
        "parent_user_id": "UV0QTJCMT"
    },
    {
        "client_msg_id": "5BD62F74-263D-46CF-A664-0A7C178DD6AD",
        "type": "message",
        "text": "Sounds good",
        "user": "UVA8VCCP5",
        "ts": "1584545739.045100",
        "team": "TUU48M0T1",
        "user_team": "TUU48M0T1",
        "source_team": "TUU48M0T1",
        "user_profile": {
            "avatar_hash": "g430eef727ed",
            "image_72": "https:\/\/secure.gravatar.com\/avatar\/430eef727edbee20c468a4a4c3898579.jpg?s=72&d=https%3A%2F%2Fa.slack-edge.com%2Fdf10d%2Fimg%2Favatars%2Fava_0019-72.png",
            "first_name": "",
            "real_name": "Adam Nekimken",
            "display_name": "",
            "team": "TUU48M0T1",
            "name": "adam.nekimken",
            "is_restricted": false,
            "is_ultra_restricted": false
        },
        "blocks": [
            {
                "type": "rich_text",
                "block_id": "Wvz",
                "elements": [
                    {
                        "type": "rich_text_section",
                        "elements": [
                            {
                                "type": "text",
                                "text": "Sounds good"
                            }
                        ]
                    }
                ]
            }
        ],
        "thread_ts": "1584421277.027900",
        "parent_user_id": "UV0QTJCMT"
    },
    {
        "client_msg_id": "779259f0-9176-453f-886a-cd0d7fba99cb",
        "type": "message",
        "text": "7 pm paris time works for me :+1:",
        "user": "U0109G7NH0D",
        "ts": "1584553336.045800",
        "team": "TUU48M0T1",
        "user_team": "TUU48M0T1",
        "source_team": "TUU48M0T1",
        "user_profile": {
            "avatar_hash": "g38975ebd07f",
            "image_72": "https:\/\/secure.gravatar.com\/avatar\/38975ebd07f6de623be292c2eae8364a.jpg?s=72&d=https%3A%2F%2Fa.slack-edge.com%2Fdf10d%2Fimg%2Favatars%2Fava_0022-72.png",
            "first_name": "",
            "real_name": "Michelle Wang",
            "display_name": "",
            "team": "TUU48M0T1",
            "name": "wangmichelle1995",
            "is_restricted": false,
            "is_ultra_restricted": false
        },
        "blocks": [
            {
                "type": "rich_text",
                "block_id": "vWAY",
                "elements": [
                    {
                        "type": "rich_text_section",
                        "elements": [
                            {
                                "type": "text",
                                "text": "7 pm paris time works for me "
                            },
                            {
                                "type": "emoji",
                                "name": "+1"
                            }
                        ]
                    }
                ]
            }
        ],
        "thread_ts": "1584421277.027900",
        "parent_user_id": "UV0QTJCMT"
    },
    {
        "client_msg_id": "d2988dc5-a2df-4d56-8a9d-a1257b8bc148",
        "type": "message",
        "text": "I can work on the document. Any requirements?",
        "user": "UV2P3AQEN",
        "ts": "1584560636.046200",
        "team": "TUU48M0T1",
        "user_team": "TUU48M0T1",
        "source_team": "TUU48M0T1",
        "user_profile": {
            "avatar_hash": "82d977ce9645",
            "image_72": "https:\/\/avatars.slack-edge.com\/2020-03-16\/1003452392327_82d977ce9645ebc30917_72.jpg",
            "first_name": "Antonio",
            "real_name": "Antonio Mangiapane",
            "display_name": "Antonio Mangiapane",
            "team": "TUU48M0T1",
            "name": "antonio.mangiapane29",
            "is_restricted": false,
            "is_ultra_restricted": false
        },
        "blocks": [
            {
                "type": "rich_text",
                "block_id": "NEwZ0",
                "elements": [
                    {
                        "type": "rich_text_section",
                        "elements": [
                            {
                                "type": "text",
                                "text": "I can work on the document. Any requirements?"
                            }
                        ]
                    }
                ]
            }
        ],
        "thread_ts": "1584421277.027900",
        "parent_user_id": "UV0QTJCMT"
    },
    {
        "client_msg_id": "85DEA04C-45FE-49D8-A631-F7B2F883E5DF",
        "type": "message",
        "text": "<@UV2P3AQEN> that’d be great! for now just making sure the name and date are on it and it’s in the folder. and then feel free to start listing some questions or bullet points you have :+1::+1:",
        "user": "UV0QTJCMT",
        "ts": "1584561367.047900",
        "team": "TUU48M0T1",
        "user_team": "TUU48M0T1",
        "source_team": "TUU48M0T1",
        "user_profile": {
            "avatar_hash": "11e3deb6d1a9",
            "image_72": "https:\/\/avatars.slack-edge.com\/2020-03-06\/986844736421_11e3deb6d1a949327ddd_72.png",
            "first_name": "Katherine",
            "real_name": "Katherine Holo",
            "display_name": "Kat Holo",
            "team": "TUU48M0T1",
            "name": "katherineh245",
            "is_restricted": false,
            "is_ultra_restricted": false
        },
        "blocks": [
            {
                "type": "rich_text",
                "block_id": "1TNg0",
                "elements": [
                    {
                        "type": "rich_text_section",
                        "elements": [
                            {
                                "type": "user",
                                "user_id": "UV2P3AQEN"
                            },
                            {
                                "type": "text",
                                "text": " that’d be great! for now just making sure the name and date are on it and it’s in the folder. and then feel free to start listing some questions or bullet points you have "
                            },
                            {
                                "type": "emoji",
                                "name": "+1"
                            },
                            {
                                "type": "emoji",
                                "name": "+1"
                            }
                        ]
                    }
                ]
            }
        ],
        "thread_ts": "1584421277.027900",
        "parent_user_id": "UV0QTJCMT"
    },
    {
        "client_msg_id": "a978851a-50b1-4ea5-ad25-42d980508b73",
        "type": "message",
        "text": "Hello! Eric here. I live in Brooklyn, NY. But I’m in Chicago with family for the covid19 quarantine. I’m mostly a software developer now, but I used to do architecture and product design (autocad, solidworks, etc.) I want to help ensure that we can produce cheap, available ventilators and PPEs (personal protective equipment)",
        "user": "UV8FL0JCA",
        "ts": "1584566967.048200",
        "team": "TUU48M0T1",
        "user_team": "TUU48M0T1",
        "source_team": "TUU48M0T1",
        "user_profile": {
            "avatar_hash": "920c820f5900",
            "image_72": "https:\/\/avatars.slack-edge.com\/2020-03-17\/1009529536646_920c820f5900215fb339_72.jpg",
            "first_name": "Eric",
            "real_name": "Eric Chaves",
            "display_name": "Eric Chaves",
            "team": "TUU48M0T1",
            "name": "eric.chaves.llc",
            "is_restricted": false,
            "is_ultra_restricted": false
        },
        "blocks": [
            {
                "type": "rich_text",
                "block_id": "NUzeB",
                "elements": [
                    {
                        "type": "rich_text_section",
                        "elements": [
                            {
                                "type": "text",
                                "text": "Hello! Eric here. I live in Brooklyn, NY. But I’m in Chicago with family for the covid19 quarantine. I’m mostly a software developer now, but I used to do architecture and product design (autocad, solidworks, etc.) I want to help ensure that we can produce cheap, available ventilators and PPEs (personal protective equipment)"
                            }
                        ]
                    }
                ]
            }
        ],
        "thread_ts": "1584421277.027900",
        "parent_user_id": "UV0QTJCMT",
        "reactions": [
            {
                "name": "+1",
                "users": [
                    "UV0QTJCMT"
                ],
                "count": 1
            }
        ]
    },
    {
        "client_msg_id": "a03b8d8c-a7bb-4a09-9a19-d321a52e7dc2",
        "type": "message",
        "text": "Hi all, I put together my own summary of all the open-source COVID-19 solutions I could find which were working on ventilators, PPE solutions, etc. The purpose of this summary is to be an image-heavy skimmable reference of these projects. I made it because I know that the medical community is super short on time, so I figured images would be much easier to skim to get a sense of what’s out there. Let me know if a similar doc exists somewhere else or if I could help move this to a more helpful place. <https:\/\/docs.google.com\/document\/d\/1DczBWaHiMBxT4umAzhgwTpK5ldzxBYP7MwfbBu_4I_U\/edit#heading=h.u90jt5a56zn6>",
        "user": "UV8FL0JCA",
        "ts": "1584567573.051400",
        "team": "TUU48M0T1",
        "user_team": "TUU48M0T1",
        "source_team": "TUU48M0T1",
        "user_profile": {
            "avatar_hash": "920c820f5900",
            "image_72": "https:\/\/avatars.slack-edge.com\/2020-03-17\/1009529536646_920c820f5900215fb339_72.jpg",
            "first_name": "Eric",
            "real_name": "Eric Chaves",
            "display_name": "Eric Chaves",
            "team": "TUU48M0T1",
            "name": "eric.chaves.llc",
            "is_restricted": false,
            "is_ultra_restricted": false
        },
        "blocks": [
            {
                "type": "rich_text",
                "block_id": "1HE6m",
                "elements": [
                    {
                        "type": "rich_text_section",
                        "elements": [
                            {
                                "type": "text",
                                "text": "Hi all, I put together my own summary of all the open-source COVID-19 solutions I could find which were working on ventilators, PPE solutions, etc. The purpose of this summary is to be an image-heavy skimmable reference of these projects. I made it because I know that the medical community is super short on time, so I figured images would be much easier to skim to get a sense of what’s out there. Let me know if a similar doc exists somewhere else or if I could help move this to a more helpful place. "
                            },
                            {
                                "type": "link",
                                "url": "https:\/\/docs.google.com\/document\/d\/1DczBWaHiMBxT4umAzhgwTpK5ldzxBYP7MwfbBu_4I_U\/edit#heading=h.u90jt5a56zn6"
                            }
                        ]
                    }
                ]
            }
        ],
        "reactions": [
            {
                "name": "+1",
                "users": [
                    "UVBLWGLQ3",
                    "UV2P3AQEN",
                    "UV0QTJCMT"
                ],
                "count": 3
            },
            {
                "name": "heart",
                "users": [
                    "U0109G7NH0D",
                    "UV0QTJCMT",
                    "UVADMLUB0"
                ],
                "count": 3
            },
            {
                "name": "slightly_smiling_face",
                "users": [
                    "U0109MDM2KH"
                ],
                "count": 1
            }
        ]
    },
    {
        "client_msg_id": "b7fabda2-d80f-4f43-9514-786a11f86857",
        "type": "message",
        "text": "Hi - we are currently developing a thermal sensor for motorsports, using a grid-type thermal array (like a FLIR). I realized that something similar could be used for detecting persons with infections. Would having additional resolution, like profiling the area where fever may be present (forehead, etc) might be useful in speeding case \/ symptom detection?",
        "user": "UVBEDFNPJ",
        "ts": "1584585532.056100",
        "team": "TUU48M0T1",
        "user_team": "TUU48M0T1",
        "source_team": "TUU48M0T1",
        "user_profile": {
            "avatar_hash": "g283f55a73d8",
            "image_72": "https:\/\/secure.gravatar.com\/avatar\/283f55a73d87c092accdfe6d3073482d.jpg?s=72&d=https%3A%2F%2Fa.slack-edge.com%2Fdf10d%2Fimg%2Favatars%2Fava_0009-72.png",
            "first_name": "",
            "real_name": "Brent Picasso",
            "display_name": "Brent Picasso",
            "team": "TUU48M0T1",
            "name": "brent",
            "is_restricted": false,
            "is_ultra_restricted": false
        },
        "blocks": [
            {
                "type": "rich_text",
                "block_id": "T2Z=I",
                "elements": [
                    {
                        "type": "rich_text_section",
                        "elements": [
                            {
                                "type": "text",
                                "text": "Hi - we are currently developing a thermal sensor for motorsports, using a grid-type thermal array (like a FLIR). I realized that something similar could be used for detecting persons with infections. Would having additional resolution, like profiling the area where fever may be present (forehead, etc) might be useful in speeding case \/ symptom detection?"
                            }
                        ]
                    }
                ]
            }
        ]
    },
    {
        "client_msg_id": "8afdb4e7-7871-4806-b149-7a56f9c2267f",
        "type": "message",
        "text": "You need to print with nylon filament as it's autoclave but you need a all metal extruder as the print temperature is 270 and it will mest the head.\nIf I were you:\nI would rather go with a silicone sheet sandwiching the filter all under a fabric mask as in Vietnam :<https:\/\/www.google.com\/url?sa=i&amp;url=https%3A%2F%2Fwww.alamy.com%2Fstock-photo-vietnam-hanoi-family-on-motorbike-wearing-pollution-masks-39376546.html&amp;psig=AOvVaw0t3Gk8A2A4OXVvmDrXVVTk&amp;ust=1584671809354000&amp;source=images&amp;cd=vfe&amp;ved=0CA0QjhxqFwoTCMi58tPApegCFQAAAAAdAAAAABAD>\nFabric can be autoclaved and it's snug because is flexible and light.\n\nAs for filter I don't think you can find anything that's very good. After all no filter is small enough to filter viruses, just good to offer adherence to saliva particles. Maybe several layers of spaced thin fabrics dipped in oil to maximize contact surface. You might need to design your own spray test system and experiment.\nMaybe you can look at paper making to see if you could control hole sizes. Or laser cutter to make your own holes.\n\nAnother way to make the masks is with simple plain silicone molds. It will take 1 day for the silicone to solidify.\n\nGood luck!!",
        "user": "U0103SR759U",
        "ts": "1584586462.061600",
        "team": "TUU48M0T1",
        "user_team": "TUU48M0T1",
        "source_team": "TUU48M0T1",
        "user_profile": {
            "avatar_hash": "g2694d379600",
            "image_72": "https:\/\/secure.gravatar.com\/avatar\/2694d3796008843d36d4b6ceff7f8660.jpg?s=72&d=https%3A%2F%2Fa.slack-edge.com%2Fdf10d%2Fimg%2Favatars%2Fava_0010-72.png",
            "first_name": "Adrian",
            "real_name": "Adrian Molecule",
            "display_name": "Adrian Molecule",
            "team": "TUU48M0T1",
            "name": "tada",
            "is_restricted": false,
            "is_ultra_restricted": false
        },
        "blocks": [
            {
                "type": "rich_text",
                "block_id": "eHt",
                "elements": [
                    {
                        "type": "rich_text_section",
                        "elements": [
                            {
                                "type": "text",
                                "text": "You need to print with nylon filament as it's autoclave but you need a all metal extruder as the print temperature is 270 and it will mest the head.\nIf I were you:\nI would rather go with a silicone sheet sandwiching the filter all under a fabric mask as in Vietnam :"
                            },
                            {
                                "type": "link",
                                "url": "https:\/\/www.google.com\/url?sa=i&url=https%3A%2F%2Fwww.alamy.com%2Fstock-photo-vietnam-hanoi-family-on-motorbike-wearing-pollution-masks-39376546.html&psig=AOvVaw0t3Gk8A2A4OXVvmDrXVVTk&ust=1584671809354000&source=images&cd=vfe&ved=0CA0QjhxqFwoTCMi58tPApegCFQAAAAAdAAAAABAD"
                            },
                            {
                                "type": "text",
                                "text": "\nFabric can be autoclaved and it's snug because is flexible and light.\n\nAs for filter I don't think you can find anything that's very good. After all no filter is small enough to filter viruses, just good to offer adherence to saliva particles. Maybe several layers of spaced thin fabrics dipped in oil to maximize contact surface. You might need to design your own spray test system and experiment.\nMaybe you can look at paper making to see if you could control hole sizes. Or laser cutter to make your own holes.\n\nAnother way to make the masks is with simple plain silicone molds. It will take 1 day for the silicone to solidify.\n\nGood luck!!"
                            }
                        ]
                    }
                ]
            }
        ]
    }
]