[
    {
        "client_msg_id": "7fcf98c6-1760-44a4-8228-bed97b8c670e",
        "type": "message",
        "text": "Just announced on SynbioBeta call:",
        "user": "UUPQGNNTV",
        "ts": "1585066241.040000",
        "team": "TUU48M0T1",
        "user_team": "TUU48M0T1",
        "source_team": "TUU48M0T1",
        "user_profile": {
            "avatar_hash": "c28127caf7eb",
            "image_72": "https:\/\/avatars.slack-edge.com\/2020-03-07\/989562470694_c28127caf7ebfe67df97_72.jpg",
            "first_name": "",
            "real_name": "Ellen Jorgensen",
            "display_name": "",
            "team": "TUU48M0T1",
            "name": "ejorgensen",
            "is_restricted": false,
            "is_ultra_restricted": false
        },
        "blocks": [
            {
                "type": "rich_text",
                "block_id": "yuugH",
                "elements": [
                    {
                        "type": "rich_text_section",
                        "elements": [
                            {
                                "type": "text",
                                "text": "Just announced on SynbioBeta call:"
                            }
                        ]
                    }
                ]
            }
        ]
    },
    {
        "client_msg_id": "77ca8e80-7637-4549-90ca-b145bfdfd65f",
        "type": "message",
        "text": "Over recent months, we’ve been modeling a new kind of endowment fund focused on solving global long-term problems with transparency and open governance\/participation. We didn’t see COVID coming but like many others felt compelled to help. So, we're jumping ahead of schedule and launching a COVID community fund to give grants to nonprofit \/ independent projects focused on COVID solutions i.e. researchers developing diagnostics, teams working on PPE distribution, etc. If helpful to you or anyone you know, just drop me a note at <mailto:roger@computable.io|roger@computable.io>.",
        "user": "UUPQGNNTV",
        "ts": "1585066243.040200",
        "team": "TUU48M0T1",
        "user_team": "TUU48M0T1",
        "source_team": "TUU48M0T1",
        "user_profile": {
            "avatar_hash": "c28127caf7eb",
            "image_72": "https:\/\/avatars.slack-edge.com\/2020-03-07\/989562470694_c28127caf7ebfe67df97_72.jpg",
            "first_name": "",
            "real_name": "Ellen Jorgensen",
            "display_name": "",
            "team": "TUU48M0T1",
            "name": "ejorgensen",
            "is_restricted": false,
            "is_ultra_restricted": false
        },
        "blocks": [
            {
                "type": "rich_text",
                "block_id": "Yymo",
                "elements": [
                    {
                        "type": "rich_text_section",
                        "elements": [
                            {
                                "type": "text",
                                "text": "Over recent months, we’ve been modeling a new kind of endowment fund focused on solving global long-term problems with transparency and open governance\/participation. We didn’t see COVID coming but like many others felt compelled to help. So, we're jumping ahead of schedule and launching a COVID community fund to give grants to nonprofit \/ independent projects focused on COVID solutions i.e. researchers developing diagnostics, teams working on PPE distribution, etc. If helpful to you or anyone you know, just drop me a note at "
                            },
                            {
                                "type": "link",
                                "url": "mailto:roger@computable.io",
                                "text": "roger@computable.io"
                            },
                            {
                                "type": "text",
                                "text": "."
                            }
                        ]
                    }
                ]
            }
        ],
        "reactions": [
            {
                "name": "the_horns",
                "users": [
                    "UUNGFHSV8",
                    "UV0QTJCMT",
                    "UV02WET96",
                    "UV3URUKK5"
                ],
                "count": 4
            }
        ]
    },
    {
        "client_msg_id": "33002111-dd7e-4ae0-9a89-dcb437c63c54",
        "type": "message",
        "text": "form Roger Chen",
        "user": "UUPQGNNTV",
        "ts": "1585066394.040400",
        "team": "TUU48M0T1",
        "user_team": "TUU48M0T1",
        "source_team": "TUU48M0T1",
        "user_profile": {
            "avatar_hash": "c28127caf7eb",
            "image_72": "https:\/\/avatars.slack-edge.com\/2020-03-07\/989562470694_c28127caf7ebfe67df97_72.jpg",
            "first_name": "",
            "real_name": "Ellen Jorgensen",
            "display_name": "",
            "team": "TUU48M0T1",
            "name": "ejorgensen",
            "is_restricted": false,
            "is_ultra_restricted": false
        },
        "blocks": [
            {
                "type": "rich_text",
                "block_id": "td5i",
                "elements": [
                    {
                        "type": "rich_text_section",
                        "elements": [
                            {
                                "type": "text",
                                "text": "form Roger Chen"
                            }
                        ]
                    }
                ]
            }
        ]
    },
    {
        "client_msg_id": "ec514b80-5861-4615-bcfc-25171522dfb4",
        "type": "message",
        "text": "from",
        "user": "UUPQGNNTV",
        "ts": "1585066397.040600",
        "team": "TUU48M0T1",
        "user_team": "TUU48M0T1",
        "source_team": "TUU48M0T1",
        "user_profile": {
            "avatar_hash": "c28127caf7eb",
            "image_72": "https:\/\/avatars.slack-edge.com\/2020-03-07\/989562470694_c28127caf7ebfe67df97_72.jpg",
            "first_name": "",
            "real_name": "Ellen Jorgensen",
            "display_name": "",
            "team": "TUU48M0T1",
            "name": "ejorgensen",
            "is_restricted": false,
            "is_ultra_restricted": false
        },
        "blocks": [
            {
                "type": "rich_text",
                "block_id": "CKS",
                "elements": [
                    {
                        "type": "rich_text_section",
                        "elements": [
                            {
                                "type": "text",
                                "text": "from"
                            }
                        ]
                    }
                ]
            }
        ]
    },
    {
        "client_msg_id": "42848b38-1919-49fb-a1f9-df7cbbfaed9e",
        "type": "message",
        "text": "This is great!",
        "user": "UV02WET96",
        "ts": "1585067158.041100",
        "team": "TUU48M0T1",
        "user_team": "TUU48M0T1",
        "source_team": "TUU48M0T1",
        "user_profile": {
            "avatar_hash": "a99c74a194f8",
            "image_72": "https:\/\/avatars.slack-edge.com\/2020-03-07\/975708504851_a99c74a194f86715ca7d_72.png",
            "first_name": "Thomas",
            "real_name": "Thomas Landrain",
            "display_name": "Thomas Landrain - CoFounder\/CEO JOGL",
            "team": "TUU48M0T1",
            "name": "thomas",
            "is_restricted": false,
            "is_ultra_restricted": false
        },
        "blocks": [
            {
                "type": "rich_text",
                "block_id": "EiI++",
                "elements": [
                    {
                        "type": "rich_text_section",
                        "elements": [
                            {
                                "type": "text",
                                "text": "This is great!"
                            }
                        ]
                    }
                ]
            }
        ]
    },
    {
        "client_msg_id": "39cc56e2-04f3-4f3a-8d13-3b2da970e99b",
        "type": "message",
        "text": "Manufacturing fund for 3D printing parts for all non-profits: <https:\/\/www.gofundme.com\/f\/covid19-manufacturing-fund>",
        "user": "UUNGFHSV8",
        "ts": "1585082774.042100",
        "team": "TUU48M0T1",
        "user_team": "TUU48M0T1",
        "source_team": "TUU48M0T1",
        "user_profile": {
            "avatar_hash": "1c55ee32397a",
            "image_72": "https:\/\/avatars.slack-edge.com\/2020-03-07\/987349161984_1c55ee32397a85a87ec4_72.png",
            "first_name": "Isaac",
            "real_name": "Isaac Larkin",
            "display_name": "Isaac Larkin",
            "team": "TUU48M0T1",
            "name": "eyesmo",
            "is_restricted": false,
            "is_ultra_restricted": false
        },
        "attachments": [
            {
                "service_name": "gofundme.com",
                "title": "Covid-19 Manufacturing Fund organized by 3D Hubs",
                "title_link": "https:\/\/www.gofundme.com\/f\/covid19-manufacturing-fund",
                "text": "The 3D Hubs team has launched the COVID-19 Manufacturing Fund,  to help manufacture critical parts… 3D Hubs needs your support for Covid-19 Manufacturing Fund",
                "fallback": "gofundme.com: Covid-19 Manufacturing Fund organized by 3D Hubs",
                "image_url": "https:\/\/d2g8igdw686xgo.cloudfront.net\/46394246_1585051962211797_r.jpeg",
                "from_url": "https:\/\/www.gofundme.com\/f\/covid19-manufacturing-fund",
                "image_width": 375,
                "image_height": 250,
                "image_bytes": 183070,
                "service_icon": "https:\/\/www.gofundme.com\/favicon.ico",
                "id": 1,
                "original_url": "https:\/\/www.gofundme.com\/f\/covid19-manufacturing-fund"
            }
        ],
        "blocks": [
            {
                "type": "rich_text",
                "block_id": "u=hE5",
                "elements": [
                    {
                        "type": "rich_text_section",
                        "elements": [
                            {
                                "type": "text",
                                "text": "Manufacturing fund for 3D printing parts for all non-profits: "
                            },
                            {
                                "type": "link",
                                "url": "https:\/\/www.gofundme.com\/f\/covid19-manufacturing-fund"
                            }
                        ]
                    }
                ]
            }
        ]
    },
    {
        "client_msg_id": "4a70b0f9-f62b-4dbc-a69c-573a935df772",
        "type": "message",
        "text": "Got this list of funding resources from another (academia\/industry-heavy) Slack; don’t know if there are any new sources compared to OpenCovid19's doc but might be worth comparing to check <https:\/\/docs.google.com\/document\/d\/1dxiT3SVqnoHvLv7UIiA-ybUqDWcyALxNmCdchGU01Bs\/edit#>",
        "user": "UUNGFHSV8",
        "ts": "1585092275.043700",
        "team": "TUU48M0T1",
        "user_team": "TUU48M0T1",
        "source_team": "TUU48M0T1",
        "user_profile": {
            "avatar_hash": "1c55ee32397a",
            "image_72": "https:\/\/avatars.slack-edge.com\/2020-03-07\/987349161984_1c55ee32397a85a87ec4_72.png",
            "first_name": "Isaac",
            "real_name": "Isaac Larkin",
            "display_name": "Isaac Larkin",
            "team": "TUU48M0T1",
            "name": "eyesmo",
            "is_restricted": false,
            "is_ultra_restricted": false
        },
        "blocks": [
            {
                "type": "rich_text",
                "block_id": "HH0",
                "elements": [
                    {
                        "type": "rich_text_section",
                        "elements": [
                            {
                                "type": "text",
                                "text": "Got this list of funding resources from another (academia\/industry-heavy) Slack; don’t know if there are any new sources compared to OpenCovid19's doc but might be worth comparing to check "
                            },
                            {
                                "type": "link",
                                "url": "https:\/\/docs.google.com\/document\/d\/1dxiT3SVqnoHvLv7UIiA-ybUqDWcyALxNmCdchGU01Bs\/edit#"
                            }
                        ]
                    }
                ]
            }
        ]
    }
]