[
    {
        "client_msg_id": "c897af8f-295d-4162-b558-cba2dc0f26c2",
        "type": "message",
        "text": "The mHub manufacturing accelerator in Chicago is putting together a team to work on building and funding low-cost ventilators; OpenCOVID19 people should reach out and connect with them! <https:\/\/cprcovid19.com\/blog\/31727>",
        "user": "UUNGFHSV8",
        "ts": "1584718890.037100",
        "team": "TUU48M0T1",
        "user_team": "TUU48M0T1",
        "source_team": "TUU48M0T1",
        "user_profile": {
            "avatar_hash": "1c55ee32397a",
            "image_72": "https:\/\/avatars.slack-edge.com\/2020-03-07\/987349161984_1c55ee32397a85a87ec4_72.png",
            "first_name": "Isaac",
            "real_name": "Isaac Larkin",
            "display_name": "Isaac Larkin",
            "team": "TUU48M0T1",
            "name": "eyesmo",
            "is_restricted": false,
            "is_ultra_restricted": false
        },
        "blocks": [
            {
                "type": "rich_text",
                "block_id": "Oig",
                "elements": [
                    {
                        "type": "rich_text_section",
                        "elements": [
                            {
                                "type": "text",
                                "text": "The mHub manufacturing accelerator in Chicago is putting together a team to work on building and funding low-cost ventilators; OpenCOVID19 people should reach out and connect with them! "
                            },
                            {
                                "type": "link",
                                "url": "https:\/\/cprcovid19.com\/blog\/31727"
                            }
                        ]
                    }
                ]
            }
        ],
        "thread_ts": "1584718890.037100",
        "reply_count": 1,
        "reply_users_count": 1,
        "latest_reply": "1584718927.037200",
        "reply_users": [
            "UVADMLUB0"
        ],
        "replies": [
            {
                "user": "UVADMLUB0",
                "ts": "1584718927.037200"
            }
        ],
        "subscribed": false,
        "reactions": [
            {
                "name": "+1",
                "users": [
                    "UV6870881"
                ],
                "count": 1
            }
        ]
    },
    {
        "client_msg_id": "8aed0707-de55-486a-bc50-473e75743ee6",
        "type": "message",
        "text": "<@UV10KBUQG>",
        "user": "UVADMLUB0",
        "ts": "1584718927.037200",
        "team": "TUU48M0T1",
        "user_team": "TUU48M0T1",
        "source_team": "TUU48M0T1",
        "user_profile": {
            "avatar_hash": "14179705705a",
            "image_72": "https:\/\/avatars.slack-edge.com\/2020-03-11\/981468022482_14179705705a94b3db16_72.jpg",
            "first_name": "Bill",
            "real_name": "Bill Slavin",
            "display_name": "Bill Slavin- Executive Director, Indie Lab",
            "team": "TUU48M0T1",
            "name": "bill",
            "is_restricted": false,
            "is_ultra_restricted": false
        },
        "blocks": [
            {
                "type": "rich_text",
                "block_id": "GaC",
                "elements": [
                    {
                        "type": "rich_text_section",
                        "elements": [
                            {
                                "type": "user",
                                "user_id": "UV10KBUQG"
                            }
                        ]
                    }
                ]
            }
        ],
        "thread_ts": "1584718890.037100",
        "parent_user_id": "UUNGFHSV8"
    },
    {
        "client_msg_id": "c6a40635-7112-432f-b792-42a019660b90",
        "type": "message",
        "text": "<https:\/\/techagainstcovid.com\/|https:\/\/techagainstcovid.com\/>\n<@UV02WET96>?",
        "user": "UUWPKNE2E",
        "ts": "1584729577.037700",
        "team": "TUU48M0T1",
        "user_team": "TUU48M0T1",
        "source_team": "TUU48M0T1",
        "user_profile": {
            "avatar_hash": "f620efd9688e",
            "image_72": "https:\/\/avatars.slack-edge.com\/2020-03-12\/997456647751_f620efd9688ed753ecfc_72.jpg",
            "first_name": "Luca",
            "real_name": "Luca Haenel",
            "display_name": "Luca Haenel - JOGL Developer",
            "team": "TUU48M0T1",
            "name": "luca.haenel",
            "is_restricted": false,
            "is_ultra_restricted": false
        },
        "blocks": [
            {
                "type": "rich_text",
                "block_id": "AbSI",
                "elements": [
                    {
                        "type": "rich_text_section",
                        "elements": [
                            {
                                "type": "link",
                                "url": "https:\/\/techagainstcovid.com\/",
                                "text": "https:\/\/techagainstcovid.com\/"
                            },
                            {
                                "type": "text",
                                "text": "\n"
                            },
                            {
                                "type": "user",
                                "user_id": "UV02WET96"
                            },
                            {
                                "type": "text",
                                "text": "?"
                            }
                        ]
                    }
                ]
            }
        ],
        "reactions": [
            {
                "name": "+1",
                "users": [
                    "UV02WET96"
                ],
                "count": 1
            }
        ]
    }
]