[
    {
        "type": "message",
        "text": "200,000$ to develop a new design of ventilator for Covid patients in Montreal\/Canada",
        "files": [
            {
                "id": "F010DL9H36K",
                "created": 1584625711,
                "timestamp": 1584625711,
                "name": "SmartSelect_20200319-093506_LinkedIn.jpg",
                "title": "SmartSelect_20200319-093506_LinkedIn.jpg",
                "mimetype": "image\/jpeg",
                "filetype": "jpg",
                "pretty_type": "JPEG",
                "user": "UV6870881",
                "editable": false,
                "size": 162505,
                "mode": "hosted",
                "is_external": false,
                "external_type": "",
                "is_public": true,
                "public_url_shared": false,
                "display_as_bot": false,
                "username": "",
                "url_private": "https:\/\/files.slack.com\/files-pri\/TUU48M0T1-F010DL9H36K\/smartselect_20200319-093506_linkedin.jpg?t=xoxe-980144714919-1031585465028-1034106672247-1815eabca44f30d1d2d966083f8c8bbb",
                "url_private_download": "https:\/\/files.slack.com\/files-pri\/TUU48M0T1-F010DL9H36K\/download\/smartselect_20200319-093506_linkedin.jpg?t=xoxe-980144714919-1031585465028-1034106672247-1815eabca44f30d1d2d966083f8c8bbb",
                "thumb_64": "https:\/\/files.slack.com\/files-tmb\/TUU48M0T1-F010DL9H36K-fcfd608676\/smartselect_20200319-093506_linkedin_64.jpg?t=xoxe-980144714919-1031585465028-1034106672247-1815eabca44f30d1d2d966083f8c8bbb",
                "thumb_80": "https:\/\/files.slack.com\/files-tmb\/TUU48M0T1-F010DL9H36K-fcfd608676\/smartselect_20200319-093506_linkedin_80.jpg?t=xoxe-980144714919-1031585465028-1034106672247-1815eabca44f30d1d2d966083f8c8bbb",
                "thumb_360": "https:\/\/files.slack.com\/files-tmb\/TUU48M0T1-F010DL9H36K-fcfd608676\/smartselect_20200319-093506_linkedin_360.jpg?t=xoxe-980144714919-1031585465028-1034106672247-1815eabca44f30d1d2d966083f8c8bbb",
                "thumb_360_w": 240,
                "thumb_360_h": 360,
                "thumb_480": "https:\/\/files.slack.com\/files-tmb\/TUU48M0T1-F010DL9H36K-fcfd608676\/smartselect_20200319-093506_linkedin_480.jpg?t=xoxe-980144714919-1031585465028-1034106672247-1815eabca44f30d1d2d966083f8c8bbb",
                "thumb_480_w": 320,
                "thumb_480_h": 480,
                "thumb_160": "https:\/\/files.slack.com\/files-tmb\/TUU48M0T1-F010DL9H36K-fcfd608676\/smartselect_20200319-093506_linkedin_160.jpg?t=xoxe-980144714919-1031585465028-1034106672247-1815eabca44f30d1d2d966083f8c8bbb",
                "thumb_720": "https:\/\/files.slack.com\/files-tmb\/TUU48M0T1-F010DL9H36K-fcfd608676\/smartselect_20200319-093506_linkedin_720.jpg?t=xoxe-980144714919-1031585465028-1034106672247-1815eabca44f30d1d2d966083f8c8bbb",
                "thumb_720_w": 480,
                "thumb_720_h": 720,
                "thumb_800": "https:\/\/files.slack.com\/files-tmb\/TUU48M0T1-F010DL9H36K-fcfd608676\/smartselect_20200319-093506_linkedin_800.jpg?t=xoxe-980144714919-1031585465028-1034106672247-1815eabca44f30d1d2d966083f8c8bbb",
                "thumb_800_w": 800,
                "thumb_800_h": 1200,
                "thumb_960": "https:\/\/files.slack.com\/files-tmb\/TUU48M0T1-F010DL9H36K-fcfd608676\/smartselect_20200319-093506_linkedin_960.jpg?t=xoxe-980144714919-1031585465028-1034106672247-1815eabca44f30d1d2d966083f8c8bbb",
                "thumb_960_w": 640,
                "thumb_960_h": 960,
                "thumb_1024": "https:\/\/files.slack.com\/files-tmb\/TUU48M0T1-F010DL9H36K-fcfd608676\/smartselect_20200319-093506_linkedin_1024.jpg?t=xoxe-980144714919-1031585465028-1034106672247-1815eabca44f30d1d2d966083f8c8bbb",
                "thumb_1024_w": 682,
                "thumb_1024_h": 1024,
                "image_exif_rotation": 1,
                "original_w": 1071,
                "original_h": 1607,
                "thumb_tiny": "AwAwAB+\/\/E2W69vSlGB\/FSYyxwRml2H2oAXcPWlBB6UmweppQuOhNADCxyeaTcfWlI56N+VAXJx835UAJuPrT1bPWjZ7mgJg5yaAGE\/MeaM+9KRyev5UuzPf9KAG59\/1pyHt\/WjZ705VxQB\/\/9k=",
                "permalink": "https:\/\/open-covid19.slack.com\/files\/UV6870881\/F010DL9H36K\/smartselect_20200319-093506_linkedin.jpg",
                "permalink_public": "https:\/\/slack-files.com\/TUU48M0T1-F010DL9H36K-27a6ae0cf4",
                "is_starred": false,
                "has_rich_preview": false
            }
        ],
        "upload": true,
        "blocks": [
            {
                "type": "rich_text",
                "block_id": "JA3y",
                "elements": [
                    {
                        "type": "rich_text_section",
                        "elements": [
                            {
                                "type": "text",
                                "text": "200,000$ to develop a new design of ventilator for Covid patients in Montreal\/Canada"
                            }
                        ]
                    }
                ]
            }
        ],
        "user": "UV6870881",
        "display_as_bot": false,
        "ts": "1584625715.035100",
        "client_msg_id": "040e5443-c6f3-4da4-af07-ba5a2a81517d",
        "reactions": [
            {
                "name": "+1",
                "users": [
                    "UV02WET96"
                ],
                "count": 1
            }
        ]
    },
    {
        "client_msg_id": "ba670ece-b01a-4304-a6fc-9eb6ee9a8fc9",
        "type": "message",
        "text": "Herox has a pandemic challenge: <https:\/\/www.herox.com\/pandemicschallenge?utm_source=new-challenges-digest&amp;utm_medium=email&amp;kme=new-challenges-digest|https:\/\/www.herox.com\/pandemicschallenge?utm_source=new-challenges-digest&amp;utm_medium=email&amp;kme=new-challenges-digest>",
        "user": "UVADMLUB0",
        "ts": "1584665791.036600",
        "team": "TUU48M0T1",
        "user_team": "TUU48M0T1",
        "source_team": "TUU48M0T1",
        "user_profile": {
            "avatar_hash": "14179705705a",
            "image_72": "https:\/\/avatars.slack-edge.com\/2020-03-11\/981468022482_14179705705a94b3db16_72.jpg",
            "first_name": "Bill",
            "real_name": "Bill Slavin",
            "display_name": "Bill Slavin- Executive Director, Indie Lab",
            "team": "TUU48M0T1",
            "name": "bill",
            "is_restricted": false,
            "is_ultra_restricted": false
        },
        "attachments": [
            {
                "title": "Health Security and Pandemics Challenge | HeroX",
                "title_link": "https:\/\/www.herox.com\/pandemicschallenge?utm_source=new-challenges-digest&utm_medium=email&kme=new-challenges-digest",
                "text": "How can communities around the world use technology to prepare for, detect, and respond to emerging pandemics and health security threats?",
                "fallback": "Health Security and Pandemics Challenge | HeroX",
                "image_url": "https:\/\/d253pvgap36xx8.cloudfront.net\/challenges\/image\/7f906b98658111ea9301562d1a36b1c7.jpg",
                "from_url": "https:\/\/www.herox.com\/pandemicschallenge?utm_source=new-challenges-digest&utm_medium=email&kme=new-challenges-digest",
                "image_width": 444,
                "image_height": 250,
                "image_bytes": 517210,
                "service_icon": "https:\/\/d253pvgap36xx8.cloudfront.net\/static\/icons\/home\/192.png",
                "service_name": "herox.com",
                "id": 1,
                "original_url": "https:\/\/www.herox.com\/pandemicschallenge?utm_source=new-challenges-digest&amp;utm_medium=email&amp;kme=new-challenges-digest"
            }
        ],
        "blocks": [
            {
                "type": "rich_text",
                "block_id": "Ss5nq",
                "elements": [
                    {
                        "type": "rich_text_section",
                        "elements": [
                            {
                                "type": "text",
                                "text": "Herox has a pandemic challenge: "
                            },
                            {
                                "type": "link",
                                "url": "https:\/\/www.herox.com\/pandemicschallenge?utm_source=new-challenges-digest&utm_medium=email&kme=new-challenges-digest",
                                "text": "https:\/\/www.herox.com\/pandemicschallenge?utm_source=new-challenges-digest&utm_medium=email&kme=new-challenges-digest"
                            }
                        ]
                    }
                ]
            }
        ]
    }
]