[
    {
        "client_msg_id": "09ce63e5-0dfd-42d7-8b28-6469343ac262",
        "type": "message",
        "text": "Ginkgo Bioworks is offering $25 million in free biotechnological foundry services for efforts to detect and combat COVID-19. <https:\/\/www.ginkgobioworks.com\/2020\/03\/17\/ginkgo-commits-25m-of-free-access-to-our-platform-for-partner-covid-19-projects\/>",
        "user": "UUNGFHSV8",
        "ts": "1584479495.028700",
        "team": "TUU48M0T1",
        "user_team": "TUU48M0T1",
        "source_team": "TUU48M0T1",
        "user_profile": {
            "avatar_hash": "1c55ee32397a",
            "image_72": "https:\/\/avatars.slack-edge.com\/2020-03-07\/987349161984_1c55ee32397a85a87ec4_72.png",
            "first_name": "Isaac",
            "real_name": "Isaac Larkin",
            "display_name": "Isaac Larkin",
            "team": "TUU48M0T1",
            "name": "eyesmo",
            "is_restricted": false,
            "is_ultra_restricted": false
        },
        "attachments": [
            {
                "service_name": "Ginkgo Bioworks",
                "title": "Ginkgo commits $25M of free access to our platform for partner COVID-19 projects - Ginkgo Bioworks",
                "title_link": "https:\/\/www.ginkgobioworks.com\/2020\/03\/17\/ginkgo-commits-25m-of-free-access-to-our-platform-for-partner-covid-19-projects\/",
                "text": "We’re inspired and heartened by the tremendous public health response to COVID-19, and recognize that a similar scale of effort is needed by the biotech community to find long-term solutions to this crisis. Former FDA commissioner Scott Gottlieb said today: “We must get a drug and eventually vaccine. We can have treatments, antibody prophylaxis, point …",
                "fallback": "Ginkgo Bioworks: Ginkgo commits $25M of free access to our platform for partner COVID-19 projects - Ginkgo Bioworks",
                "thumb_url": "https:\/\/www.ginkgobioworks.com\/wp-content\/uploads\/2020\/03\/Ginkgo_product16128-1024x768.jpg",
                "ts": 1584456299,
                "from_url": "https:\/\/www.ginkgobioworks.com\/2020\/03\/17\/ginkgo-commits-25m-of-free-access-to-our-platform-for-partner-covid-19-projects\/",
                "thumb_width": 1024,
                "thumb_height": 768,
                "service_icon": "https:\/\/www.ginkgobioworks.com\/apple-touch-icon-57x57.png",
                "id": 1,
                "original_url": "https:\/\/www.ginkgobioworks.com\/2020\/03\/17\/ginkgo-commits-25m-of-free-access-to-our-platform-for-partner-covid-19-projects\/"
            }
        ],
        "blocks": [
            {
                "type": "rich_text",
                "block_id": "unci",
                "elements": [
                    {
                        "type": "rich_text_section",
                        "elements": [
                            {
                                "type": "text",
                                "text": "Ginkgo Bioworks is offering $25 million in free biotechnological foundry services for efforts to detect and combat COVID-19. "
                            },
                            {
                                "type": "link",
                                "url": "https:\/\/www.ginkgobioworks.com\/2020\/03\/17\/ginkgo-commits-25m-of-free-access-to-our-platform-for-partner-covid-19-projects\/"
                            }
                        ]
                    }
                ]
            }
        ]
    },
    {
        "client_msg_id": "1f28ee65-4dec-4b40-9357-6e55307085c7",
        "type": "message",
        "text": "^ can someone add this to the funding document",
        "user": "UV0QTJCMT",
        "ts": "1584479513.029200",
        "team": "TUU48M0T1",
        "user_team": "TUU48M0T1",
        "source_team": "TUU48M0T1",
        "user_profile": {
            "avatar_hash": "11e3deb6d1a9",
            "image_72": "https:\/\/avatars.slack-edge.com\/2020-03-06\/986844736421_11e3deb6d1a949327ddd_72.png",
            "first_name": "Katherine",
            "real_name": "Katherine Holo",
            "display_name": "Kat Holo",
            "team": "TUU48M0T1",
            "name": "katherineh245",
            "is_restricted": false,
            "is_ultra_restricted": false
        },
        "blocks": [
            {
                "type": "rich_text",
                "block_id": "xMWT",
                "elements": [
                    {
                        "type": "rich_text_section",
                        "elements": [
                            {
                                "type": "text",
                                "text": "^ can someone add this to the funding document"
                            }
                        ]
                    }
                ]
            }
        ],
        "thread_ts": "1584479513.029200",
        "reply_count": 2,
        "reply_users_count": 2,
        "latest_reply": "1584480166.029500",
        "reply_users": [
            "UUNGFHSV8",
            "UV0QTJCMT"
        ],
        "replies": [
            {
                "user": "UUNGFHSV8",
                "ts": "1584479634.029300"
            },
            {
                "user": "UV0QTJCMT",
                "ts": "1584480166.029500"
            }
        ],
        "subscribed": false
    },
    {
        "client_msg_id": "b4d8ac8e-d9c6-4b06-bd9d-7995d87594a4",
        "type": "message",
        "text": "Just did",
        "user": "UUNGFHSV8",
        "ts": "1584479634.029300",
        "team": "TUU48M0T1",
        "user_team": "TUU48M0T1",
        "source_team": "TUU48M0T1",
        "user_profile": {
            "avatar_hash": "1c55ee32397a",
            "image_72": "https:\/\/avatars.slack-edge.com\/2020-03-07\/987349161984_1c55ee32397a85a87ec4_72.png",
            "first_name": "Isaac",
            "real_name": "Isaac Larkin",
            "display_name": "Isaac Larkin",
            "team": "TUU48M0T1",
            "name": "eyesmo",
            "is_restricted": false,
            "is_ultra_restricted": false
        },
        "blocks": [
            {
                "type": "rich_text",
                "block_id": "HwCP",
                "elements": [
                    {
                        "type": "rich_text_section",
                        "elements": [
                            {
                                "type": "text",
                                "text": "Just did"
                            }
                        ]
                    }
                ]
            }
        ],
        "thread_ts": "1584479513.029200",
        "parent_user_id": "UV0QTJCMT"
    },
    {
        "client_msg_id": "d5c0cb14-5147-4628-b782-cea330d43643",
        "type": "message",
        "text": "thank you!",
        "user": "UV0QTJCMT",
        "ts": "1584480166.029500",
        "team": "TUU48M0T1",
        "user_team": "TUU48M0T1",
        "source_team": "TUU48M0T1",
        "user_profile": {
            "avatar_hash": "11e3deb6d1a9",
            "image_72": "https:\/\/avatars.slack-edge.com\/2020-03-06\/986844736421_11e3deb6d1a949327ddd_72.png",
            "first_name": "Katherine",
            "real_name": "Katherine Holo",
            "display_name": "Kat Holo",
            "team": "TUU48M0T1",
            "name": "katherineh245",
            "is_restricted": false,
            "is_ultra_restricted": false
        },
        "blocks": [
            {
                "type": "rich_text",
                "block_id": "PkD",
                "elements": [
                    {
                        "type": "rich_text_section",
                        "elements": [
                            {
                                "type": "text",
                                "text": "thank you!"
                            }
                        ]
                    }
                ]
            }
        ],
        "thread_ts": "1584479513.029200",
        "parent_user_id": "UV0QTJCMT"
    },
    {
        "client_msg_id": "0766BE73-8443-452D-B79A-1A586EE43C86",
        "type": "message",
        "text": "<@UVADMLUB0> Used to be sam@ycombinator. Prob now <mailto:sam@openai.com|sam@openai.com>",
        "user": "UUVC28VNW",
        "ts": "1584497737.031400",
        "team": "TUU48M0T1",
        "user_team": "TUU48M0T1",
        "source_team": "TUU48M0T1",
        "user_profile": {
            "avatar_hash": "g043992485ea",
            "image_72": "https:\/\/secure.gravatar.com\/avatar\/043992485ea85d5a98f34e6ad42d47f6.jpg?s=72&d=https%3A%2F%2Fa.slack-edge.com%2Fdf10d%2Fimg%2Favatars%2Fava_0026-72.png",
            "first_name": "Eri",
            "real_name": "Eri Gentry",
            "display_name": "Eri Gentry",
            "team": "TUU48M0T1",
            "name": "eri",
            "is_restricted": false,
            "is_ultra_restricted": false
        },
        "blocks": [
            {
                "type": "rich_text",
                "block_id": "4z5",
                "elements": [
                    {
                        "type": "rich_text_section",
                        "elements": [
                            {
                                "type": "user",
                                "user_id": "UVADMLUB0"
                            },
                            {
                                "type": "text",
                                "text": " Used to be sam@ycombinator. Prob now "
                            },
                            {
                                "type": "link",
                                "url": "mailto:sam@openai.com",
                                "text": "sam@openai.com"
                            }
                        ]
                    }
                ]
            }
        ],
        "thread_ts": "1584296592.022000",
        "parent_user_id": "UUVC28VNW"
    }
]