[
    {
        "type": "message",
        "subtype": "channel_join",
        "ts": "1583799831.000200",
        "user": "UV02WET96",
        "text": "<@UV02WET96> has joined the channel"
    },
    {
        "type": "message",
        "subtype": "channel_join",
        "ts": "1583799924.000400",
        "user": "UUQM4L2AF",
        "text": "<@UUQM4L2AF> has joined the channel",
        "inviter": "UV02WET96"
    },
    {
        "type": "message",
        "subtype": "channel_join",
        "ts": "1583799924.000600",
        "user": "UUPQGNNTV",
        "text": "<@UUPQGNNTV> has joined the channel",
        "inviter": "UV02WET96"
    },
    {
        "type": "message",
        "subtype": "channel_join",
        "ts": "1583799924.000800",
        "user": "UUUEFQW8N",
        "text": "<@UUUEFQW8N> has joined the channel",
        "inviter": "UV02WET96"
    },
    {
        "client_msg_id": "9ebabf6e-8c79-42f0-addc-ed09705c9cd3",
        "type": "message",
        "text": "Hey! There is a real momentum around environmental monitoring of the Coronavirus. It deserves to be an entire sub-section of the OpenCovid19 initiative. It’s also the perfect subject for academic labs and community labs to collaborate. JOGL can be used to leverage a larger community of participants.",
        "user": "UV02WET96",
        "ts": "1583800072.003000",
        "team": "TUU48M0T1",
        "user_team": "TUU48M0T1",
        "source_team": "TUU48M0T1",
        "user_profile": {
            "avatar_hash": "a99c74a194f8",
            "image_72": "https:\/\/avatars.slack-edge.com\/2020-03-07\/975708504851_a99c74a194f86715ca7d_72.png",
            "first_name": "Thomas",
            "real_name": "Thomas Landrain",
            "display_name": "Thomas Landrain - CoFounder\/CEO JOGL",
            "team": "TUU48M0T1",
            "name": "thomas",
            "is_restricted": false,
            "is_ultra_restricted": false
        },
        "blocks": [
            {
                "type": "rich_text",
                "block_id": "7=S",
                "elements": [
                    {
                        "type": "rich_text_section",
                        "elements": [
                            {
                                "type": "text",
                                "text": "Hey! There is a real momentum around environmental monitoring of the Coronavirus. It deserves to be an entire sub-section of the OpenCovid19 initiative. It’s also the perfect subject for academic labs and community labs to collaborate. JOGL can be used to leverage a larger community of participants."
                            }
                        ]
                    }
                ]
            }
        ]
    },
    {
        "client_msg_id": "866af637-956d-43ba-b0cd-fb08ed74372e",
        "type": "message",
        "text": "Here is what I sent out to the Network of Independent BioSpaces email list yesterday:\n\nThe MetaSUB network is leveraging its existing infrastructure to conduct environmental swabbing for the presence of viral RNA. If you are interested in joining, please fill out the form below. Feel free to ask any questions of me, Ben or Krista (emails in the form).\n\n1 swab = 1 site (rub sterile swab against surface for 3 mins and place in 1ml tube containing buffer). 1 rack = 96 tubes.\n\n<https:\/\/docs.google.com\/forms\/d\/e\/1FAIpQLSfHjxa2mfs01HRR22CQH0g93MtJJe5-0p5U2tn96qJPQm1SIg\/viewform>",
        "user": "UUQM4L2AF",
        "ts": "1583800322.003700",
        "team": "TUU48M0T1",
        "user_team": "TUU48M0T1",
        "source_team": "TUU48M0T1",
        "user_profile": {
            "avatar_hash": "8498d1c7b98b",
            "image_72": "https:\/\/avatars.slack-edge.com\/2020-03-08\/988293405557_8498d1c7b98b63b41054_72.jpg",
            "first_name": "",
            "real_name": "JJ Hastings",
            "display_name": "JJ Hastings",
            "team": "TUU48M0T1",
            "name": "astro.hacker.2001",
            "is_restricted": false,
            "is_ultra_restricted": false
        },
        "blocks": [
            {
                "type": "rich_text",
                "block_id": "1kP",
                "elements": [
                    {
                        "type": "rich_text_section",
                        "elements": [
                            {
                                "type": "text",
                                "text": "Here is what I sent out to the Network of Independent BioSpaces email list yesterday:\n\nThe MetaSUB network is leveraging its existing infrastructure to conduct environmental swabbing for the presence of viral RNA. If you are interested in joining, please fill out the form below. Feel free to ask any questions of me, Ben or Krista (emails in the form).\n\n1 swab = 1 site (rub sterile swab against surface for 3 mins and place in 1ml tube containing buffer). 1 rack = 96 tubes.\n\n"
                            },
                            {
                                "type": "link",
                                "url": "https:\/\/docs.google.com\/forms\/d\/e\/1FAIpQLSfHjxa2mfs01HRR22CQH0g93MtJJe5-0p5U2tn96qJPQm1SIg\/viewform"
                            }
                        ]
                    }
                ]
            }
        ]
    }
]