[
    {
        "client_msg_id": "30c0906b-db37-4cb8-9ce1-7146ef02f596",
        "type": "message",
        "text": "thanks, <@U52KBSW9X>!",
        "user": "US5J9BX0S",
        "ts": "1584256694.000200",
        "team": "TUU48M0T1",
        "user_team": "T48QEEVTJ",
        "source_team": "T48QEEVTJ",
        "user_profile": {
            "avatar_hash": "d095530d9f8a",
            "image_72": "https:\/\/avatars.slack-edge.com\/2020-01-10\/902417618453_d095530d9f8af5c16607_72.jpg",
            "first_name": "Eric",
            "real_name": "Eric J. Daza, DrPH, MPS",
            "display_name": "Eric Jay Daza",
            "team": "T48QEEVTJ",
            "name": "ericjdaza013",
            "is_restricted": false,
            "is_ultra_restricted": false
        },
        "blocks": [
            {
                "type": "rich_text",
                "block_id": "T4r",
                "elements": [
                    {
                        "type": "rich_text_section",
                        "elements": [
                            {
                                "type": "text",
                                "text": "thanks, "
                            },
                            {
                                "type": "user",
                                "user_id": "U52KBSW9X"
                            },
                            {
                                "type": "text",
                                "text": "!"
                            }
                        ]
                    }
                ]
            }
        ],
        "thread_ts": "1584228614.005700",
        "parent_user_id": "U52KBSW9X"
    },
    {
        "type": "message",
        "subtype": "channel_join",
        "ts": "1584265617.000200",
        "user": "UHFUVU5C4",
        "text": "<@UHFUVU5C4> has joined the channel"
    },
    {
        "type": "message",
        "subtype": "channel_join",
        "ts": "1584269156.000200",
        "user": "UHLHUFQA3",
        "text": "<@UHLHUFQA3> has joined the channel"
    }
]