[
    {
        "client_msg_id": "63d078f0-fc8a-4dc6-a4bc-f44ebc5a316b",
        "type": "message",
        "text": "This was a good introduction to covid 19 <https:\/\/youtu.be\/SbRF29dgZss>",
        "user": "URHMFRQHK",
        "ts": "1584439030.000500",
        "team": "TUU48M0T1",
        "user_team": "T48QEEVTJ",
        "source_team": "T48QEEVTJ",
        "user_profile": {
            "avatar_hash": "g5cf7ddee9a3",
            "image_72": "https:\/\/secure.gravatar.com\/avatar\/5cf7ddee9a30c58049904c6c9322151c.jpg?s=72&d=https%3A%2F%2Fa.slack-edge.com%2Fdf10d%2Fimg%2Favatars%2Fava_0013-72.png",
            "first_name": "",
            "real_name": "James Littlejohn",
            "display_name": "James Littlejohn",
            "team": "T48QEEVTJ",
            "name": "aboynejames",
            "is_restricted": false,
            "is_ultra_restricted": false
        },
        "attachments": [
            {
                "service_name": "YouTube",
                "service_url": "https:\/\/www.youtube.com\/",
                "title": "What do I need to know about COVID-19?",
                "title_link": "https:\/\/youtu.be\/SbRF29dgZss",
                "author_name": "Singularity University",
                "author_link": "https:\/\/www.youtube.com\/user\/singularityu",
                "thumb_url": "https:\/\/i.ytimg.com\/vi\/SbRF29dgZss\/hqdefault.jpg",
                "thumb_width": 480,
                "thumb_height": 360,
                "fallback": "YouTube Video: What do I need to know about COVID-19?",
                "video_html": "<iframe width=\"400\" height=\"225\" src=\"https:\/\/www.youtube.com\/embed\/SbRF29dgZss?feature=oembed&autoplay=1&iv_load_policy=3\" frameborder=\"0\" allow=\"accelerometer; autoplay; encrypted-media; gyroscope; picture-in-picture\" allowfullscreen><\/iframe>",
                "video_html_width": 400,
                "video_html_height": 225,
                "from_url": "https:\/\/youtu.be\/SbRF29dgZss",
                "service_icon": "https:\/\/a.slack-edge.com\/80588\/img\/unfurl_icons\/youtube.png",
                "id": 1,
                "original_url": "https:\/\/youtu.be\/SbRF29dgZss"
            }
        ],
        "blocks": [
            {
                "type": "rich_text",
                "block_id": "jrLA",
                "elements": [
                    {
                        "type": "rich_text_section",
                        "elements": [
                            {
                                "type": "text",
                                "text": "This was a good introduction to covid 19 "
                            },
                            {
                                "type": "link",
                                "url": "https:\/\/youtu.be\/SbRF29dgZss"
                            }
                        ]
                    }
                ]
            }
        ]
    },
    {
        "type": "message",
        "subtype": "channel_join",
        "ts": "1584454871.000800",
        "user": "U0102UHSJ0L",
        "text": "<@U0102UHSJ0L> has joined the channel"
    },
    {
        "type": "message",
        "subtype": "channel_join",
        "ts": "1584456270.001000",
        "user": "UV9P9CJHX",
        "text": "<@UV9P9CJHX> has joined the channel"
    },
    {
        "client_msg_id": "75ad6109-2447-420b-9cdd-efe9818557f6",
        "type": "message",
        "text": "Has anyone already tried the current test version at <https:\/\/quantifiedflu.herokuapp.com\/>? :slightly_smiling_face:",
        "user": "U52KBSW9X",
        "ts": "1584456802.001400",
        "team": "TUU48M0T1",
        "user_team": "T48QEEVTJ",
        "source_team": "T48QEEVTJ",
        "user_profile": {
            "avatar_hash": "079d4f4301af",
            "image_72": "https:\/\/avatars.slack-edge.com\/2019-07-28\/696974040114_079d4f4301af057e28c1_72.jpg",
            "first_name": "Bastian",
            "real_name": "Bastian Greshake Tzovaras",
            "display_name": "gedankenstuecke",
            "team": "T48QEEVTJ",
            "name": "gedankenstuecke",
            "is_restricted": false,
            "is_ultra_restricted": false
        },
        "attachments": [
            {
                "title": "Quantified Flu",
                "title_link": "https:\/\/quantifiedflu.herokuapp.com\/",
                "text": "Quantified Flu is a project to explore personal tracking and infectious disease",
                "fallback": "Quantified Flu",
                "from_url": "https:\/\/quantifiedflu.herokuapp.com\/",
                "service_icon": "https:\/\/quantifiedflu.herokuapp.com\/static\/img\/favicon-32x32.2387edd2fc67.png",
                "service_name": "quantifiedflu.herokuapp.com",
                "id": 1,
                "original_url": "https:\/\/quantifiedflu.herokuapp.com\/"
            }
        ],
        "blocks": [
            {
                "type": "rich_text",
                "block_id": "FzYq",
                "elements": [
                    {
                        "type": "rich_text_section",
                        "elements": [
                            {
                                "type": "text",
                                "text": "Has anyone already tried the current test version at "
                            },
                            {
                                "type": "link",
                                "url": "https:\/\/quantifiedflu.herokuapp.com\/"
                            },
                            {
                                "type": "text",
                                "text": "? "
                            },
                            {
                                "type": "emoji",
                                "name": "slightly_smiling_face"
                            }
                        ]
                    }
                ]
            }
        ]
    },
    {
        "type": "message",
        "subtype": "channel_join",
        "ts": "1584457934.001700",
        "user": "UELJCMA12",
        "text": "<@UELJCMA12> has joined the channel"
    },
    {
        "client_msg_id": "d18861d5-cc93-47b9-b1eb-29d878755f44",
        "type": "message",
        "text": "<!here> I added heart rate tracking to the Open Humans &lt;&gt; GoogleFit integration",
        "user": "UELJCMA12",
        "ts": "1584459160.002200",
        "team": "TUU48M0T1",
        "user_team": "T48QEEVTJ",
        "source_team": "T48QEEVTJ",
        "user_profile": {
            "avatar_hash": "gea75ee33133",
            "image_72": "https:\/\/secure.gravatar.com\/avatar\/3ea75ee33133b9866bdb993e26e8da79.jpg?s=72&d=https%3A%2F%2Fa.slack-edge.com%2Fdf10d%2Fimg%2Favatars%2Fava_0004-72.png",
            "first_name": "",
            "real_name": "Ariadni-Karolina Alexiou",
            "display_name": "carolinux",
            "team": "T48QEEVTJ",
            "name": "carolinegr",
            "is_restricted": false,
            "is_ultra_restricted": false
        },
        "blocks": [
            {
                "type": "rich_text",
                "block_id": "HtIH",
                "elements": [
                    {
                        "type": "rich_text_section",
                        "elements": [
                            {
                                "type": "broadcast",
                                "range": "here"
                            },
                            {
                                "type": "text",
                                "text": " I added heart rate tracking to the Open Humans <> GoogleFit integration"
                            }
                        ]
                    }
                ]
            }
        ]
    },
    {
        "client_msg_id": "2b98d46f-5611-44cf-a91b-48315874e9b7",
        "type": "message",
        "text": "what <@UELJCMA12> is asking is: does anyone of you have an android watch\/wearable that would track heart rate to test whether it works? :slightly_smiling_face:",
        "user": "U52KBSW9X",
        "ts": "1584462509.003000",
        "team": "TUU48M0T1",
        "user_team": "T48QEEVTJ",
        "source_team": "T48QEEVTJ",
        "user_profile": {
            "avatar_hash": "079d4f4301af",
            "image_72": "https:\/\/avatars.slack-edge.com\/2019-07-28\/696974040114_079d4f4301af057e28c1_72.jpg",
            "first_name": "Bastian",
            "real_name": "Bastian Greshake Tzovaras",
            "display_name": "gedankenstuecke",
            "team": "T48QEEVTJ",
            "name": "gedankenstuecke",
            "is_restricted": false,
            "is_ultra_restricted": false
        },
        "blocks": [
            {
                "type": "rich_text",
                "block_id": "JIuci",
                "elements": [
                    {
                        "type": "rich_text_section",
                        "elements": [
                            {
                                "type": "text",
                                "text": "what "
                            },
                            {
                                "type": "user",
                                "user_id": "UELJCMA12"
                            },
                            {
                                "type": "text",
                                "text": " is asking is: does anyone of you have an android watch\/wearable that would track heart rate to test whether it works? "
                            },
                            {
                                "type": "emoji",
                                "name": "slightly_smiling_face"
                            }
                        ]
                    }
                ]
            }
        ]
    },
    {
        "client_msg_id": "0858c5d9-595e-4b40-aed4-54415c0160cf",
        "type": "message",
        "text": "I also cleaned up the quantified flu github repo a bit: made some open issues, wrote a contributing-doc and added some basic information to the readme: <https:\/\/github.com\/madprime\/quantified-flu> :slightly_smiling_face:",
        "user": "U52KBSW9X",
        "ts": "1584462545.003800",
        "team": "TUU48M0T1",
        "user_team": "T48QEEVTJ",
        "source_team": "T48QEEVTJ",
        "user_profile": {
            "avatar_hash": "079d4f4301af",
            "image_72": "https:\/\/avatars.slack-edge.com\/2019-07-28\/696974040114_079d4f4301af057e28c1_72.jpg",
            "first_name": "Bastian",
            "real_name": "Bastian Greshake Tzovaras",
            "display_name": "gedankenstuecke",
            "team": "T48QEEVTJ",
            "name": "gedankenstuecke",
            "is_restricted": false,
            "is_ultra_restricted": false
        },
        "blocks": [
            {
                "type": "rich_text",
                "block_id": "RyM",
                "elements": [
                    {
                        "type": "rich_text_section",
                        "elements": [
                            {
                                "type": "text",
                                "text": "I also cleaned up the quantified flu github repo a bit: made some open issues, wrote a contributing-doc and added some basic information to the readme: "
                            },
                            {
                                "type": "link",
                                "url": "https:\/\/github.com\/madprime\/quantified-flu"
                            },
                            {
                                "type": "text",
                                "text": " "
                            },
                            {
                                "type": "emoji",
                                "name": "slightly_smiling_face"
                            }
                        ]
                    }
                ]
            }
        ]
    }
]