[
    {
        "client_msg_id": "ca260782-bb83-4725-9e51-c1a03261cec0",
        "type": "message",
        "text": "the German government is doing a covid19 hackathon (we vs the virus) this weekend: <https:\/\/wirvsvirushackathon.org\/>",
        "user": "U52KBSW9X",
        "ts": "1584541208.000400",
        "team": "TUU48M0T1",
        "user_team": "T48QEEVTJ",
        "source_team": "T48QEEVTJ",
        "user_profile": {
            "avatar_hash": "079d4f4301af",
            "image_72": "https:\/\/avatars.slack-edge.com\/2019-07-28\/696974040114_079d4f4301af057e28c1_72.jpg",
            "first_name": "Bastian",
            "real_name": "Bastian Greshake Tzovaras",
            "display_name": "gedankenstuecke",
            "team": "T48QEEVTJ",
            "name": "gedankenstuecke",
            "is_restricted": false,
            "is_ultra_restricted": false
        },
        "attachments": [
            {
                "service_name": "#WirVSVirus",
                "title": "WirVsVirus - Der Hackathon der Bundesregierung - Corona \/ Covid-19",
                "title_link": "https:\/\/wirvsvirushackathon.org\/",
                "text": "48 Stunden. Herausforderungen der Bundesregierung und aus der Gesellschaft. Du und theoretisch 80 Millionen andere. Eine Krise. Vielfältige Lösungen.",
                "fallback": "#WirVSVirus: WirVsVirus - Der Hackathon der Bundesregierung - Corona \/ Covid-19",
                "image_url": "https:\/\/wirvsvirushackathon.org\/wp-content\/uploads\/2020\/03\/Hackathon_Post_Social-Media.jpg",
                "image_width": 444,
                "image_height": 250,
                "from_url": "https:\/\/wirvsvirushackathon.org\/",
                "image_bytes": 190945,
                "service_icon": "https:\/\/wirvsvirushackathon.org\/wp-content\/uploads\/2020\/03\/cropped-artboard_copy-e1584473998384-1-180x180.jpg",
                "id": 1,
                "original_url": "https:\/\/wirvsvirushackathon.org\/"
            }
        ],
        "blocks": [
            {
                "type": "rich_text",
                "block_id": "5xH",
                "elements": [
                    {
                        "type": "rich_text_section",
                        "elements": [
                            {
                                "type": "text",
                                "text": "the German government is doing a covid19 hackathon (we vs the virus) this weekend: "
                            },
                            {
                                "type": "link",
                                "url": "https:\/\/wirvsvirushackathon.org\/"
                            }
                        ]
                    }
                ]
            }
        ],
        "reactions": [
            {
                "name": "+1",
                "users": [
                    "UKB404YG1"
                ],
                "count": 1
            }
        ]
    },
    {
        "client_msg_id": "8f780b1b-1f4c-48e9-ad22-4db02c589953",
        "type": "message",
        "text": "The period to propose projects that participants can hack on finishes tomorrow. As I’ll be stuck at home in any case I’ll probably enter the quantifiedflu as a potential project and we’ll see whether it’s included or not",
        "user": "U52KBSW9X",
        "ts": "1584541256.001400",
        "team": "TUU48M0T1",
        "user_team": "T48QEEVTJ",
        "source_team": "T48QEEVTJ",
        "user_profile": {
            "avatar_hash": "079d4f4301af",
            "image_72": "https:\/\/avatars.slack-edge.com\/2019-07-28\/696974040114_079d4f4301af057e28c1_72.jpg",
            "first_name": "Bastian",
            "real_name": "Bastian Greshake Tzovaras",
            "display_name": "gedankenstuecke",
            "team": "T48QEEVTJ",
            "name": "gedankenstuecke",
            "is_restricted": false,
            "is_ultra_restricted": false
        },
        "blocks": [
            {
                "type": "rich_text",
                "block_id": "+R8Ra",
                "elements": [
                    {
                        "type": "rich_text_section",
                        "elements": [
                            {
                                "type": "text",
                                "text": "The period to propose projects that participants can hack on finishes tomorrow. As I’ll be stuck at home in any case I’ll probably enter the quantifiedflu as a potential project and we’ll see whether it’s included or not"
                            }
                        ]
                    }
                ]
            }
        ],
        "reactions": [
            {
                "name": "+1",
                "users": [
                    "U4EFEMFS9",
                    "UKB404YG1"
                ],
                "count": 2
            }
        ]
    },
    {
        "client_msg_id": "45B1661F-F906-4929-B11E-8D58D5CE920F",
        "type": "message",
        "text": "Sounds good to me!",
        "user": "U4A6D8F6J",
        "ts": "1584548431.001700",
        "team": "TUU48M0T1",
        "user_team": "T48QEEVTJ",
        "source_team": "T48QEEVTJ",
        "user_profile": {
            "avatar_hash": "4dc43012615b",
            "image_72": "https:\/\/avatars.slack-edge.com\/2019-10-17\/801801580071_4dc43012615b2074c521_72.jpg",
            "first_name": "Mad",
            "real_name": "Mad Price Ball",
            "display_name": "madprime",
            "team": "T48QEEVTJ",
            "name": "madprime",
            "is_restricted": false,
            "is_ultra_restricted": false
        },
        "blocks": [
            {
                "type": "rich_text",
                "block_id": "DK5",
                "elements": [
                    {
                        "type": "rich_text_section",
                        "elements": [
                            {
                                "type": "text",
                                "text": "Sounds good to me!"
                            }
                        ]
                    }
                ]
            }
        ]
    },
    {
        "client_msg_id": "533986af-5cc9-45ce-96e2-9afdb2f20178",
        "type": "message",
        "text": ":sigh: our baby just got sick, five days into isolating ourselves as a family.\n\n_but_ my vicks smart temp thermometer arrived (apparently two days ago, in the mailbox, unchecked) – and it's pretty cool. the associated app allows me to record:\n• temperatures from the device as well as manually entered (and a location: oral, armpit, rectal)\n• \"events\" which can be...\n• medication\n• symptoms (cough, sore throat, chills, body ache, ear ache, nausea, stomach ache, fatigue, short breath, headache, diarrhea, runny nose)\n• a free text \"notes\" field\nData is exportable per personal profile (i.e. not the whole family at once), via CSV sent to email. The resulting CSV looks like this:\n```Date,Temp,Location,Symptoms,Medications,Notes,\n3\/18\/20 5:30 PM,99.3F,Rectal,None,None,Viral conjunctivitis,```",
        "user": "U4A6D8F6J",
        "ts": "1584592730.007800",
        "team": "TUU48M0T1",
        "user_team": "T48QEEVTJ",
        "source_team": "T48QEEVTJ",
        "user_profile": {
            "avatar_hash": "4dc43012615b",
            "image_72": "https:\/\/avatars.slack-edge.com\/2019-10-17\/801801580071_4dc43012615b2074c521_72.jpg",
            "first_name": "Mad",
            "real_name": "Mad Price Ball",
            "display_name": "madprime",
            "team": "T48QEEVTJ",
            "name": "madprime",
            "is_restricted": false,
            "is_ultra_restricted": false
        },
        "edited": {
            "user": "U4A6D8F6J",
            "ts": "1584592773.000000"
        },
        "blocks": [
            {
                "type": "rich_text",
                "block_id": "pMv",
                "elements": [
                    {
                        "type": "rich_text_section",
                        "elements": [
                            {
                                "type": "text",
                                "text": ":sigh: our baby just got sick, five days into isolating ourselves as a family.\n\n"
                            },
                            {
                                "type": "text",
                                "text": "but",
                                "style": {
                                    "italic": true
                                }
                            },
                            {
                                "type": "text",
                                "text": " my vicks smart temp thermometer arrived (apparently two days ago, in the mailbox, unchecked) – and it's pretty cool. the associated app allows me to record:\n"
                            }
                        ]
                    },
                    {
                        "type": "rich_text_list",
                        "elements": [
                            {
                                "type": "rich_text_section",
                                "elements": [
                                    {
                                        "type": "text",
                                        "text": "temperatures from the device as well as manually entered (and a location: oral, armpit, rectal)"
                                    }
                                ]
                            },
                            {
                                "type": "rich_text_section",
                                "elements": [
                                    {
                                        "type": "text",
                                        "text": "\"events\" which can be..."
                                    }
                                ]
                            },
                            {
                                "type": "rich_text_section",
                                "elements": [
                                    {
                                        "type": "text",
                                        "text": "medication"
                                    }
                                ]
                            },
                            {
                                "type": "rich_text_section",
                                "elements": [
                                    {
                                        "type": "text",
                                        "text": "symptoms (cough, sore throat, chills, body ache, ear ache, nausea, stomach ache, fatigue, short breath, headache, diarrhea, runny nose)"
                                    }
                                ]
                            },
                            {
                                "type": "rich_text_section",
                                "elements": [
                                    {
                                        "type": "text",
                                        "text": "a free text \"notes\" field"
                                    }
                                ]
                            }
                        ],
                        "style": "bullet",
                        "indent": 0
                    },
                    {
                        "type": "rich_text_section",
                        "elements": [
                            {
                                "type": "text",
                                "text": "\nData is exportable per personal profile (i.e. not the whole family at once), via CSV sent to email. The resulting CSV looks like this:\n"
                            }
                        ]
                    },
                    {
                        "type": "rich_text_preformatted",
                        "elements": [
                            {
                                "type": "text",
                                "text": "Date,Temp,Location,Symptoms,Medications,Notes,\n3\/18\/20 5:30 PM,99.3F,Rectal,None,None,Viral conjunctivitis,"
                            }
                        ]
                    }
                ]
            }
        ],
        "thread_ts": "1584592730.007800",
        "reply_count": 8,
        "reply_users_count": 3,
        "latest_reply": "1584996964.001500",
        "reply_users": [
            "US5J9BX0S",
            "U4A6D8F6J",
            "UKB404YG1"
        ],
        "replies": [
            {
                "user": "US5J9BX0S",
                "ts": "1584594930.008100"
            },
            {
                "user": "US5J9BX0S",
                "ts": "1584594945.008300"
            },
            {
                "user": "U4A6D8F6J",
                "ts": "1584595056.008600"
            },
            {
                "user": "UKB404YG1",
                "ts": "1584739107.034400"
            },
            {
                "user": "U4A6D8F6J",
                "ts": "1584739185.034600"
            },
            {
                "user": "UKB404YG1",
                "ts": "1584739507.034800"
            },
            {
                "user": "U4A6D8F6J",
                "ts": "1584739727.035000"
            },
            {
                "user": "UKB404YG1",
                "ts": "1584996964.001500"
            }
        ],
        "subscribed": false,
        "reactions": [
            {
                "name": "worried",
                "users": [
                    "UKB404YG1"
                ],
                "count": 1
            }
        ]
    },
    {
        "client_msg_id": "1ce1d354-9690-4e28-bf1d-34cb04174df0",
        "type": "message",
        "text": "so sorry to hear it, Mad :slightly_frowning_face:",
        "user": "US5J9BX0S",
        "ts": "1584594930.008100",
        "team": "TUU48M0T1",
        "user_team": "T48QEEVTJ",
        "source_team": "T48QEEVTJ",
        "user_profile": {
            "avatar_hash": "d095530d9f8a",
            "image_72": "https:\/\/avatars.slack-edge.com\/2020-01-10\/902417618453_d095530d9f8af5c16607_72.jpg",
            "first_name": "Eric",
            "real_name": "Eric J. Daza, DrPH, MPS",
            "display_name": "Eric Jay Daza",
            "team": "T48QEEVTJ",
            "name": "ericjdaza013",
            "is_restricted": false,
            "is_ultra_restricted": false
        },
        "edited": {
            "user": "US5J9BX0S",
            "ts": "1584594950.000000"
        },
        "blocks": [
            {
                "type": "rich_text",
                "block_id": "5psmK",
                "elements": [
                    {
                        "type": "rich_text_section",
                        "elements": [
                            {
                                "type": "text",
                                "text": "so sorry to hear it, Mad "
                            },
                            {
                                "type": "emoji",
                                "name": "slightly_frowning_face"
                            }
                        ]
                    }
                ]
            }
        ],
        "thread_ts": "1584592730.007800",
        "parent_user_id": "U4A6D8F6J"
    },
    {
        "client_msg_id": "365968eb-c580-42c0-a46f-187d4b426772",
        "type": "message",
        "text": "i'm glad you have the thermometer!",
        "user": "US5J9BX0S",
        "ts": "1584594945.008300",
        "team": "TUU48M0T1",
        "user_team": "T48QEEVTJ",
        "source_team": "T48QEEVTJ",
        "user_profile": {
            "avatar_hash": "d095530d9f8a",
            "image_72": "https:\/\/avatars.slack-edge.com\/2020-01-10\/902417618453_d095530d9f8af5c16607_72.jpg",
            "first_name": "Eric",
            "real_name": "Eric J. Daza, DrPH, MPS",
            "display_name": "Eric Jay Daza",
            "team": "T48QEEVTJ",
            "name": "ericjdaza013",
            "is_restricted": false,
            "is_ultra_restricted": false
        },
        "blocks": [
            {
                "type": "rich_text",
                "block_id": "Iy4c",
                "elements": [
                    {
                        "type": "rich_text_section",
                        "elements": [
                            {
                                "type": "text",
                                "text": "i'm glad you have the thermometer!"
                            }
                        ]
                    }
                ]
            }
        ],
        "thread_ts": "1584592730.007800",
        "parent_user_id": "U4A6D8F6J"
    },
    {
        "client_msg_id": "ec9c834c-b75e-475a-8fa4-cbf410446bdd",
        "type": "message",
        "text": "Thanks! I'm so annoyed. But also, it's so cool! can't wait to use it on the baby. he'll be thrilled. :joy: (the entry above was a manually added temp.)",
        "user": "U4A6D8F6J",
        "ts": "1584595056.008600",
        "team": "TUU48M0T1",
        "user_team": "T48QEEVTJ",
        "source_team": "T48QEEVTJ",
        "user_profile": {
            "avatar_hash": "4dc43012615b",
            "image_72": "https:\/\/avatars.slack-edge.com\/2019-10-17\/801801580071_4dc43012615b2074c521_72.jpg",
            "first_name": "Mad",
            "real_name": "Mad Price Ball",
            "display_name": "madprime",
            "team": "T48QEEVTJ",
            "name": "madprime",
            "is_restricted": false,
            "is_ultra_restricted": false
        },
        "blocks": [
            {
                "type": "rich_text",
                "block_id": "2hi0",
                "elements": [
                    {
                        "type": "rich_text_section",
                        "elements": [
                            {
                                "type": "text",
                                "text": "Thanks! I'm so annoyed. But also, it's so cool! can't wait to use it on the baby. he'll be thrilled. "
                            },
                            {
                                "type": "emoji",
                                "name": "joy"
                            },
                            {
                                "type": "text",
                                "text": " (the entry above was a manually added temp.)"
                            }
                        ]
                    }
                ]
            }
        ],
        "thread_ts": "1584592730.007800",
        "parent_user_id": "U4A6D8F6J",
        "reactions": [
            {
                "name": "smile",
                "users": [
                    "US5J9BX0S",
                    "U52KBSW9X"
                ],
                "count": 2
            }
        ]
    }
]