[
    {
        "type": "message",
        "text": "so i had a question\/concern about the master google sheet structure--so it looks like <@UV0GKVDUZ> has drafted a version that's really similar to the <https:\/\/docs.google.com\/spreadsheets\/d\/1lWxKqigGPZyltGb6Tj_vSU9rz1gWEqb1BaEH_JAvtpw\/edit#gid=246174073|ronin plan> that <@UV87UQ37A> shared--i definitely agree with having tasks\/active people\/important docs\/etc, easily accesible in a central location, but im not sure that a running list of tasks will reall work program-wide. especially since each project is going to have its own comprehensive list of tasks and with all of them in the same place it'll quickly and quite possibly get confusing to follow.\n\ni think the current sheet\/ronin plan works great for program-wide groups such as funding or governance or communications, but was wondering if we should instead adapt the sheet to have a tab per challenge (versus one dedicated solely for research). so in each of the four challenge tabs, there's a running list of projects (not each project's individual needs\/tasks) and their relevant people\/documents. we could have an expectations that project leaders have a running list of tasks easily accessible, regularly updated in their folder and have it be the challenge leaders' responsibilities to help connect individual members with relevant tasks\/projects based on their interests etc and make sure that project leaders are updating their task sheet.",
        "upload": false,
        "blocks": [
            {
                "type": "rich_text",
                "block_id": "6mr",
                "elements": [
                    {
                        "type": "rich_text_section",
                        "elements": [
                            {
                                "type": "text",
                                "text": "so i had a question\/concern about the master google sheet structure--so it looks like "
                            },
                            {
                                "type": "user",
                                "user_id": "UV0GKVDUZ"
                            },
                            {
                                "type": "text",
                                "text": " has drafted a version that's really similar to the "
                            },
                            {
                                "type": "link",
                                "url": "https:\/\/docs.google.com\/spreadsheets\/d\/1lWxKqigGPZyltGb6Tj_vSU9rz1gWEqb1BaEH_JAvtpw\/edit#gid=246174073",
                                "text": "ronin plan"
                            },
                            {
                                "type": "text",
                                "text": " that "
                            },
                            {
                                "type": "user",
                                "user_id": "UV87UQ37A"
                            },
                            {
                                "type": "text",
                                "text": " shared--i definitely agree with having tasks\/active people\/important docs\/etc, easily accesible in a central location, but im not sure that a running list of tasks will reall work program-wide. especially since each project is going to have its own comprehensive list of tasks and with all of them in the same place it'll quickly and quite possibly get confusing to follow.\n\ni think the current sheet\/ronin plan works great for program-wide groups such as funding or governance or communications, but was wondering if we should instead adapt the sheet to have a tab per challenge (versus one dedicated solely for research). so in each of the four challenge tabs, there's a running list of projects (not each project's individual needs\/tasks) and their relevant people\/documents. we could have an expectations that project leaders have a running list of tasks easily accessible, regularly updated in their folder and have it be the challenge leaders' responsibilities to help connect individual members with relevant tasks\/projects based on their interests etc and make sure that project leaders are updating their task sheet."
                            }
                        ]
                    }
                ]
            }
        ],
        "user": "UV0QTJCMT",
        "ts": "1584175212.030900",
        "edited": {
            "user": "UV0QTJCMT",
            "ts": "1584175348.000000"
        },
        "client_msg_id": "7fd669a2-9275-4590-9ecd-2132c8e758f5",
        "thread_ts": "1584175212.030900",
        "reply_count": 7,
        "reply_users_count": 3,
        "latest_reply": "1584214560.059400",
        "reply_users": [
            "UV2SC7ZE3",
            "UV0GKVDUZ",
            "UV87UQ37A"
        ],
        "replies": [
            {
                "user": "UV2SC7ZE3",
                "ts": "1584199636.036500"
            },
            {
                "user": "UV0GKVDUZ",
                "ts": "1584208280.047500"
            },
            {
                "user": "UV0GKVDUZ",
                "ts": "1584208301.047700"
            },
            {
                "user": "UV87UQ37A",
                "ts": "1584214520.058700"
            },
            {
                "user": "UV0GKVDUZ",
                "ts": "1584214542.059000"
            },
            {
                "user": "UV0GKVDUZ",
                "ts": "1584214554.059200"
            },
            {
                "user": "UV87UQ37A",
                "ts": "1584214560.059400"
            }
        ],
        "subscribed": false,
        "reactions": [
            {
                "name": "+1",
                "users": [
                    "UV0GKVDUZ",
                    "UV2SC7ZE3"
                ],
                "count": 2
            }
        ]
    },
    {
        "client_msg_id": "b6c28e00-b327-462d-b250-c44fc5543887",
        "type": "message",
        "text": "<!channel> Good news! The program structure is finally ready! :rocket:",
        "user": "UV02WET96",
        "ts": "1584195671.033000",
        "team": "TUU48M0T1",
        "user_team": "TUU48M0T1",
        "source_team": "TUU48M0T1",
        "user_profile": {
            "avatar_hash": "a99c74a194f8",
            "image_72": "https:\/\/avatars.slack-edge.com\/2020-03-07\/975708504851_a99c74a194f86715ca7d_72.png",
            "first_name": "Thomas",
            "real_name": "Thomas Landrain",
            "display_name": "Thomas Landrain - CoFounder\/CEO JOGL",
            "team": "TUU48M0T1",
            "name": "thomas",
            "is_restricted": false,
            "is_ultra_restricted": false
        },
        "blocks": [
            {
                "type": "rich_text",
                "block_id": "UPpX",
                "elements": [
                    {
                        "type": "rich_text_section",
                        "elements": [
                            {
                                "type": "broadcast",
                                "range": "channel"
                            },
                            {
                                "type": "text",
                                "text": " Good news! The program structure is finally ready! "
                            },
                            {
                                "type": "emoji",
                                "name": "rocket"
                            }
                        ]
                    }
                ]
            }
        ]
    },
    {
        "type": "message",
        "subtype": "channel_join",
        "ts": "1584197220.033200",
        "user": "U01016B7KPY",
        "text": "<@U01016B7KPY> has joined the channel",
        "inviter": "UV02WET96"
    },
    {
        "client_msg_id": "cd09f33e-36bb-4fa7-ae74-fc32a6471a90",
        "type": "message",
        "text": "Hi, I have just joined the group and am listening to see if there is some way that I can contribute. Thanks for having me in the group.",
        "user": "U01016B7KPY",
        "ts": "1584197277.033800",
        "team": "TUU48M0T1",
        "user_team": "TUU48M0T1",
        "source_team": "TUU48M0T1",
        "user_profile": {
            "avatar_hash": "9a7d8bed69ad",
            "image_72": "https:\/\/avatars.slack-edge.com\/2020-03-13\/1001221150774_9a7d8bed69ad082201d0_72.jpg",
            "first_name": "",
            "real_name": "Jennifer Deegan",
            "display_name": "Jennifer Deegan",
            "team": "TUU48M0T1",
            "name": "jendeegan",
            "is_restricted": false,
            "is_ultra_restricted": false
        },
        "blocks": [
            {
                "type": "rich_text",
                "block_id": "RLHZS",
                "elements": [
                    {
                        "type": "rich_text_section",
                        "elements": [
                            {
                                "type": "text",
                                "text": "Hi, I have just joined the group and am listening to see if there is some way that I can contribute. Thanks for having me in the group."
                            }
                        ]
                    }
                ]
            }
        ]
    },
    {
        "client_msg_id": "aba5ff00-ecc2-4a4c-b661-1c2df2f0ffb7",
        "type": "message",
        "text": "<!channel> Who would like to work on making better our current onboarding process? We are in a dire need of it :100:",
        "user": "UV02WET96",
        "ts": "1584197565.035500",
        "team": "TUU48M0T1",
        "user_team": "TUU48M0T1",
        "source_team": "TUU48M0T1",
        "user_profile": {
            "avatar_hash": "a99c74a194f8",
            "image_72": "https:\/\/avatars.slack-edge.com\/2020-03-07\/975708504851_a99c74a194f86715ca7d_72.png",
            "first_name": "Thomas",
            "real_name": "Thomas Landrain",
            "display_name": "Thomas Landrain - CoFounder\/CEO JOGL",
            "team": "TUU48M0T1",
            "name": "thomas",
            "is_restricted": false,
            "is_ultra_restricted": false
        },
        "edited": {
            "user": "UV02WET96",
            "ts": "1584198277.000000"
        },
        "blocks": [
            {
                "type": "rich_text",
                "block_id": "mjCpL",
                "elements": [
                    {
                        "type": "rich_text_section",
                        "elements": [
                            {
                                "type": "broadcast",
                                "range": "channel"
                            },
                            {
                                "type": "text",
                                "text": " Who would like to work on making better our current onboarding process? We are in a dire need of it "
                            },
                            {
                                "type": "emoji",
                                "name": "100"
                            }
                        ]
                    }
                ]
            }
        ],
        "thread_ts": "1584197565.035500",
        "reply_count": 10,
        "reply_users_count": 4,
        "latest_reply": "1584208762.052100",
        "reply_users": [
            "UV2SC7ZE3",
            "UV02WET96",
            "UUWR0FJ7M",
            "UUS2G6N6M"
        ],
        "replies": [
            {
                "user": "UV2SC7ZE3",
                "ts": "1584200928.037400"
            },
            {
                "user": "UV02WET96",
                "ts": "1584200963.037700"
            },
            {
                "user": "UV02WET96",
                "ts": "1584200972.037900"
            },
            {
                "user": "UV2SC7ZE3",
                "ts": "1584201012.038100"
            },
            {
                "user": "UV02WET96",
                "ts": "1584201026.038300"
            },
            {
                "user": "UUWR0FJ7M",
                "ts": "1584203759.041900"
            },
            {
                "user": "UUS2G6N6M",
                "ts": "1584208114.044200"
            },
            {
                "user": "UV2SC7ZE3",
                "ts": "1584208222.046200"
            },
            {
                "user": "UV02WET96",
                "ts": "1584208419.049400"
            },
            {
                "user": "UUS2G6N6M",
                "ts": "1584208762.052100"
            }
        ],
        "subscribed": false
    },
    {
        "client_msg_id": "dbab31f1-9a31-4ef1-9e2d-9308f58154c2",
        "type": "message",
        "text": "I think it would be best if I just listen for a while, if that's okay.",
        "user": "U01016B7KPY",
        "ts": "1584197886.036100",
        "team": "TUU48M0T1",
        "user_team": "TUU48M0T1",
        "source_team": "TUU48M0T1",
        "user_profile": {
            "avatar_hash": "9a7d8bed69ad",
            "image_72": "https:\/\/avatars.slack-edge.com\/2020-03-13\/1001221150774_9a7d8bed69ad082201d0_72.jpg",
            "first_name": "",
            "real_name": "Jennifer Deegan",
            "display_name": "Jennifer Deegan",
            "team": "TUU48M0T1",
            "name": "jendeegan",
            "is_restricted": false,
            "is_ultra_restricted": false
        },
        "blocks": [
            {
                "type": "rich_text",
                "block_id": "8BpzZ",
                "elements": [
                    {
                        "type": "rich_text_section",
                        "elements": [
                            {
                                "type": "text",
                                "text": "I think it would be best if I just listen for a while, if that's okay."
                            }
                        ]
                    }
                ]
            }
        ]
    },
    {
        "client_msg_id": "8ebafc0d-78fe-4838-abf2-3217b5422164",
        "type": "message",
        "text": "I think that would be better too, since each project will have a lot of tasks to do and it will have to be updated frequently. I def think that we should just have a sheet for the projects.",
        "user": "UV2SC7ZE3",
        "ts": "1584199636.036500",
        "team": "TUU48M0T1",
        "user_team": "TUU48M0T1",
        "source_team": "TUU48M0T1",
        "user_profile": {
            "avatar_hash": "d28dd0d076e8",
            "image_72": "https:\/\/avatars.slack-edge.com\/2020-03-14\/987873094258_d28dd0d076e8fa9a8409_72.png",
            "first_name": "David",
            "real_name": "David Lu",
            "display_name": "David Lu",
            "team": "TUU48M0T1",
            "name": "ludavidyi",
            "is_restricted": false,
            "is_ultra_restricted": false
        },
        "blocks": [
            {
                "type": "rich_text",
                "block_id": "ld8",
                "elements": [
                    {
                        "type": "rich_text_section",
                        "elements": [
                            {
                                "type": "text",
                                "text": "I think that would be better too, since each project will have a lot of tasks to do and it will have to be updated frequently. I def think that we should just have a sheet for the projects."
                            }
                        ]
                    }
                ]
            }
        ],
        "thread_ts": "1584175212.030900",
        "parent_user_id": "UV0QTJCMT",
        "reactions": [
            {
                "name": "+1",
                "users": [
                    "UUS2G6N6M",
                    "UV0QTJCMT"
                ],
                "count": 2
            }
        ]
    },
    {
        "client_msg_id": "b2a730a2-ca6d-47f7-8a8e-bebba60d0237",
        "type": "message",
        "text": "I can help with that. The helpful engineering slack server has a greet bot. Could I perhaps draft a document with a message that greetbot will send to new members?",
        "user": "UV2SC7ZE3",
        "ts": "1584200928.037400",
        "team": "TUU48M0T1",
        "user_team": "TUU48M0T1",
        "source_team": "TUU48M0T1",
        "user_profile": {
            "avatar_hash": "d28dd0d076e8",
            "image_72": "https:\/\/avatars.slack-edge.com\/2020-03-14\/987873094258_d28dd0d076e8fa9a8409_72.png",
            "first_name": "David",
            "real_name": "David Lu",
            "display_name": "David Lu",
            "team": "TUU48M0T1",
            "name": "ludavidyi",
            "is_restricted": false,
            "is_ultra_restricted": false
        },
        "edited": {
            "user": "UV2SC7ZE3",
            "ts": "1584200954.000000"
        },
        "blocks": [
            {
                "type": "rich_text",
                "block_id": "476",
                "elements": [
                    {
                        "type": "rich_text_section",
                        "elements": [
                            {
                                "type": "text",
                                "text": "I can help with that. The helpful engineering slack server has a greet bot. Could I perhaps draft a document with a message that greetbot will send to new members?"
                            }
                        ]
                    }
                ]
            }
        ],
        "thread_ts": "1584197565.035500",
        "parent_user_id": "UV02WET96"
    },
    {
        "client_msg_id": "b1094238-4912-4b0e-bf83-ec37ba8a40f9",
        "type": "message",
        "text": "yes! I think we should take some good pratices they have put in place over there too",
        "user": "UV02WET96",
        "ts": "1584200963.037700",
        "team": "TUU48M0T1",
        "user_team": "TUU48M0T1",
        "source_team": "TUU48M0T1",
        "user_profile": {
            "avatar_hash": "a99c74a194f8",
            "image_72": "https:\/\/avatars.slack-edge.com\/2020-03-07\/975708504851_a99c74a194f86715ca7d_72.png",
            "first_name": "Thomas",
            "real_name": "Thomas Landrain",
            "display_name": "Thomas Landrain - CoFounder\/CEO JOGL",
            "team": "TUU48M0T1",
            "name": "thomas",
            "is_restricted": false,
            "is_ultra_restricted": false
        },
        "blocks": [
            {
                "type": "rich_text",
                "block_id": "SLd",
                "elements": [
                    {
                        "type": "rich_text_section",
                        "elements": [
                            {
                                "type": "text",
                                "text": "yes! I think we should take some good pratices they have put in place over there too"
                            }
                        ]
                    }
                ]
            }
        ],
        "thread_ts": "1584197565.035500",
        "parent_user_id": "UV02WET96"
    },
    {
        "client_msg_id": "7de4e97a-7424-4aa2-9480-1d5a9ee12908",
        "type": "message",
        "text": "thanks David!",
        "user": "UV02WET96",
        "ts": "1584200972.037900",
        "team": "TUU48M0T1",
        "user_team": "TUU48M0T1",
        "source_team": "TUU48M0T1",
        "user_profile": {
            "avatar_hash": "a99c74a194f8",
            "image_72": "https:\/\/avatars.slack-edge.com\/2020-03-07\/975708504851_a99c74a194f86715ca7d_72.png",
            "first_name": "Thomas",
            "real_name": "Thomas Landrain",
            "display_name": "Thomas Landrain - CoFounder\/CEO JOGL",
            "team": "TUU48M0T1",
            "name": "thomas",
            "is_restricted": false,
            "is_ultra_restricted": false
        },
        "blocks": [
            {
                "type": "rich_text",
                "block_id": "CPXe",
                "elements": [
                    {
                        "type": "rich_text_section",
                        "elements": [
                            {
                                "type": "text",
                                "text": "thanks David!"
                            }
                        ]
                    }
                ]
            }
        ],
        "thread_ts": "1584197565.035500",
        "parent_user_id": "UV02WET96"
    },
    {
        "client_msg_id": "18fdf448-1bcb-4f90-8781-c2d24d5e6b65",
        "type": "message",
        "text": "ofc! Should I create a new folder called 'Onboarding' in the Operations folder and put all documents in there?",
        "user": "UV2SC7ZE3",
        "ts": "1584201012.038100",
        "team": "TUU48M0T1",
        "user_team": "TUU48M0T1",
        "source_team": "TUU48M0T1",
        "user_profile": {
            "avatar_hash": "d28dd0d076e8",
            "image_72": "https:\/\/avatars.slack-edge.com\/2020-03-14\/987873094258_d28dd0d076e8fa9a8409_72.png",
            "first_name": "David",
            "real_name": "David Lu",
            "display_name": "David Lu",
            "team": "TUU48M0T1",
            "name": "ludavidyi",
            "is_restricted": false,
            "is_ultra_restricted": false
        },
        "blocks": [
            {
                "type": "rich_text",
                "block_id": "gNPVZ",
                "elements": [
                    {
                        "type": "rich_text_section",
                        "elements": [
                            {
                                "type": "text",
                                "text": "ofc! Should I create a new folder called 'Onboarding' in the Operations folder and put all documents in there?"
                            }
                        ]
                    }
                ]
            }
        ],
        "thread_ts": "1584197565.035500",
        "parent_user_id": "UV02WET96"
    },
    {
        "client_msg_id": "47e7be3f-c2b1-4b5a-a72c-ab734ac01f2a",
        "type": "message",
        "text": "sounds good!",
        "user": "UV02WET96",
        "ts": "1584201026.038300",
        "team": "TUU48M0T1",
        "user_team": "TUU48M0T1",
        "source_team": "TUU48M0T1",
        "user_profile": {
            "avatar_hash": "a99c74a194f8",
            "image_72": "https:\/\/avatars.slack-edge.com\/2020-03-07\/975708504851_a99c74a194f86715ca7d_72.png",
            "first_name": "Thomas",
            "real_name": "Thomas Landrain",
            "display_name": "Thomas Landrain - CoFounder\/CEO JOGL",
            "team": "TUU48M0T1",
            "name": "thomas",
            "is_restricted": false,
            "is_ultra_restricted": false
        },
        "blocks": [
            {
                "type": "rich_text",
                "block_id": "jAS",
                "elements": [
                    {
                        "type": "rich_text_section",
                        "elements": [
                            {
                                "type": "text",
                                "text": "sounds good!"
                            }
                        ]
                    }
                ]
            }
        ],
        "thread_ts": "1584197565.035500",
        "parent_user_id": "UV02WET96"
    },
    {
        "client_msg_id": "55d5630e-95a9-4ce2-9d69-003bc7980dde",
        "type": "message",
        "text": "I forget if we talked about this yesterday, but will we have two new channels called #announcements and #introductions? Having a read-only announcements channel would reduce clutter and allow people to access necessary documents (like google forms and spreadsheets) easier. This is also what the Helpful Engineering slack server has",
        "user": "UV2SC7ZE3",
        "ts": "1584201293.040100",
        "team": "TUU48M0T1",
        "user_team": "TUU48M0T1",
        "source_team": "TUU48M0T1",
        "user_profile": {
            "avatar_hash": "d28dd0d076e8",
            "image_72": "https:\/\/avatars.slack-edge.com\/2020-03-14\/987873094258_d28dd0d076e8fa9a8409_72.png",
            "first_name": "David",
            "real_name": "David Lu",
            "display_name": "David Lu",
            "team": "TUU48M0T1",
            "name": "ludavidyi",
            "is_restricted": false,
            "is_ultra_restricted": false
        },
        "edited": {
            "user": "UV2SC7ZE3",
            "ts": "1584201312.000000"
        },
        "blocks": [
            {
                "type": "rich_text",
                "block_id": "n7o",
                "elements": [
                    {
                        "type": "rich_text_section",
                        "elements": [
                            {
                                "type": "text",
                                "text": "I forget if we talked about this yesterday, but will we have two new channels called #announcements and #introductions? Having a read-only announcements channel would reduce clutter and allow people to access necessary documents (like google forms and spreadsheets) easier. This is also what the Helpful Engineering slack server has"
                            }
                        ]
                    }
                ]
            }
        ],
        "thread_ts": "1584201293.040100",
        "reply_count": 1,
        "reply_users_count": 1,
        "latest_reply": "1584207707.042700",
        "reply_users": [
            "UV0QTJCMT"
        ],
        "replies": [
            {
                "user": "UV0QTJCMT",
                "ts": "1584207707.042700"
            }
        ],
        "subscribed": false,
        "reactions": [
            {
                "name": "+1",
                "users": [
                    "UVADMLUB0",
                    "UV0QTJCMT",
                    "UV0GKVDUZ"
                ],
                "count": 3
            }
        ]
    },
    {
        "client_msg_id": "de20bec7-e774-4971-955d-2ceaea3d9438",
        "type": "message",
        "text": "I think we should copy most of the key features the Helpful Engineering Slack is having! They seems to havemuch more experience than us in doing this and all seems to work on their side.",
        "user": "UV02WET96",
        "ts": "1584201473.041700",
        "team": "TUU48M0T1",
        "user_team": "TUU48M0T1",
        "source_team": "TUU48M0T1",
        "user_profile": {
            "avatar_hash": "a99c74a194f8",
            "image_72": "https:\/\/avatars.slack-edge.com\/2020-03-07\/975708504851_a99c74a194f86715ca7d_72.png",
            "first_name": "Thomas",
            "real_name": "Thomas Landrain",
            "display_name": "Thomas Landrain - CoFounder\/CEO JOGL",
            "team": "TUU48M0T1",
            "name": "thomas",
            "is_restricted": false,
            "is_ultra_restricted": false
        },
        "blocks": [
            {
                "type": "rich_text",
                "block_id": "Qd0",
                "elements": [
                    {
                        "type": "rich_text_section",
                        "elements": [
                            {
                                "type": "text",
                                "text": "I think we should copy most of the key features the Helpful Engineering Slack is having! They seems to havemuch more experience than us in doing this and all seems to work on their side."
                            }
                        ]
                    }
                ]
            }
        ]
    },
    {
        "client_msg_id": "fb70884d-49e8-49f1-babb-5bc1f58cd0bc",
        "type": "message",
        "text": "Happy to work on it as well. I'll have limited time in the next couple days but can put time next week. I think limiting the number of default channels for new comers to only onboarding info and general stuff could also help navigate on the right tracks at the beginning.",
        "user": "UUWR0FJ7M",
        "ts": "1584203759.041900",
        "team": "TUU48M0T1",
        "user_team": "TUU48M0T1",
        "source_team": "TUU48M0T1",
        "user_profile": {
            "avatar_hash": "g0851a85aef5",
            "image_72": "https:\/\/secure.gravatar.com\/avatar\/0851a85aef59ee4069c5669edd21a593.jpg?s=72&d=https%3A%2F%2Fa.slack-edge.com%2Fdf10d%2Fimg%2Favatars%2Fava_0004-72.png",
            "first_name": "manuel",
            "real_name": "manuel lannaud",
            "display_name": "manu lannaud",
            "team": "TUU48M0T1",
            "name": "slack1260",
            "is_restricted": false,
            "is_ultra_restricted": false
        },
        "edited": {
            "user": "UUWR0FJ7M",
            "ts": "1584203785.000000"
        },
        "thread_ts": "1584197565.035500",
        "parent_user_id": "UV02WET96",
        "reactions": [
            {
                "name": "+1",
                "users": [
                    "UV02WET96"
                ],
                "count": 1
            }
        ]
    },
    {
        "client_msg_id": "8728cf45-e85f-467b-9279-d06dfb7da71d",
        "type": "message",
        "text": "yea--so we're planning on changing <#CUDEHLGHY|general> to #announcements and then having a separate introductions cannel",
        "user": "UV0QTJCMT",
        "ts": "1584207707.042700",
        "team": "TUU48M0T1",
        "user_team": "TUU48M0T1",
        "source_team": "TUU48M0T1",
        "user_profile": {
            "avatar_hash": "11e3deb6d1a9",
            "image_72": "https:\/\/avatars.slack-edge.com\/2020-03-06\/986844736421_11e3deb6d1a949327ddd_72.png",
            "first_name": "Katherine",
            "real_name": "Katherine Holo",
            "display_name": "Kat Holo",
            "team": "TUU48M0T1",
            "name": "katherineh245",
            "is_restricted": false,
            "is_ultra_restricted": false
        },
        "blocks": [
            {
                "type": "rich_text",
                "block_id": "oKI",
                "elements": [
                    {
                        "type": "rich_text_section",
                        "elements": [
                            {
                                "type": "text",
                                "text": "yea--so we're planning on changing "
                            },
                            {
                                "type": "channel",
                                "channel_id": "CUDEHLGHY"
                            },
                            {
                                "type": "text",
                                "text": " to #announcements and then having a separate introductions cannel"
                            }
                        ]
                    }
                ]
            }
        ],
        "thread_ts": "1584201293.040100",
        "parent_user_id": "UV2SC7ZE3"
    },
    {
        "client_msg_id": "587D97A0-8742-49EF-A8CE-EC56E5EF67D9",
        "type": "message",
        "text": "Hey I’d be down to help <@UV2SC7ZE3> with this as well. Similarly to <@UUWR0FJ7M> I have very limited time today and tomorrow but starting Monday I’ll have a lot :)",
        "user": "UUS2G6N6M",
        "ts": "1584208114.044200",
        "team": "TUU48M0T1",
        "user_team": "TUU48M0T1",
        "source_team": "TUU48M0T1",
        "user_profile": {
            "avatar_hash": "c10d653714db",
            "image_72": "https:\/\/avatars.slack-edge.com\/2020-03-14\/989283742883_c10d653714db5ea07cc9_72.png",
            "first_name": "Claire",
            "real_name": "Claire Yang",
            "display_name": "Claire Yang",
            "team": "TUU48M0T1",
            "name": "claire.xl.yang",
            "is_restricted": false,
            "is_ultra_restricted": false
        },
        "blocks": [
            {
                "type": "rich_text",
                "block_id": "FjJmw",
                "elements": [
                    {
                        "type": "rich_text_section",
                        "elements": [
                            {
                                "type": "text",
                                "text": "Hey I’d be down to help "
                            },
                            {
                                "type": "user",
                                "user_id": "UV2SC7ZE3"
                            },
                            {
                                "type": "text",
                                "text": " with this as well. Similarly to "
                            },
                            {
                                "type": "user",
                                "user_id": "UUWR0FJ7M"
                            },
                            {
                                "type": "text",
                                "text": " I have very limited time today and tomorrow but starting Monday I’ll have a lot :)"
                            }
                        ]
                    }
                ]
            }
        ],
        "thread_ts": "1584197565.035500",
        "parent_user_id": "UV02WET96"
    },
    {
        "type": "message",
        "text": "<!channel> <https:\/\/docs.google.com\/document\/d\/1h0Zu-Q_c71FUlyh66rAPcNR1s7ASOatY2oicsaedzsk\/edit#> &lt;- created a doc to start our own \"starting doc\"",
        "files": [
            {
                "id": "F0100J2CQE4",
                "created": 1584208130,
                "timestamp": 1584208130,
                "name": "OpenCovid19 Onboarding Doc",
                "title": "OpenCovid19 Program Onboarding Doc",
                "mimetype": "application\/vnd.google-apps.document",
                "filetype": "gdoc",
                "pretty_type": "GSuite Document",
                "user": "UV0QTJCMT",
                "editable": false,
                "size": 226,
                "mode": "external",
                "is_external": true,
                "external_type": "gdrive",
                "is_public": true,
                "public_url_shared": false,
                "display_as_bot": false,
                "username": "",
                "url_private": "https:\/\/docs.google.com\/document\/d\/1h0Zu-Q_c71FUlyh66rAPcNR1s7ASOatY2oicsaedzsk\/edit#",
                "thumb_64": "https:\/\/a.slack-edge.com\/80588\/img\/files\/gdraw_64.png",
                "thumb_360": "https:\/\/a.slack-edge.com\/80588\/img\/files\/gdraw_360.png",
                "thumb_360_w": 360,
                "thumb_360_h": 167,
                "permalink": "https:\/\/open-covid19.slack.com\/files\/UV0QTJCMT\/F0100J2CQE4\/opencovid19_onboarding_doc",
                "is_starred": false,
                "external_id": "1h0Zu-Q_c71FUlyh66rAPcNR1s7ASOatY2oicsaedzsk",
                "external_url": "https:\/\/docs.google.com\/document\/d\/1h0Zu-Q_c71FUlyh66rAPcNR1s7ASOatY2oicsaedzsk\/edit#",
                "has_rich_preview": true
            }
        ],
        "upload": false,
        "blocks": [
            {
                "type": "rich_text",
                "block_id": "zoU",
                "elements": [
                    {
                        "type": "rich_text_section",
                        "elements": [
                            {
                                "type": "broadcast",
                                "range": "channel"
                            },
                            {
                                "type": "text",
                                "text": " "
                            },
                            {
                                "type": "link",
                                "url": "https:\/\/docs.google.com\/document\/d\/1h0Zu-Q_c71FUlyh66rAPcNR1s7ASOatY2oicsaedzsk\/edit#"
                            },
                            {
                                "type": "text",
                                "text": " <- created a doc to start our own \"starting doc\""
                            }
                        ]
                    }
                ]
            }
        ],
        "user": "UV0QTJCMT",
        "display_as_bot": false,
        "x_files": [
            "F0100J2CQE4"
        ],
        "ts": "1584208128.044700",
        "client_msg_id": "3a17efa0-b5ea-42c9-b113-7afc759db81a",
        "reactions": [
            {
                "name": "+1",
                "users": [
                    "UUS2G6N6M",
                    "UVADMLUB0",
                    "UV2SC7ZE3",
                    "UV0GKVDUZ"
                ],
                "count": 4
            }
        ]
    },
    {
        "client_msg_id": "9c427d42-8e8a-4be9-bc33-c8be0ad51a38",
        "type": "message",
        "text": "Awesome! Would appreciate your help on this <@UUS2G6N6M>. I started a doc: <https:\/\/docs.google.com\/document\/d\/1rSFmGdFS7A4ckYSQ1PCt9qmbrhfeagpqNr1gydELGlg\/edit> :smile:",
        "user": "UV2SC7ZE3",
        "ts": "1584208222.046200",
        "team": "TUU48M0T1",
        "user_team": "TUU48M0T1",
        "source_team": "TUU48M0T1",
        "user_profile": {
            "avatar_hash": "d28dd0d076e8",
            "image_72": "https:\/\/avatars.slack-edge.com\/2020-03-14\/987873094258_d28dd0d076e8fa9a8409_72.png",
            "first_name": "David",
            "real_name": "David Lu",
            "display_name": "David Lu",
            "team": "TUU48M0T1",
            "name": "ludavidyi",
            "is_restricted": false,
            "is_ultra_restricted": false
        },
        "blocks": [
            {
                "type": "rich_text",
                "block_id": "vxqcV",
                "elements": [
                    {
                        "type": "rich_text_section",
                        "elements": [
                            {
                                "type": "text",
                                "text": "Awesome! Would appreciate your help on this "
                            },
                            {
                                "type": "user",
                                "user_id": "UUS2G6N6M"
                            },
                            {
                                "type": "text",
                                "text": ". I started a doc: "
                            },
                            {
                                "type": "link",
                                "url": "https:\/\/docs.google.com\/document\/d\/1rSFmGdFS7A4ckYSQ1PCt9qmbrhfeagpqNr1gydELGlg\/edit"
                            },
                            {
                                "type": "text",
                                "text": " "
                            },
                            {
                                "type": "emoji",
                                "name": "smile"
                            }
                        ]
                    }
                ]
            }
        ],
        "thread_ts": "1584197565.035500",
        "parent_user_id": "UV02WET96",
        "reactions": [
            {
                "name": "+1",
                "users": [
                    "UV02WET96",
                    "UUS2G6N6M"
                ],
                "count": 2
            }
        ]
    },
    {
        "type": "message",
        "subtype": "channel_join",
        "ts": "1584208263.047400",
        "user": "U0100EPL9RT",
        "text": "<@U0100EPL9RT> has joined the channel"
    },
    {
        "client_msg_id": "b2c91fa6-283d-4614-b6ea-0e81ef2e18e4",
        "type": "message",
        "text": "This spreadsheet looks awesome!",
        "user": "UV0GKVDUZ",
        "ts": "1584208280.047500",
        "team": "TUU48M0T1",
        "user_team": "TUU48M0T1",
        "source_team": "TUU48M0T1",
        "user_profile": {
            "avatar_hash": "g24167ad772d",
            "image_72": "https:\/\/secure.gravatar.com\/avatar\/24167ad772d72889a00b073c722d54c3.jpg?s=72&d=https%3A%2F%2Fa.slack-edge.com%2Fdf10d%2Fimg%2Favatars%2Fava_0013-72.png",
            "first_name": "a",
            "real_name": "a gabo",
            "display_name": "a gabo",
            "team": "TUU48M0T1",
            "name": "katherineananda",
            "is_restricted": false,
            "is_ultra_restricted": false
        },
        "blocks": [
            {
                "type": "rich_text",
                "block_id": "T4Ay",
                "elements": [
                    {
                        "type": "rich_text_section",
                        "elements": [
                            {
                                "type": "text",
                                "text": "This spreadsheet looks awesome!"
                            }
                        ]
                    }
                ]
            }
        ],
        "thread_ts": "1584175212.030900",
        "parent_user_id": "UV0QTJCMT"
    },
    {
        "client_msg_id": "8c68c8bd-c151-46f9-ab54-6a42319e0aad",
        "type": "message",
        "text": "I didn't even know this existed. I think this is great!",
        "user": "UV0GKVDUZ",
        "ts": "1584208301.047700",
        "team": "TUU48M0T1",
        "user_team": "TUU48M0T1",
        "source_team": "TUU48M0T1",
        "user_profile": {
            "avatar_hash": "g24167ad772d",
            "image_72": "https:\/\/secure.gravatar.com\/avatar\/24167ad772d72889a00b073c722d54c3.jpg?s=72&d=https%3A%2F%2Fa.slack-edge.com%2Fdf10d%2Fimg%2Favatars%2Fava_0013-72.png",
            "first_name": "a",
            "real_name": "a gabo",
            "display_name": "a gabo",
            "team": "TUU48M0T1",
            "name": "katherineananda",
            "is_restricted": false,
            "is_ultra_restricted": false
        },
        "blocks": [
            {
                "type": "rich_text",
                "block_id": "ZkSrN",
                "elements": [
                    {
                        "type": "rich_text_section",
                        "elements": [
                            {
                                "type": "text",
                                "text": "I didn't even know this existed. I think this is great!"
                            }
                        ]
                    }
                ]
            }
        ],
        "thread_ts": "1584175212.030900",
        "parent_user_id": "UV0QTJCMT"
    },
    {
        "client_msg_id": "c1537867-6cb6-4b9f-a8ae-fca3fab98649",
        "type": "message",
        "text": "Question do we have an outcomes oriented specification document?  Generally 3-4 bullets about the outcomes (without specifying solutions).",
        "user": "U0100EPL9RT",
        "ts": "1584208348.048500",
        "team": "TUU48M0T1",
        "user_team": "TUU48M0T1",
        "source_team": "TUU48M0T1",
        "user_profile": {
            "avatar_hash": "gcb426d5e001",
            "image_72": "https:\/\/secure.gravatar.com\/avatar\/cb426d5e001776a4cbc74343e46f1916.jpg?s=72&d=https%3A%2F%2Fa.slack-edge.com%2Fdf10d%2Fimg%2Favatars%2Fava_0000-72.png",
            "first_name": "Zac",
            "real_name": "Zac",
            "display_name": "Zac",
            "team": "TUU48M0T1",
            "name": "zac",
            "is_restricted": false,
            "is_ultra_restricted": false
        },
        "blocks": [
            {
                "type": "rich_text",
                "block_id": "lRd0K",
                "elements": [
                    {
                        "type": "rich_text_section",
                        "elements": [
                            {
                                "type": "text",
                                "text": "Question do we have an outcomes oriented specification document?  Generally 3-4 bullets about the outcomes (without specifying solutions)."
                            }
                        ]
                    }
                ]
            }
        ],
        "thread_ts": "1584208348.048500",
        "reply_count": 3,
        "reply_users_count": 3,
        "latest_reply": "1584212637.058000",
        "reply_users": [
            "UV0GKVDUZ",
            "UV2SC7ZE3",
            "UV0QTJCMT"
        ],
        "replies": [
            {
                "user": "UV0GKVDUZ",
                "ts": "1584209912.055700"
            },
            {
                "user": "UV2SC7ZE3",
                "ts": "1584212434.057800"
            },
            {
                "user": "UV0QTJCMT",
                "ts": "1584212637.058000"
            }
        ],
        "subscribed": false,
        "reactions": [
            {
                "name": "+1",
                "users": [
                    "UV9V03C8Y"
                ],
                "count": 1
            }
        ]
    },
    {
        "client_msg_id": "2528b27a-1926-4d41-8ec4-2f30db4b344a",
        "type": "message",
        "text": "I find this is extremely helpful in coordinating efforts :smile:",
        "user": "U0100EPL9RT",
        "ts": "1584208371.048900",
        "team": "TUU48M0T1",
        "user_team": "TUU48M0T1",
        "source_team": "TUU48M0T1",
        "user_profile": {
            "avatar_hash": "gcb426d5e001",
            "image_72": "https:\/\/secure.gravatar.com\/avatar\/cb426d5e001776a4cbc74343e46f1916.jpg?s=72&d=https%3A%2F%2Fa.slack-edge.com%2Fdf10d%2Fimg%2Favatars%2Fava_0000-72.png",
            "first_name": "Zac",
            "real_name": "Zac",
            "display_name": "Zac",
            "team": "TUU48M0T1",
            "name": "zac",
            "is_restricted": false,
            "is_ultra_restricted": false
        },
        "blocks": [
            {
                "type": "rich_text",
                "block_id": "PNh",
                "elements": [
                    {
                        "type": "rich_text_section",
                        "elements": [
                            {
                                "type": "text",
                                "text": "I find this is extremely helpful in coordinating efforts "
                            },
                            {
                                "type": "emoji",
                                "name": "smile"
                            }
                        ]
                    }
                ]
            }
        ]
    },
    {
        "client_msg_id": "bebdf7f2-cc1f-48ed-99e6-7bef0f558fe7",
        "type": "message",
        "text": "I like that idea!",
        "user": "UUUEFQW8N",
        "ts": "1584208385.049300",
        "team": "TUU48M0T1",
        "user_team": "TUU48M0T1",
        "source_team": "TUU48M0T1",
        "user_profile": {
            "avatar_hash": "5660f4d7fe91",
            "image_72": "https:\/\/avatars.slack-edge.com\/2020-03-06\/974037299378_5660f4d7fe9118b28c09_72.jpg",
            "first_name": "zachmueller",
            "real_name": "zachmueller",
            "display_name": "zachmueller",
            "team": "TUU48M0T1",
            "name": "zach",
            "is_restricted": false,
            "is_ultra_restricted": false
        },
        "blocks": [
            {
                "type": "rich_text",
                "block_id": "aLEx",
                "elements": [
                    {
                        "type": "rich_text_section",
                        "elements": [
                            {
                                "type": "text",
                                "text": "I like that idea!"
                            }
                        ]
                    }
                ]
            }
        ]
    },
    {
        "client_msg_id": "4ba92a47-a434-4bdc-a535-86d4362c0b88",
        "type": "message",
        "text": "this doc is being used by helpful engineering and is a good exemple too: <https:\/\/docs.google.com\/document\/d\/1cM87eJdXhP_8e9gJJZ_SnZXdo_huWsBmMzcqYWbhEOg\/edit#heading=h.g5x1qk9e28tb>",
        "user": "UV02WET96",
        "ts": "1584208419.049400",
        "team": "TUU48M0T1",
        "user_team": "TUU48M0T1",
        "source_team": "TUU48M0T1",
        "user_profile": {
            "avatar_hash": "a99c74a194f8",
            "image_72": "https:\/\/avatars.slack-edge.com\/2020-03-07\/975708504851_a99c74a194f86715ca7d_72.png",
            "first_name": "Thomas",
            "real_name": "Thomas Landrain",
            "display_name": "Thomas Landrain - CoFounder\/CEO JOGL",
            "team": "TUU48M0T1",
            "name": "thomas",
            "is_restricted": false,
            "is_ultra_restricted": false
        },
        "blocks": [
            {
                "type": "rich_text",
                "block_id": "5tn",
                "elements": [
                    {
                        "type": "rich_text_section",
                        "elements": [
                            {
                                "type": "text",
                                "text": "this doc is being used by helpful engineering and is a good exemple too: "
                            },
                            {
                                "type": "link",
                                "url": "https:\/\/docs.google.com\/document\/d\/1cM87eJdXhP_8e9gJJZ_SnZXdo_huWsBmMzcqYWbhEOg\/edit#heading=h.g5x1qk9e28tb"
                            }
                        ]
                    }
                ]
            }
        ],
        "thread_ts": "1584197565.035500",
        "parent_user_id": "UV02WET96"
    },
    {
        "client_msg_id": "313aa105-2010-4364-b763-f113986fa793",
        "type": "message",
        "text": "Does anyone actually know what constitutes \"heavy traffic to this file\" for gdocs? it seems to be very little traffic, really. Any time I've had a document linked with a reasonably sized audience the doc's editing functions were instantly knocked out.",
        "user": "UV2CNECM7",
        "ts": "1584208552.051500",
        "team": "TUU48M0T1",
        "user_team": "TUU48M0T1",
        "source_team": "TUU48M0T1",
        "user_profile": {
            "avatar_hash": "135b0b0aa9c1",
            "image_72": "https:\/\/avatars.slack-edge.com\/2020-03-14\/990564660081_135b0b0aa9c163d47018_72.jpg",
            "first_name": "",
            "real_name": "Jeremy Cahill",
            "display_name": "Jeremy Cahill",
            "team": "TUU48M0T1",
            "name": "jeremy.cahill",
            "is_restricted": false,
            "is_ultra_restricted": false
        },
        "blocks": [
            {
                "type": "rich_text",
                "block_id": "TpUI",
                "elements": [
                    {
                        "type": "rich_text_section",
                        "elements": [
                            {
                                "type": "text",
                                "text": "Does anyone actually know what constitutes \"heavy traffic to this file\" for gdocs? it seems to be very little traffic, really. Any time I've had a document linked with a reasonably sized audience the doc's editing functions were instantly knocked out."
                            }
                        ]
                    }
                ]
            }
        ],
        "thread_ts": "1584208552.051500",
        "reply_count": 2,
        "reply_users_count": 2,
        "latest_reply": "1584209370.052800",
        "reply_users": [
            "UUUEFQW8N",
            "UV2CNECM7"
        ],
        "replies": [
            {
                "user": "UUUEFQW8N",
                "ts": "1584209085.052500"
            },
            {
                "user": "UV2CNECM7",
                "ts": "1584209370.052800"
            }
        ],
        "subscribed": true,
        "last_read": "1584209370.052800"
    },
    {
        "client_msg_id": "0df032fd-1700-4620-9019-bd113bb3f6e3",
        "type": "message",
        "text": "Thanks David and Thomas!",
        "user": "UUS2G6N6M",
        "ts": "1584208762.052100",
        "team": "TUU48M0T1",
        "user_team": "TUU48M0T1",
        "source_team": "TUU48M0T1",
        "user_profile": {
            "avatar_hash": "c10d653714db",
            "image_72": "https:\/\/avatars.slack-edge.com\/2020-03-14\/989283742883_c10d653714db5ea07cc9_72.png",
            "first_name": "Claire",
            "real_name": "Claire Yang",
            "display_name": "Claire Yang",
            "team": "TUU48M0T1",
            "name": "claire.xl.yang",
            "is_restricted": false,
            "is_ultra_restricted": false
        },
        "blocks": [
            {
                "type": "rich_text",
                "block_id": "8UM",
                "elements": [
                    {
                        "type": "rich_text_section",
                        "elements": [
                            {
                                "type": "text",
                                "text": "Thanks David and Thomas!"
                            }
                        ]
                    }
                ]
            }
        ],
        "thread_ts": "1584197565.035500",
        "parent_user_id": "UV02WET96"
    },
    {
        "client_msg_id": "2374d536-7b90-442d-91be-4542547114d8",
        "type": "message",
        "text": "i'm not sure...i haven't ever seen that before on a google doc lol",
        "user": "UUUEFQW8N",
        "ts": "1584209085.052500",
        "team": "TUU48M0T1",
        "user_team": "TUU48M0T1",
        "source_team": "TUU48M0T1",
        "user_profile": {
            "avatar_hash": "5660f4d7fe91",
            "image_72": "https:\/\/avatars.slack-edge.com\/2020-03-06\/974037299378_5660f4d7fe9118b28c09_72.jpg",
            "first_name": "zachmueller",
            "real_name": "zachmueller",
            "display_name": "zachmueller",
            "team": "TUU48M0T1",
            "name": "zach",
            "is_restricted": false,
            "is_ultra_restricted": false
        },
        "blocks": [
            {
                "type": "rich_text",
                "block_id": "x3J",
                "elements": [
                    {
                        "type": "rich_text_section",
                        "elements": [
                            {
                                "type": "text",
                                "text": "i'm not sure...i haven't ever seen that before on a google doc lol"
                            }
                        ]
                    }
                ]
            }
        ],
        "thread_ts": "1584208552.051500",
        "parent_user_id": "UV2CNECM7"
    },
    {
        "client_msg_id": "4d7cd20a-24a9-4c11-ad22-11b8dbc0df53",
        "type": "message",
        "text": "it's happening on all the covid project docs currently. that's why i'm asking. it's already an ongoing problem for editing the \"tech handbook\" site",
        "user": "UV2CNECM7",
        "ts": "1584209370.052800",
        "team": "TUU48M0T1",
        "user_team": "TUU48M0T1",
        "source_team": "TUU48M0T1",
        "user_profile": {
            "avatar_hash": "135b0b0aa9c1",
            "image_72": "https:\/\/avatars.slack-edge.com\/2020-03-14\/990564660081_135b0b0aa9c163d47018_72.jpg",
            "first_name": "",
            "real_name": "Jeremy Cahill",
            "display_name": "Jeremy Cahill",
            "team": "TUU48M0T1",
            "name": "jeremy.cahill",
            "is_restricted": false,
            "is_ultra_restricted": false
        },
        "blocks": [
            {
                "type": "rich_text",
                "block_id": "nPKg",
                "elements": [
                    {
                        "type": "rich_text_section",
                        "elements": [
                            {
                                "type": "text",
                                "text": "it's happening on all the covid project docs currently. that's why i'm asking. it's already an ongoing problem for editing the \"tech handbook\" site"
                            }
                        ]
                    }
                ]
            }
        ],
        "thread_ts": "1584208552.051500",
        "parent_user_id": "UV2CNECM7"
    },
    {
        "client_msg_id": "86431c3a-4b36-4378-bbfe-c9bcf5bbd52e",
        "type": "message",
        "text": "Can people add suggestions to this greetbot message draft? <https:\/\/docs.google.com\/document\/d\/1rSFmGdFS7A4ckYSQ1PCt9qmbrhfeagpqNr1gydELGlg\/edit>.",
        "user": "UV2SC7ZE3",
        "ts": "1584209573.053400",
        "team": "TUU48M0T1",
        "user_team": "TUU48M0T1",
        "source_team": "TUU48M0T1",
        "user_profile": {
            "avatar_hash": "d28dd0d076e8",
            "image_72": "https:\/\/avatars.slack-edge.com\/2020-03-14\/987873094258_d28dd0d076e8fa9a8409_72.png",
            "first_name": "David",
            "real_name": "David Lu",
            "display_name": "David Lu",
            "team": "TUU48M0T1",
            "name": "ludavidyi",
            "is_restricted": false,
            "is_ultra_restricted": false
        },
        "blocks": [
            {
                "type": "rich_text",
                "block_id": "MQL",
                "elements": [
                    {
                        "type": "rich_text_section",
                        "elements": [
                            {
                                "type": "text",
                                "text": "Can people add suggestions to this greetbot message draft? "
                            },
                            {
                                "type": "link",
                                "url": "https:\/\/docs.google.com\/document\/d\/1rSFmGdFS7A4ckYSQ1PCt9qmbrhfeagpqNr1gydELGlg\/edit"
                            },
                            {
                                "type": "text",
                                "text": "."
                            }
                        ]
                    }
                ]
            }
        ]
    },
    {
        "client_msg_id": "6fce5927-9804-4675-ad44-d05712e83cea",
        "type": "message",
        "text": "Also, do we have a list of people who are volunteering to lead certain projects or is that information that still needs to be collected?",
        "user": "UV2SC7ZE3",
        "ts": "1584209758.055200",
        "team": "TUU48M0T1",
        "user_team": "TUU48M0T1",
        "source_team": "TUU48M0T1",
        "user_profile": {
            "avatar_hash": "d28dd0d076e8",
            "image_72": "https:\/\/avatars.slack-edge.com\/2020-03-14\/987873094258_d28dd0d076e8fa9a8409_72.png",
            "first_name": "David",
            "real_name": "David Lu",
            "display_name": "David Lu",
            "team": "TUU48M0T1",
            "name": "ludavidyi",
            "is_restricted": false,
            "is_ultra_restricted": false
        },
        "blocks": [
            {
                "type": "rich_text",
                "block_id": "+ucBq",
                "elements": [
                    {
                        "type": "rich_text_section",
                        "elements": [
                            {
                                "type": "text",
                                "text": "Also, do we have a list of people who are volunteering to lead certain projects or is that information that still needs to be collected?"
                            }
                        ]
                    }
                ]
            }
        ],
        "thread_ts": "1584209758.055200",
        "reply_count": 9,
        "reply_users_count": 6,
        "latest_reply": "1584218736.060800",
        "reply_users": [
            "UV0GKVDUZ",
            "UV02WET96",
            "UVADMLUB0",
            "UV0QTJCMT",
            "UV2SC7ZE3",
            "UUS2G6N6M"
        ],
        "replies": [
            {
                "user": "UV0GKVDUZ",
                "ts": "1584209807.055300"
            },
            {
                "user": "UV0GKVDUZ",
                "ts": "1584209831.055500"
            },
            {
                "user": "UV02WET96",
                "ts": "1584209921.055900"
            },
            {
                "user": "UVADMLUB0",
                "ts": "1584210100.056200"
            },
            {
                "user": "UV0QTJCMT",
                "ts": "1584210343.057300"
            },
            {
                "user": "UV2SC7ZE3",
                "ts": "1584210397.057500"
            },
            {
                "user": "UUS2G6N6M",
                "ts": "1584213994.058300"
            },
            {
                "user": "UUS2G6N6M",
                "ts": "1584214051.058500"
            },
            {
                "user": "UV0QTJCMT",
                "ts": "1584218736.060800"
            }
        ],
        "subscribed": false
    },
    {
        "client_msg_id": "2504c8ac-3b11-4bb5-8c65-764288ba42bd",
        "type": "message",
        "text": "I couldn't really find any, but I'm sure someone here has been keeping track.",
        "user": "UV0GKVDUZ",
        "ts": "1584209807.055300",
        "team": "TUU48M0T1",
        "user_team": "TUU48M0T1",
        "source_team": "TUU48M0T1",
        "user_profile": {
            "avatar_hash": "g24167ad772d",
            "image_72": "https:\/\/secure.gravatar.com\/avatar\/24167ad772d72889a00b073c722d54c3.jpg?s=72&d=https%3A%2F%2Fa.slack-edge.com%2Fdf10d%2Fimg%2Favatars%2Fava_0013-72.png",
            "first_name": "a",
            "real_name": "a gabo",
            "display_name": "a gabo",
            "team": "TUU48M0T1",
            "name": "katherineananda",
            "is_restricted": false,
            "is_ultra_restricted": false
        },
        "blocks": [
            {
                "type": "rich_text",
                "block_id": "bk=I",
                "elements": [
                    {
                        "type": "rich_text_section",
                        "elements": [
                            {
                                "type": "text",
                                "text": "I couldn't really find any, but I'm sure someone here has been keeping track."
                            }
                        ]
                    }
                ]
            }
        ],
        "thread_ts": "1584209758.055200",
        "parent_user_id": "UV2SC7ZE3"
    },
    {
        "client_msg_id": "0891da67-ae29-4f33-88c7-ab383bea5072",
        "type": "message",
        "text": "I mostly had to poke around and read the channel history to see what was happening.",
        "user": "UV0GKVDUZ",
        "ts": "1584209831.055500",
        "team": "TUU48M0T1",
        "user_team": "TUU48M0T1",
        "source_team": "TUU48M0T1",
        "user_profile": {
            "avatar_hash": "g24167ad772d",
            "image_72": "https:\/\/secure.gravatar.com\/avatar\/24167ad772d72889a00b073c722d54c3.jpg?s=72&d=https%3A%2F%2Fa.slack-edge.com%2Fdf10d%2Fimg%2Favatars%2Fava_0013-72.png",
            "first_name": "a",
            "real_name": "a gabo",
            "display_name": "a gabo",
            "team": "TUU48M0T1",
            "name": "katherineananda",
            "is_restricted": false,
            "is_ultra_restricted": false
        },
        "blocks": [
            {
                "type": "rich_text",
                "block_id": "Nr9x",
                "elements": [
                    {
                        "type": "rich_text_section",
                        "elements": [
                            {
                                "type": "text",
                                "text": "I mostly had to poke around and read the channel history to see what was happening."
                            }
                        ]
                    }
                ]
            }
        ],
        "thread_ts": "1584209758.055200",
        "parent_user_id": "UV2SC7ZE3"
    },
    {
        "client_msg_id": "87a33925-8e57-4854-a1d0-496b2ead5fa2",
        "type": "message",
        "text": "I think this would be great to include in the spreadsheet <@UV0QTJCMT> <@UV87UQ37A> <@UV2SC7ZE3>?",
        "user": "UV0GKVDUZ",
        "ts": "1584209912.055700",
        "team": "TUU48M0T1",
        "user_team": "TUU48M0T1",
        "source_team": "TUU48M0T1",
        "user_profile": {
            "avatar_hash": "g24167ad772d",
            "image_72": "https:\/\/secure.gravatar.com\/avatar\/24167ad772d72889a00b073c722d54c3.jpg?s=72&d=https%3A%2F%2Fa.slack-edge.com%2Fdf10d%2Fimg%2Favatars%2Fava_0013-72.png",
            "first_name": "a",
            "real_name": "a gabo",
            "display_name": "a gabo",
            "team": "TUU48M0T1",
            "name": "katherineananda",
            "is_restricted": false,
            "is_ultra_restricted": false
        },
        "edited": {
            "user": "UV0GKVDUZ",
            "ts": "1584209924.000000"
        },
        "blocks": [
            {
                "type": "rich_text",
                "block_id": "tfI",
                "elements": [
                    {
                        "type": "rich_text_section",
                        "elements": [
                            {
                                "type": "text",
                                "text": "I think this would be great to include in the spreadsheet "
                            },
                            {
                                "type": "user",
                                "user_id": "UV0QTJCMT"
                            },
                            {
                                "type": "text",
                                "text": " "
                            },
                            {
                                "type": "user",
                                "user_id": "UV87UQ37A"
                            },
                            {
                                "type": "text",
                                "text": " "
                            },
                            {
                                "type": "user",
                                "user_id": "UV2SC7ZE3"
                            },
                            {
                                "type": "text",
                                "text": "?"
                            }
                        ]
                    }
                ]
            }
        ],
        "thread_ts": "1584208348.048500",
        "parent_user_id": "U0100EPL9RT"
    },
    {
        "client_msg_id": "a698c916-5dca-4e5b-93d0-0827b4c8b6e6",
        "type": "message",
        "text": "A lot of projects are running locally",
        "user": "UV02WET96",
        "ts": "1584209921.055900",
        "team": "TUU48M0T1",
        "user_team": "TUU48M0T1",
        "source_team": "TUU48M0T1",
        "user_profile": {
            "avatar_hash": "a99c74a194f8",
            "image_72": "https:\/\/avatars.slack-edge.com\/2020-03-07\/975708504851_a99c74a194f86715ca7d_72.png",
            "first_name": "Thomas",
            "real_name": "Thomas Landrain",
            "display_name": "Thomas Landrain - CoFounder\/CEO JOGL",
            "team": "TUU48M0T1",
            "name": "thomas",
            "is_restricted": false,
            "is_ultra_restricted": false
        },
        "blocks": [
            {
                "type": "rich_text",
                "block_id": "QuCm",
                "elements": [
                    {
                        "type": "rich_text_section",
                        "elements": [
                            {
                                "type": "text",
                                "text": "A lot of projects are running locally"
                            }
                        ]
                    }
                ]
            }
        ],
        "thread_ts": "1584209758.055200",
        "parent_user_id": "UV2SC7ZE3"
    },
    {
        "client_msg_id": "49ab206b-2561-417a-b13a-e4a224059488",
        "type": "message",
        "text": "Here's the link for what's available for project leads: <https:\/\/docs.google.com\/document\/d\/1cM87eJdXhP_8e9gJJZ_SnZXdo_huWsBmMzcqYWbhEOg\/edit?usp=drivesdk|https:\/\/docs.google.com\/document\/d\/1cM87eJdXhP_8e9gJJZ_SnZXdo_huWsBmMzcqYWbhEOg\/edit?usp=drivesdk>",
        "user": "UVADMLUB0",
        "ts": "1584210100.056200",
        "team": "TUU48M0T1",
        "user_team": "TUU48M0T1",
        "source_team": "TUU48M0T1",
        "user_profile": {
            "avatar_hash": "14179705705a",
            "image_72": "https:\/\/avatars.slack-edge.com\/2020-03-11\/981468022482_14179705705a94b3db16_72.jpg",
            "first_name": "Bill",
            "real_name": "Bill Slavin",
            "display_name": "Bill Slavin- Executive Director, Indie Lab",
            "team": "TUU48M0T1",
            "name": "bill",
            "is_restricted": false,
            "is_ultra_restricted": false
        },
        "blocks": [
            {
                "type": "rich_text",
                "block_id": "DKOM",
                "elements": [
                    {
                        "type": "rich_text_section",
                        "elements": [
                            {
                                "type": "text",
                                "text": "Here's the link for what's available for project leads: "
                            },
                            {
                                "type": "link",
                                "url": "https:\/\/docs.google.com\/document\/d\/1cM87eJdXhP_8e9gJJZ_SnZXdo_huWsBmMzcqYWbhEOg\/edit?usp=drivesdk",
                                "text": "https:\/\/docs.google.com\/document\/d\/1cM87eJdXhP_8e9gJJZ_SnZXdo_huWsBmMzcqYWbhEOg\/edit?usp=drivesdk"
                            }
                        ]
                    }
                ]
            }
        ],
        "thread_ts": "1584209758.055200",
        "parent_user_id": "UV2SC7ZE3",
        "reactions": [
            {
                "name": "+1",
                "users": [
                    "UV2SC7ZE3"
                ],
                "count": 1
            }
        ]
    },
    {
        "client_msg_id": "f1afbf96-177a-433b-9600-453ebb8d1504",
        "type": "message",
        "text": "it's still largely info that needs to be collected. we basically need to find the people that wants to lead anything in general",
        "user": "UV0QTJCMT",
        "ts": "1584210343.057300",
        "team": "TUU48M0T1",
        "user_team": "TUU48M0T1",
        "source_team": "TUU48M0T1",
        "user_profile": {
            "avatar_hash": "11e3deb6d1a9",
            "image_72": "https:\/\/avatars.slack-edge.com\/2020-03-06\/986844736421_11e3deb6d1a949327ddd_72.png",
            "first_name": "Katherine",
            "real_name": "Katherine Holo",
            "display_name": "Kat Holo",
            "team": "TUU48M0T1",
            "name": "katherineh245",
            "is_restricted": false,
            "is_ultra_restricted": false
        },
        "blocks": [
            {
                "type": "rich_text",
                "block_id": "Tvcj4",
                "elements": [
                    {
                        "type": "rich_text_section",
                        "elements": [
                            {
                                "type": "text",
                                "text": "it's still largely info that needs to be collected. we basically need to find the people that wants to lead anything in general"
                            }
                        ]
                    }
                ]
            }
        ],
        "thread_ts": "1584209758.055200",
        "parent_user_id": "UV2SC7ZE3"
    },
    {
        "client_msg_id": "d04cf5c2-8f61-4d7a-a0c7-a1c6aed11710",
        "type": "message",
        "text": "So will there be a lead for each challenge, and then leads for subprojects that fall under that challenge?",
        "user": "UV2SC7ZE3",
        "ts": "1584210397.057500",
        "team": "TUU48M0T1",
        "user_team": "TUU48M0T1",
        "source_team": "TUU48M0T1",
        "user_profile": {
            "avatar_hash": "d28dd0d076e8",
            "image_72": "https:\/\/avatars.slack-edge.com\/2020-03-14\/987873094258_d28dd0d076e8fa9a8409_72.png",
            "first_name": "David",
            "real_name": "David Lu",
            "display_name": "David Lu",
            "team": "TUU48M0T1",
            "name": "ludavidyi",
            "is_restricted": false,
            "is_ultra_restricted": false
        },
        "blocks": [
            {
                "type": "rich_text",
                "block_id": "xYK8",
                "elements": [
                    {
                        "type": "rich_text_section",
                        "elements": [
                            {
                                "type": "text",
                                "text": "So will there be a lead for each challenge, and then leads for subprojects that fall under that challenge?"
                            }
                        ]
                    }
                ]
            }
        ],
        "thread_ts": "1584209758.055200",
        "parent_user_id": "UV2SC7ZE3",
        "reactions": [
            {
                "name": "+1",
                "users": [
                    "UV0QTJCMT"
                ],
                "count": 1
            }
        ]
    },
    {
        "client_msg_id": "99201c0f-583c-427d-8628-61d79dd21290",
        "type": "message",
        "text": "I think that's a great idea!",
        "user": "UV2SC7ZE3",
        "ts": "1584212434.057800",
        "team": "TUU48M0T1",
        "user_team": "TUU48M0T1",
        "source_team": "TUU48M0T1",
        "user_profile": {
            "avatar_hash": "d28dd0d076e8",
            "image_72": "https:\/\/avatars.slack-edge.com\/2020-03-14\/987873094258_d28dd0d076e8fa9a8409_72.png",
            "first_name": "David",
            "real_name": "David Lu",
            "display_name": "David Lu",
            "team": "TUU48M0T1",
            "name": "ludavidyi",
            "is_restricted": false,
            "is_ultra_restricted": false
        },
        "blocks": [
            {
                "type": "rich_text",
                "block_id": "pay",
                "elements": [
                    {
                        "type": "rich_text_section",
                        "elements": [
                            {
                                "type": "text",
                                "text": "I think that's a great idea!"
                            }
                        ]
                    }
                ]
            }
        ],
        "thread_ts": "1584208348.048500",
        "parent_user_id": "U0100EPL9RT"
    },
    {
        "client_msg_id": "fbb26a47-3d2f-447f-9f43-5ec0c81aac8d",
        "type": "message",
        "text": "yup agree!",
        "user": "UV0QTJCMT",
        "ts": "1584212637.058000",
        "team": "TUU48M0T1",
        "user_team": "TUU48M0T1",
        "source_team": "TUU48M0T1",
        "user_profile": {
            "avatar_hash": "11e3deb6d1a9",
            "image_72": "https:\/\/avatars.slack-edge.com\/2020-03-06\/986844736421_11e3deb6d1a949327ddd_72.png",
            "first_name": "Katherine",
            "real_name": "Katherine Holo",
            "display_name": "Kat Holo",
            "team": "TUU48M0T1",
            "name": "katherineh245",
            "is_restricted": false,
            "is_ultra_restricted": false
        },
        "blocks": [
            {
                "type": "rich_text",
                "block_id": "pTc",
                "elements": [
                    {
                        "type": "rich_text_section",
                        "elements": [
                            {
                                "type": "text",
                                "text": "yup agree!"
                            }
                        ]
                    }
                ]
            }
        ],
        "thread_ts": "1584208348.048500",
        "parent_user_id": "U0100EPL9RT"
    },
    {
        "client_msg_id": "dde5fdc3-fdca-4968-b22d-2016bd28e5bb",
        "type": "message",
        "text": "i think the project leads should just be whoever started the project. It would be a good idea IMO to have 2-3 leads per challenge (to account for time zone differences)",
        "user": "UUS2G6N6M",
        "ts": "1584213994.058300",
        "team": "TUU48M0T1",
        "user_team": "TUU48M0T1",
        "source_team": "TUU48M0T1",
        "user_profile": {
            "avatar_hash": "c10d653714db",
            "image_72": "https:\/\/avatars.slack-edge.com\/2020-03-14\/989283742883_c10d653714db5ea07cc9_72.png",
            "first_name": "Claire",
            "real_name": "Claire Yang",
            "display_name": "Claire Yang",
            "team": "TUU48M0T1",
            "name": "claire.xl.yang",
            "is_restricted": false,
            "is_ultra_restricted": false
        },
        "blocks": [
            {
                "type": "rich_text",
                "block_id": "nlXf",
                "elements": [
                    {
                        "type": "rich_text_section",
                        "elements": [
                            {
                                "type": "text",
                                "text": "i think the project leads should just be whoever started the project. It would be a good idea IMO to have 2-3 leads per challenge (to account for time zone differences)"
                            }
                        ]
                    }
                ]
            }
        ],
        "thread_ts": "1584209758.055200",
        "parent_user_id": "UV2SC7ZE3",
        "reactions": [
            {
                "name": "+1",
                "users": [
                    "UV0QTJCMT"
                ],
                "count": 1
            }
        ]
    },
    {
        "client_msg_id": "dc300050-e445-4682-b131-fd563724a533",
        "type": "message",
        "text": "challenge leads would mostly be in charge of communication with each other and project leads, and with helping newcomers figure out project(s) that match their skillset\/interest",
        "user": "UUS2G6N6M",
        "ts": "1584214051.058500",
        "team": "TUU48M0T1",
        "user_team": "TUU48M0T1",
        "source_team": "TUU48M0T1",
        "user_profile": {
            "avatar_hash": "c10d653714db",
            "image_72": "https:\/\/avatars.slack-edge.com\/2020-03-14\/989283742883_c10d653714db5ea07cc9_72.png",
            "first_name": "Claire",
            "real_name": "Claire Yang",
            "display_name": "Claire Yang",
            "team": "TUU48M0T1",
            "name": "claire.xl.yang",
            "is_restricted": false,
            "is_ultra_restricted": false
        },
        "blocks": [
            {
                "type": "rich_text",
                "block_id": "vXe6h",
                "elements": [
                    {
                        "type": "rich_text_section",
                        "elements": [
                            {
                                "type": "text",
                                "text": "challenge leads would mostly be in charge of communication with each other and project leads, and with helping newcomers figure out project(s) that match their skillset\/interest"
                            }
                        ]
                    }
                ]
            }
        ],
        "thread_ts": "1584209758.055200",
        "parent_user_id": "UV2SC7ZE3",
        "reactions": [
            {
                "name": "+1",
                "users": [
                    "UV0QTJCMT",
                    "UV02WET96"
                ],
                "count": 2
            }
        ]
    },
    {
        "client_msg_id": "2d422f37-b910-4d3d-ae8d-99b11332881e",
        "type": "message",
        "text": "I think as long as everything is linked in the appropriate challenge\/working group in one central document, then it will still serve it's purpose as a hub.",
        "user": "UV87UQ37A",
        "ts": "1584214520.058700",
        "team": "TUU48M0T1",
        "user_team": "TUU48M0T1",
        "source_team": "TUU48M0T1",
        "user_profile": {
            "avatar_hash": "g7c78d2f0258",
            "image_72": "https:\/\/secure.gravatar.com\/avatar\/7c78d2f0258f7bdf78a86301cfd6b712.jpg?s=72&d=https%3A%2F%2Fa.slack-edge.com%2Fdf10d%2Fimg%2Favatars%2Fava_0014-72.png",
            "first_name": "Victoria",
            "real_name": "Victoria Costa",
            "display_name": "Victoria Costa",
            "team": "TUU48M0T1",
            "name": "victorycoast",
            "is_restricted": false,
            "is_ultra_restricted": false
        },
        "blocks": [
            {
                "type": "rich_text",
                "block_id": "Hlr",
                "elements": [
                    {
                        "type": "rich_text_section",
                        "elements": [
                            {
                                "type": "text",
                                "text": "I think as long as everything is linked in the appropriate challenge\/working group in one central document, then it will still serve it's purpose as a hub."
                            }
                        ]
                    }
                ]
            }
        ],
        "thread_ts": "1584175212.030900",
        "parent_user_id": "UV0QTJCMT",
        "reactions": [
            {
                "name": "+1",
                "users": [
                    "UV0GKVDUZ"
                ],
                "count": 1
            }
        ]
    },
    {
        "client_msg_id": "392ddc1c-e73e-47f9-861c-87572c7219fa",
        "type": "message",
        "text": "<@UV87UQ37A> i totally agree.",
        "user": "UV0GKVDUZ",
        "ts": "1584214542.059000",
        "team": "TUU48M0T1",
        "user_team": "TUU48M0T1",
        "source_team": "TUU48M0T1",
        "user_profile": {
            "avatar_hash": "g24167ad772d",
            "image_72": "https:\/\/secure.gravatar.com\/avatar\/24167ad772d72889a00b073c722d54c3.jpg?s=72&d=https%3A%2F%2Fa.slack-edge.com%2Fdf10d%2Fimg%2Favatars%2Fava_0013-72.png",
            "first_name": "a",
            "real_name": "a gabo",
            "display_name": "a gabo",
            "team": "TUU48M0T1",
            "name": "katherineananda",
            "is_restricted": false,
            "is_ultra_restricted": false
        },
        "blocks": [
            {
                "type": "rich_text",
                "block_id": "ecs",
                "elements": [
                    {
                        "type": "rich_text_section",
                        "elements": [
                            {
                                "type": "user",
                                "user_id": "UV87UQ37A"
                            },
                            {
                                "type": "text",
                                "text": " i totally agree."
                            }
                        ]
                    }
                ]
            }
        ],
        "thread_ts": "1584175212.030900",
        "parent_user_id": "UV0QTJCMT"
    },
    {
        "client_msg_id": "ba9e4621-e719-425f-8912-e2ed9107d94a",
        "type": "message",
        "text": "I don't mind deleting the other document i tried making to prevent confusion tbh.",
        "user": "UV0GKVDUZ",
        "ts": "1584214554.059200",
        "team": "TUU48M0T1",
        "user_team": "TUU48M0T1",
        "source_team": "TUU48M0T1",
        "user_profile": {
            "avatar_hash": "g24167ad772d",
            "image_72": "https:\/\/secure.gravatar.com\/avatar\/24167ad772d72889a00b073c722d54c3.jpg?s=72&d=https%3A%2F%2Fa.slack-edge.com%2Fdf10d%2Fimg%2Favatars%2Fava_0013-72.png",
            "first_name": "a",
            "real_name": "a gabo",
            "display_name": "a gabo",
            "team": "TUU48M0T1",
            "name": "katherineananda",
            "is_restricted": false,
            "is_ultra_restricted": false
        },
        "blocks": [
            {
                "type": "rich_text",
                "block_id": "l7K",
                "elements": [
                    {
                        "type": "rich_text_section",
                        "elements": [
                            {
                                "type": "text",
                                "text": "I don't mind deleting the other document i tried making to prevent confusion tbh."
                            }
                        ]
                    }
                ]
            }
        ],
        "thread_ts": "1584175212.030900",
        "parent_user_id": "UV0QTJCMT"
    },
    {
        "client_msg_id": "e09fbe54-ea24-4c84-827a-ed83c689be50",
        "type": "message",
        "text": "it would be helpful for me if we could make a workflow hierarchy of terminology -- the program level \/\/ challenge level \/\/ project level. I think I am following, but I think it could be useful for newcomers, too",
        "user": "UV87UQ37A",
        "ts": "1584214560.059400",
        "team": "TUU48M0T1",
        "user_team": "TUU48M0T1",
        "source_team": "TUU48M0T1",
        "user_profile": {
            "avatar_hash": "g7c78d2f0258",
            "image_72": "https:\/\/secure.gravatar.com\/avatar\/7c78d2f0258f7bdf78a86301cfd6b712.jpg?s=72&d=https%3A%2F%2Fa.slack-edge.com%2Fdf10d%2Fimg%2Favatars%2Fava_0014-72.png",
            "first_name": "Victoria",
            "real_name": "Victoria Costa",
            "display_name": "Victoria Costa",
            "team": "TUU48M0T1",
            "name": "victorycoast",
            "is_restricted": false,
            "is_ultra_restricted": false
        },
        "blocks": [
            {
                "type": "rich_text",
                "block_id": "be=i",
                "elements": [
                    {
                        "type": "rich_text_section",
                        "elements": [
                            {
                                "type": "text",
                                "text": "it would be helpful for me if we could make a workflow hierarchy of terminology -- the program level \/\/ challenge level \/\/ project level. I think I am following, but I think it could be useful for newcomers, too"
                            }
                        ]
                    }
                ]
            }
        ],
        "thread_ts": "1584175212.030900",
        "parent_user_id": "UV0QTJCMT",
        "reactions": [
            {
                "name": "+1",
                "users": [
                    "UV0GKVDUZ",
                    "UV2SC7ZE3",
                    "UV0QTJCMT"
                ],
                "count": 3
            }
        ]
    },
    {
        "client_msg_id": "974c1521-9c19-4492-bfcb-7454c59fbd64",
        "type": "message",
        "text": "<@UVDR74SJU> ^",
        "user": "U0100EPL9RT",
        "ts": "1584215307.060000",
        "team": "TUU48M0T1",
        "user_team": "TUU48M0T1",
        "source_team": "TUU48M0T1",
        "user_profile": {
            "avatar_hash": "gcb426d5e001",
            "image_72": "https:\/\/secure.gravatar.com\/avatar\/cb426d5e001776a4cbc74343e46f1916.jpg?s=72&d=https%3A%2F%2Fa.slack-edge.com%2Fdf10d%2Fimg%2Favatars%2Fava_0000-72.png",
            "first_name": "Zac",
            "real_name": "Zac",
            "display_name": "Zac",
            "team": "TUU48M0T1",
            "name": "zac",
            "is_restricted": false,
            "is_ultra_restricted": false
        },
        "blocks": [
            {
                "type": "rich_text",
                "block_id": "n7uQl",
                "elements": [
                    {
                        "type": "rich_text_section",
                        "elements": [
                            {
                                "type": "user",
                                "user_id": "UVDR74SJU"
                            },
                            {
                                "type": "text",
                                "text": " ^"
                            }
                        ]
                    }
                ]
            }
        ]
    },
    {
        "type": "message",
        "subtype": "channel_join",
        "ts": "1584215311.060200",
        "user": "UVDR74SJU",
        "text": "<@UVDR74SJU> has joined the channel",
        "inviter": "U0100EPL9RT"
    },
    {
        "client_msg_id": "4CF12C93-CDFE-4A7B-8DFB-FC9CAD1D417A",
        "type": "message",
        "text": "yup exactly what claire said ^^",
        "user": "UV0QTJCMT",
        "ts": "1584218736.060800",
        "team": "TUU48M0T1",
        "user_team": "TUU48M0T1",
        "source_team": "TUU48M0T1",
        "user_profile": {
            "avatar_hash": "11e3deb6d1a9",
            "image_72": "https:\/\/avatars.slack-edge.com\/2020-03-06\/986844736421_11e3deb6d1a949327ddd_72.png",
            "first_name": "Katherine",
            "real_name": "Katherine Holo",
            "display_name": "Kat Holo",
            "team": "TUU48M0T1",
            "name": "katherineh245",
            "is_restricted": false,
            "is_ultra_restricted": false
        },
        "blocks": [
            {
                "type": "rich_text",
                "block_id": "kPj69",
                "elements": [
                    {
                        "type": "rich_text_section",
                        "elements": [
                            {
                                "type": "text",
                                "text": "yup exactly what claire said ^^"
                            }
                        ]
                    }
                ]
            }
        ],
        "thread_ts": "1584209758.055200",
        "parent_user_id": "UV2SC7ZE3"
    },
    {
        "type": "message",
        "subtype": "channel_name",
        "ts": "1584219853.061000",
        "user": "UV0QTJCMT",
        "text": "<@UV0QTJCMT> has renamed the channel from \"prgrm-governance\" to \"prgm-governance\"",
        "old_name": "prgrm-governance",
        "name": "prgm-governance"
    },
    {
        "type": "message",
        "text": "hi <!channel> so a few things that we need help on:\n• adding suggestions to the <https:\/\/slack-redir.net\/link?url=https%3A%2F%2Fdocs.google.com%2Fdocument%2Fd%2F1rSFmGdFS7A4ckYSQ1PCt9qmbrhfeagpqNr1gydELGlg%2Fedit|greetbot message>\n• continuing to add on to the program <https:\/\/docs.google.com\/document\/d\/1h0Zu-Q_c71FUlyh66rAPcNR1s7ASOatY2oicsaedzsk\/edit#|onboarding doc>\n• fleshing out the \"<https:\/\/docs.google.com\/spreadsheets\/d\/12gwA5Mpccjgcss15HX2DUYDjJ1ku0k_ZXNMsXNLBL00\/edit#gid=0|master tasks spreadsheet>\" (just made a comment on the first tab about changing\/adding a few tabs) \n• writing the <https:\/\/docs.google.com\/document\/d\/1RmkhT_We4zEBlGhMMH_Jc44tqFqK9KIqCNSoV8pEz1w\/edit#|content to put onto the actual jogl program page> when it's done being developed",
        "upload": false,
        "blocks": [
            {
                "type": "rich_text",
                "block_id": "ODV=Z",
                "elements": [
                    {
                        "type": "rich_text_section",
                        "elements": [
                            {
                                "type": "text",
                                "text": "hi "
                            },
                            {
                                "type": "broadcast",
                                "range": "channel"
                            },
                            {
                                "type": "text",
                                "text": " so a few things that we need help on:\n"
                            }
                        ]
                    },
                    {
                        "type": "rich_text_list",
                        "style": "bullet",
                        "indent": 0,
                        "elements": [
                            {
                                "type": "rich_text_section",
                                "elements": [
                                    {
                                        "type": "text",
                                        "text": "adding suggestions to the "
                                    },
                                    {
                                        "type": "link",
                                        "url": "https:\/\/slack-redir.net\/link?url=https%3A%2F%2Fdocs.google.com%2Fdocument%2Fd%2F1rSFmGdFS7A4ckYSQ1PCt9qmbrhfeagpqNr1gydELGlg%2Fedit",
                                        "text": "greetbot message"
                                    }
                                ]
                            },
                            {
                                "type": "rich_text_section",
                                "elements": [
                                    {
                                        "type": "text",
                                        "text": "continuing to add on to the program "
                                    },
                                    {
                                        "type": "link",
                                        "url": "https:\/\/docs.google.com\/document\/d\/1h0Zu-Q_c71FUlyh66rAPcNR1s7ASOatY2oicsaedzsk\/edit#",
                                        "text": "onboarding doc"
                                    }
                                ]
                            },
                            {
                                "type": "rich_text_section",
                                "elements": [
                                    {
                                        "type": "text",
                                        "text": "fleshing out the \""
                                    },
                                    {
                                        "type": "link",
                                        "url": "https:\/\/docs.google.com\/spreadsheets\/d\/12gwA5Mpccjgcss15HX2DUYDjJ1ku0k_ZXNMsXNLBL00\/edit#gid=0",
                                        "text": "master tasks spreadsheet"
                                    },
                                    {
                                        "type": "text",
                                        "text": "\" (just made a comment on the first tab about changing\/adding a few tabs) "
                                    }
                                ]
                            },
                            {
                                "type": "rich_text_section",
                                "elements": [
                                    {
                                        "type": "text",
                                        "text": "writing the "
                                    },
                                    {
                                        "type": "link",
                                        "url": "https:\/\/docs.google.com\/document\/d\/1RmkhT_We4zEBlGhMMH_Jc44tqFqK9KIqCNSoV8pEz1w\/edit#",
                                        "text": "content to put onto the actual jogl program page"
                                    },
                                    {
                                        "type": "text",
                                        "text": " when it's done being developed"
                                    }
                                ]
                            }
                        ]
                    }
                ]
            }
        ],
        "user": "UV0QTJCMT",
        "ts": "1584222169.063200",
        "edited": {
            "user": "UV0QTJCMT",
            "ts": "1584222178.000000"
        },
        "client_msg_id": "f56db869-bd09-4a3c-8c4c-169b2c5301f7",
        "reactions": [
            {
                "name": "+1",
                "users": [
                    "UV2SC7ZE3",
                    "UV02WET96"
                ],
                "count": 2
            }
        ]
    }
]