[
    {
        "client_msg_id": "94d8ff36-7419-4cb1-b2f3-8ab1bbe40a33",
        "type": "message",
        "text": "<http:\/\/chng.it\/WHgQS58p8S>",
        "user": "UVA0E24KZ",
        "ts": "1585212242.000200",
        "team": "TUU48M0T1",
        "user_team": "TUU48M0T1",
        "source_team": "TUU48M0T1",
        "user_profile": {
            "avatar_hash": "g8d0c2cd1337",
            "image_72": "https:\/\/secure.gravatar.com\/avatar\/8d0c2cd1337827f7d3f3bafc23baca0b.jpg?s=72&d=https%3A%2F%2Fa.slack-edge.com%2Fdf10d%2Fimg%2Favatars%2Fava_0022-72.png",
            "first_name": "",
            "real_name": "Elliot Roth",
            "display_name": "Elliot Roth",
            "team": "TUU48M0T1",
            "name": "elliot",
            "is_restricted": false,
            "is_ultra_restricted": false
        },
        "attachments": [
            {
                "service_name": "Change.org",
                "title": "Sign the Petition",
                "title_link": "http:\/\/chng.it\/WHgQS58p8S",
                "text": "Demand FDA Approval for At-Home Coronavirus Testing",
                "fallback": "Change.org: Sign the Petition",
                "image_url": "https:\/\/assets.change.org\/photos\/9\/hm\/fs\/RkHMfSRjeLVBnUc-1600x900-noPad.jpg?1585212047",
                "image_width": 444,
                "image_height": 250,
                "from_url": "http:\/\/chng.it\/WHgQS58p8S",
                "image_bytes": 156903,
                "service_icon": "https:\/\/static.change.org\/favicons\/favicon-57x57.png",
                "id": 1,
                "original_url": "http:\/\/chng.it\/WHgQS58p8S"
            }
        ],
        "blocks": [
            {
                "type": "rich_text",
                "block_id": "8m8u8",
                "elements": [
                    {
                        "type": "rich_text_section",
                        "elements": [
                            {
                                "type": "link",
                                "url": "http:\/\/chng.it\/WHgQS58p8S"
                            }
                        ]
                    }
                ]
            }
        ]
    },
    {
        "client_msg_id": "e0bd6edf-6c41-4db6-95f6-e26786baf4db",
        "type": "message",
        "text": "^please sign and share!",
        "user": "UVA0E24KZ",
        "ts": "1585243208.000200",
        "team": "TUU48M0T1",
        "user_team": "TUU48M0T1",
        "source_team": "TUU48M0T1",
        "user_profile": {
            "avatar_hash": "g8d0c2cd1337",
            "image_72": "https:\/\/secure.gravatar.com\/avatar\/8d0c2cd1337827f7d3f3bafc23baca0b.jpg?s=72&d=https%3A%2F%2Fa.slack-edge.com%2Fdf10d%2Fimg%2Favatars%2Fava_0022-72.png",
            "first_name": "",
            "real_name": "Elliot Roth",
            "display_name": "Elliot Roth",
            "team": "TUU48M0T1",
            "name": "elliot",
            "is_restricted": false,
            "is_ultra_restricted": false
        },
        "blocks": [
            {
                "type": "rich_text",
                "block_id": "4hleb",
                "elements": [
                    {
                        "type": "rich_text_section",
                        "elements": [
                            {
                                "type": "text",
                                "text": "^please sign and share!"
                            }
                        ]
                    }
                ]
            }
        ]
    }
]