[
    {
        "type": "message",
        "subtype": "channel_join",
        "ts": "1583949544.004500",
        "user": "UUSMRLYH1",
        "text": "<@UUSMRLYH1> has joined the channel"
    },
    {
        "type": "message",
        "subtype": "channel_join",
        "ts": "1583949947.004700",
        "user": "UUPQGNNTV",
        "text": "<@UUPQGNNTV> has joined the channel"
    },
    {
        "client_msg_id": "5a3be3ce-87b5-4e06-bbb0-c7f5ec4932f1",
        "type": "message",
        "text": "Does anybody know of any companies that do protein purification? <@UV13874FN> noticed that for the sherlock method, there is an intensive process to purify LwaCas13a. I know for SoundBio, the community lab located in Seattle, the process seems quite intensive, and it doesn't seem like any company sells it. There are plasmids like this: <https:\/\/www.addgene.org\/90097\/> which are being sold. But  we'll need to purify it somehow...",
        "user": "UV2SC7ZE3",
        "ts": "1583983226.007600",
        "team": "TUU48M0T1",
        "user_team": "TUU48M0T1",
        "source_team": "TUU48M0T1",
        "user_profile": {
            "avatar_hash": "d28dd0d076e8",
            "image_72": "https:\/\/avatars.slack-edge.com\/2020-03-14\/987873094258_d28dd0d076e8fa9a8409_72.png",
            "first_name": "David",
            "real_name": "David Lu",
            "display_name": "David Lu",
            "team": "TUU48M0T1",
            "name": "ludavidyi",
            "is_restricted": false,
            "is_ultra_restricted": false
        },
        "edited": {
            "user": "UV2SC7ZE3",
            "ts": "1583983248.000000"
        },
        "attachments": [
            {
                "title": "Addgene: pC013 - Twinstrep-SUMO-huLwCas13a",
                "title_link": "https:\/\/www.addgene.org\/90097\/",
                "text": "Plasmid pC013 - Twinstrep-SUMO-huLwCas13a from Dr. Feng Zhang's lab contains the insert LwCas13a and is published in Science. 2017 Apr 13. pii: eaam9321. doi: 10.1126\/science.aam9321. This plasmid is available through Addgene.",
                "fallback": "Addgene: pC013 - Twinstrep-SUMO-huLwCas13a",
                "from_url": "https:\/\/www.addgene.org\/90097\/",
                "service_icon": "https:\/\/www.addgene.org\/headers\/images\/addgene-favicon.png",
                "service_name": "addgene.org",
                "id": 1,
                "original_url": "https:\/\/www.addgene.org\/90097\/"
            }
        ],
        "blocks": [
            {
                "type": "rich_text",
                "block_id": "eat",
                "elements": [
                    {
                        "type": "rich_text_section",
                        "elements": [
                            {
                                "type": "text",
                                "text": "Does anybody know of any companies that do protein purification? "
                            },
                            {
                                "type": "user",
                                "user_id": "UV13874FN"
                            },
                            {
                                "type": "text",
                                "text": " noticed that for the sherlock method, there is an intensive process to purify LwaCas13a. I know for SoundBio, the community lab located in Seattle, the process seems quite intensive, and it doesn't seem like any company sells it. There are plasmids like this: "
                            },
                            {
                                "type": "link",
                                "url": "https:\/\/www.addgene.org\/90097\/"
                            },
                            {
                                "type": "text",
                                "text": " which are being sold. But  we'll need to purify it somehow..."
                            }
                        ]
                    }
                ]
            }
        ],
        "thread_ts": "1583983226.007600",
        "reply_count": 5,
        "reply_users_count": 2,
        "latest_reply": "1584203224.011700",
        "reply_users": [
            "UUUEFQW8N",
            "U0100EPL9RT"
        ],
        "replies": [
            {
                "user": "UUUEFQW8N",
                "ts": "1584023100.007900"
            },
            {
                "user": "UUUEFQW8N",
                "ts": "1584023195.008100"
            },
            {
                "user": "U0100EPL9RT",
                "ts": "1584203191.011200"
            },
            {
                "user": "U0100EPL9RT",
                "ts": "1584203215.011400"
            },
            {
                "user": "U0100EPL9RT",
                "ts": "1584203224.011700"
            }
        ],
        "subscribed": true,
        "last_read": "1584203224.011700"
    }
]