[
    {
        "client_msg_id": "8F511066-A85A-49E4-A044-E8414014E396",
        "type": "message",
        "text": "Hi everyone, we need to have a small team of people helping on coordinating the various efforts on diagnostics. Who would be interested? :hugging_face:",
        "user": "UV02WET96",
        "ts": "1585216056.012300",
        "team": "TUU48M0T1",
        "user_team": "TUU48M0T1",
        "source_team": "TUU48M0T1",
        "user_profile": {
            "avatar_hash": "a99c74a194f8",
            "image_72": "https:\/\/avatars.slack-edge.com\/2020-03-07\/975708504851_a99c74a194f86715ca7d_72.png",
            "first_name": "Thomas",
            "real_name": "Thomas Landrain",
            "display_name": "Thomas Landrain - CoFounder\/CEO JOGL",
            "team": "TUU48M0T1",
            "name": "thomas",
            "is_restricted": false,
            "is_ultra_restricted": false
        },
        "blocks": [
            {
                "type": "rich_text",
                "block_id": "U9l1",
                "elements": [
                    {
                        "type": "rich_text_section",
                        "elements": [
                            {
                                "type": "text",
                                "text": "Hi everyone, we need to have a small team of people helping on coordinating the various efforts on diagnostics. Who would be interested? "
                            },
                            {
                                "type": "emoji",
                                "name": "hugging_face"
                            }
                        ]
                    }
                ]
            }
        ]
    }
]