[
    {
        "type": "message",
        "subtype": "channel_join",
        "ts": "1584613664.000200",
        "user": "U0103128G4D",
        "text": "<@U0103128G4D> has joined the channel",
        "inviter": "UVA46RKLY"
    },
    {
        "client_msg_id": "fc650b20-ec80-42ca-abdc-265f2e3338fe",
        "type": "message",
        "text": "One of the project I am working at present is coming up with a proposal on how we can quickly differentiate COVID-19 from normal subjects. My expertise is mass spectrometry and exploring different analytes, their discriminating potential for developing an assay. Nucleic acids are a great choice, but the sample preparation time is 3-4 hours. Thus, for now am focusing on proteins and their differentiating potential.",
        "user": "UVA46RKLY",
        "ts": "1584614647.007900",
        "team": "TUU48M0T1",
        "user_team": "TUU48M0T1",
        "source_team": "TUU48M0T1",
        "user_profile": {
            "avatar_hash": "8d10ec5a9437",
            "image_72": "https:\/\/avatars.slack-edge.com\/2020-03-12\/996164491840_8d10ec5a943740f34518_72.jpg",
            "first_name": "Nivedita",
            "real_name": "Nivedita Bhattacharya",
            "display_name": "Nivi",
            "team": "TUU48M0T1",
            "name": "evaladybrave",
            "is_restricted": false,
            "is_ultra_restricted": false
        },
        "blocks": [
            {
                "type": "rich_text",
                "block_id": "9Hcr",
                "elements": [
                    {
                        "type": "rich_text_section",
                        "elements": [
                            {
                                "type": "text",
                                "text": "One of the project I am working at present is coming up with a proposal on how we can quickly differentiate COVID-19 from normal subjects. My expertise is mass spectrometry and exploring different analytes, their discriminating potential for developing an assay. Nucleic acids are a great choice, but the sample preparation time is 3-4 hours. Thus, for now am focusing on proteins and their differentiating potential."
                            }
                        ]
                    }
                ]
            }
        ]
    },
    {
        "client_msg_id": "cb97c466-9cb0-4574-bfa0-374f1fb887f3",
        "type": "message",
        "text": "Okay cool. I’m gonna create a spreadsheet with all the ideas that people have made and not just their protocols, but whether they would be suited for particular things…",
        "user": "U0103128G4D",
        "ts": "1584636123.000700",
        "team": "TUU48M0T1",
        "user_team": "TUU48M0T1",
        "source_team": "TUU48M0T1",
        "user_profile": {
            "avatar_hash": "g76b7a7fcf75",
            "image_72": "https:\/\/secure.gravatar.com\/avatar\/76b7a7fcf754c895c0bf9763dfdebde4.jpg?s=72&d=https%3A%2F%2Fa.slack-edge.com%2Fdf10d%2Fimg%2Favatars%2Fava_0005-72.png",
            "first_name": "",
            "real_name": "Melody Wu",
            "display_name": "Melody Wu",
            "team": "TUU48M0T1",
            "name": "melody_w",
            "is_restricted": false,
            "is_ultra_restricted": false
        },
        "blocks": [
            {
                "type": "rich_text",
                "block_id": "mBx42",
                "elements": [
                    {
                        "type": "rich_text_section",
                        "elements": [
                            {
                                "type": "text",
                                "text": "Okay cool. I’m gonna create a spreadsheet with all the ideas that people have made and not just their protocols, but whether they would be suited for particular things…"
                            }
                        ]
                    }
                ]
            }
        ],
        "reactions": [
            {
                "name": "+1",
                "users": [
                    "UVA46RKLY"
                ],
                "count": 1
            }
        ]
    },
    {
        "client_msg_id": "acd6b07f-88e5-4549-88d6-1b0671d66266",
        "type": "message",
        "text": "will be coming soon by the end of the week",
        "user": "U0103128G4D",
        "ts": "1584636129.001100",
        "team": "TUU48M0T1",
        "user_team": "TUU48M0T1",
        "source_team": "TUU48M0T1",
        "user_profile": {
            "avatar_hash": "g76b7a7fcf75",
            "image_72": "https:\/\/secure.gravatar.com\/avatar\/76b7a7fcf754c895c0bf9763dfdebde4.jpg?s=72&d=https%3A%2F%2Fa.slack-edge.com%2Fdf10d%2Fimg%2Favatars%2Fava_0005-72.png",
            "first_name": "",
            "real_name": "Melody Wu",
            "display_name": "Melody Wu",
            "team": "TUU48M0T1",
            "name": "melody_w",
            "is_restricted": false,
            "is_ultra_restricted": false
        },
        "blocks": [
            {
                "type": "rich_text",
                "block_id": "MKT2s",
                "elements": [
                    {
                        "type": "rich_text_section",
                        "elements": [
                            {
                                "type": "text",
                                "text": "will be coming soon by the end of the week"
                            }
                        ]
                    }
                ]
            }
        ]
    }
]