[
    {
        "type": "message",
        "subtype": "channel_join",
        "ts": "1584208470.000200",
        "user": "UV0QTJCMT",
        "text": "<@UV0QTJCMT> has joined the channel"
    },
    {
        "type": "message",
        "subtype": "channel_purpose",
        "ts": "1584208472.000300",
        "user": "UV0QTJCMT",
        "text": "<@UV0QTJCMT> set the channel purpose: To facilitate introductions!",
        "purpose": "To facilitate introductions!"
    },
    {
        "type": "message",
        "subtype": "channel_join",
        "ts": "1584209562.000500",
        "user": "UV2CNECM7",
        "text": "<@UV2CNECM7> has joined the channel"
    },
    {
        "type": "message",
        "subtype": "channel_join",
        "ts": "1584212240.000700",
        "user": "UV2SC7ZE3",
        "text": "<@UV2SC7ZE3> has joined the channel"
    },
    {
        "type": "message",
        "subtype": "channel_join",
        "ts": "1584221519.000900",
        "user": "U0100EPL9RT",
        "text": "<@U0100EPL9RT> has joined the channel"
    },
    {
        "type": "message",
        "subtype": "channel_join",
        "ts": "1584221549.001100",
        "user": "UV02WET96",
        "text": "<@UV02WET96> has joined the channel"
    },
    {
        "type": "message",
        "subtype": "channel_join",
        "ts": "1584221690.001300",
        "user": "UUUEFQW8N",
        "text": "<@UUUEFQW8N> has joined the channel",
        "inviter": "UV0QTJCMT"
    },
    {
        "type": "message",
        "subtype": "channel_join",
        "ts": "1584221798.001500",
        "user": "U0100BF93LY",
        "text": "<@U0100BF93LY> has joined the channel"
    },
    {
        "client_msg_id": "ed51e830-7080-459e-b011-12929bd3c336",
        "type": "message",
        "text": "Hello everyone. I have a major in Biochemistry and currently doing a PhD in cryopreservation, specifically in molecular biophysics. Also have close connections with a tissue engineering lab, a biotechnology lab, and a photochemistry lab. I am currently working alongside the other Slack channel (Helpful Engineering) that is trying to 3D print ventilators and other PPE. Their research is very software, hardware and engineering-oriented. I've been advising them on biocompatible materials. *If I can be of any help here, let me know.*",
        "user": "U0100BF93LY",
        "ts": "1584221811.001700",
        "team": "TUU48M0T1",
        "user_team": "TUU48M0T1",
        "source_team": "TUU48M0T1",
        "user_profile": {
            "avatar_hash": "7290646a8195",
            "image_72": "https:\/\/avatars.slack-edge.com\/2020-03-14\/1002603752278_7290646a8195e8171ad5_72.jpg",
            "first_name": "Bruno",
            "real_name": "Bruno Guerreiro",
            "display_name": "Bruno Guerreiro",
            "team": "TUU48M0T1",
            "name": "bm.guerreiro",
            "is_restricted": false,
            "is_ultra_restricted": false
        },
        "blocks": [
            {
                "type": "rich_text",
                "block_id": "2bjN",
                "elements": [
                    {
                        "type": "rich_text_section",
                        "elements": [
                            {
                                "type": "text",
                                "text": "Hello everyone. I have a major in Biochemistry and currently doing a PhD in cryopreservation, specifically in molecular biophysics. Also have close connections with a tissue engineering lab, a biotechnology lab, and a photochemistry lab. I am currently working alongside the other Slack channel (Helpful Engineering) that is trying to 3D print ventilators and other PPE. Their research is very software, hardware and engineering-oriented. I've been advising them on biocompatible materials. "
                            },
                            {
                                "type": "text",
                                "text": "If I can be of any help here, let me know.",
                                "style": {
                                    "bold": true
                                }
                            }
                        ]
                    }
                ]
            }
        ],
        "thread_ts": "1584221811.001700",
        "reply_count": 1,
        "reply_users_count": 1,
        "latest_reply": "1584222296.001800",
        "reply_users": [
            "UV0QTJCMT"
        ],
        "replies": [
            {
                "user": "UV0QTJCMT",
                "ts": "1584222296.001800"
            }
        ],
        "subscribed": false
    },
    {
        "client_msg_id": "747dce99-a1ce-4826-9259-1acbd29e38d1",
        "type": "message",
        "text": "welcome <@U0100BF93LY>! perhaps the <#C010001FZ6J|humidity-anti-covid19-shield> project might have some needs\/questions about materials? (they're trying to also develop a ppe idea)",
        "user": "UV0QTJCMT",
        "ts": "1584222296.001800",
        "team": "TUU48M0T1",
        "user_team": "TUU48M0T1",
        "source_team": "TUU48M0T1",
        "user_profile": {
            "avatar_hash": "11e3deb6d1a9",
            "image_72": "https:\/\/avatars.slack-edge.com\/2020-03-06\/986844736421_11e3deb6d1a949327ddd_72.png",
            "first_name": "Katherine",
            "real_name": "Katherine Holo",
            "display_name": "Kat Holo",
            "team": "TUU48M0T1",
            "name": "katherineh245",
            "is_restricted": false,
            "is_ultra_restricted": false
        },
        "blocks": [
            {
                "type": "rich_text",
                "block_id": "hFZ",
                "elements": [
                    {
                        "type": "rich_text_section",
                        "elements": [
                            {
                                "type": "text",
                                "text": "welcome "
                            },
                            {
                                "type": "user",
                                "user_id": "U0100BF93LY"
                            },
                            {
                                "type": "text",
                                "text": "! perhaps the "
                            },
                            {
                                "type": "channel",
                                "channel_id": "C010001FZ6J"
                            },
                            {
                                "type": "text",
                                "text": " project might have some needs\/questions about materials? (they're trying to also develop a ppe idea)"
                            }
                        ]
                    }
                ]
            }
        ],
        "thread_ts": "1584221811.001700",
        "parent_user_id": "U0100BF93LY",
        "reactions": [
            {
                "name": "+1",
                "users": [
                    "U0100BF93LY"
                ],
                "count": 1
            }
        ]
    },
    {
        "type": "message",
        "subtype": "channel_join",
        "ts": "1584224775.002200",
        "user": "U01009BMH52",
        "text": "<@U01009BMH52> has joined the channel"
    },
    {
        "type": "message",
        "subtype": "channel_join",
        "ts": "1584225015.002400",
        "user": "U0102UZALTG",
        "text": "<@U0102UZALTG> has joined the channel"
    },
    {
        "type": "message",
        "subtype": "channel_join",
        "ts": "1584225422.002600",
        "user": "UV0GKVDUZ",
        "text": "<@UV0GKVDUZ> has joined the channel",
        "inviter": "UV0QTJCMT"
    },
    {
        "type": "message",
        "subtype": "channel_join",
        "ts": "1584225422.002800",
        "user": "UV3HA9MM4",
        "text": "<@UV3HA9MM4> has joined the channel",
        "inviter": "UV0QTJCMT"
    },
    {
        "type": "message",
        "subtype": "channel_join",
        "ts": "1584225422.003000",
        "user": "UVA1JS2PR",
        "text": "<@UVA1JS2PR> has joined the channel",
        "inviter": "UV0QTJCMT"
    },
    {
        "type": "message",
        "subtype": "channel_join",
        "ts": "1584225422.003200",
        "user": "UV0FQT2QL",
        "text": "<@UV0FQT2QL> has joined the channel",
        "inviter": "UV0QTJCMT"
    },
    {
        "type": "message",
        "subtype": "channel_join",
        "ts": "1584225422.003400",
        "user": "UV3746ST1",
        "text": "<@UV3746ST1> has joined the channel",
        "inviter": "UV0QTJCMT"
    },
    {
        "type": "message",
        "subtype": "channel_join",
        "ts": "1584225422.003600",
        "user": "U0100GHS29E",
        "text": "<@U0100GHS29E> has joined the channel",
        "inviter": "UV0QTJCMT"
    },
    {
        "type": "message",
        "subtype": "channel_join",
        "ts": "1584225423.003800",
        "user": "UVCTZ37DE",
        "text": "<@UVCTZ37DE> has joined the channel",
        "inviter": "UV0QTJCMT"
    },
    {
        "type": "message",
        "subtype": "channel_join",
        "ts": "1584225423.004000",
        "user": "UVABNG1A9",
        "text": "<@UVABNG1A9> has joined the channel",
        "inviter": "UV0QTJCMT"
    },
    {
        "type": "message",
        "subtype": "channel_join",
        "ts": "1584225423.004200",
        "user": "UV6SDUFU4",
        "text": "<@UV6SDUFU4> has joined the channel",
        "inviter": "UV0QTJCMT"
    },
    {
        "type": "message",
        "subtype": "channel_join",
        "ts": "1584225423.004400",
        "user": "UV99UNP8E",
        "text": "<@UV99UNP8E> has joined the channel",
        "inviter": "UV0QTJCMT"
    },
    {
        "type": "message",
        "subtype": "channel_join",
        "ts": "1584225423.004600",
        "user": "UV18Y0Q1Y",
        "text": "<@UV18Y0Q1Y> has joined the channel",
        "inviter": "UV0QTJCMT"
    },
    {
        "type": "message",
        "subtype": "channel_join",
        "ts": "1584225423.004800",
        "user": "UV39M083H",
        "text": "<@UV39M083H> has joined the channel",
        "inviter": "UV0QTJCMT"
    },
    {
        "type": "message",
        "subtype": "channel_join",
        "ts": "1584225423.005000",
        "user": "U01009SF4UV",
        "text": "<@U01009SF4UV> has joined the channel",
        "inviter": "UV0QTJCMT"
    },
    {
        "type": "message",
        "subtype": "channel_join",
        "ts": "1584225423.005200",
        "user": "UUU098YEN",
        "text": "<@UUU098YEN> has joined the channel",
        "inviter": "UV0QTJCMT"
    },
    {
        "type": "message",
        "subtype": "channel_join",
        "ts": "1584225423.005400",
        "user": "UUYGC6ZHQ",
        "text": "<@UUYGC6ZHQ> has joined the channel",
        "inviter": "UV0QTJCMT"
    },
    {
        "type": "message",
        "subtype": "channel_join",
        "ts": "1584225423.005600",
        "user": "UV0BB32QL",
        "text": "<@UV0BB32QL> has joined the channel",
        "inviter": "UV0QTJCMT"
    },
    {
        "type": "message",
        "subtype": "channel_join",
        "ts": "1584225424.005800",
        "user": "U0100TGE5PG",
        "text": "<@U0100TGE5PG> has joined the channel",
        "inviter": "UV0QTJCMT"
    },
    {
        "type": "message",
        "subtype": "channel_join",
        "ts": "1584225424.006000",
        "user": "U0101RW22P9",
        "text": "<@U0101RW22P9> has joined the channel",
        "inviter": "UV0QTJCMT"
    },
    {
        "type": "message",
        "subtype": "channel_join",
        "ts": "1584225424.006200",
        "user": "UUW1Q644T",
        "text": "<@UUW1Q644T> has joined the channel",
        "inviter": "UV0QTJCMT"
    },
    {
        "type": "message",
        "subtype": "channel_join",
        "ts": "1584225424.006400",
        "user": "U0101DUALAJ",
        "text": "<@U0101DUALAJ> has joined the channel",
        "inviter": "UV0QTJCMT"
    },
    {
        "type": "message",
        "subtype": "channel_join",
        "ts": "1584225486.006600",
        "user": "UV1RE76NN",
        "text": "<@UV1RE76NN> has joined the channel",
        "inviter": "UV0QTJCMT"
    },
    {
        "type": "message",
        "subtype": "channel_join",
        "ts": "1584225486.006800",
        "user": "UVADMLUB0",
        "text": "<@UVADMLUB0> has joined the channel",
        "inviter": "UV0QTJCMT"
    },
    {
        "type": "message",
        "subtype": "channel_join",
        "ts": "1584225486.007000",
        "user": "UV48S3N6T",
        "text": "<@UV48S3N6T> has joined the channel",
        "inviter": "UV0QTJCMT"
    },
    {
        "type": "message",
        "subtype": "channel_join",
        "ts": "1584225486.007200",
        "user": "UVA91N19V",
        "text": "<@UVA91N19V> has joined the channel",
        "inviter": "UV0QTJCMT"
    },
    {
        "type": "message",
        "subtype": "channel_join",
        "ts": "1584225486.007400",
        "user": "UV0S4MVDX",
        "text": "<@UV0S4MVDX> has joined the channel",
        "inviter": "UV0QTJCMT"
    },
    {
        "type": "message",
        "subtype": "channel_join",
        "ts": "1584225486.007600",
        "user": "UV42V9XTQ",
        "text": "<@UV42V9XTQ> has joined the channel",
        "inviter": "UV0QTJCMT"
    },
    {
        "type": "message",
        "subtype": "channel_join",
        "ts": "1584225486.007800",
        "user": "UVAH6U0PP",
        "text": "<@UVAH6U0PP> has joined the channel",
        "inviter": "UV0QTJCMT"
    },
    {
        "type": "message",
        "subtype": "channel_join",
        "ts": "1584225486.008000",
        "user": "UVCNYTP0Q",
        "text": "<@UVCNYTP0Q> has joined the channel",
        "inviter": "UV0QTJCMT"
    },
    {
        "type": "message",
        "subtype": "channel_join",
        "ts": "1584225486.008200",
        "user": "UUXTPFTD0",
        "text": "<@UUXTPFTD0> has joined the channel",
        "inviter": "UV0QTJCMT"
    },
    {
        "type": "message",
        "subtype": "channel_join",
        "ts": "1584225487.008400",
        "user": "UURGMNE3T",
        "text": "<@UURGMNE3T> has joined the channel",
        "inviter": "UV0QTJCMT"
    },
    {
        "type": "message",
        "subtype": "channel_join",
        "ts": "1584225487.008600",
        "user": "UVBEDFNPJ",
        "text": "<@UVBEDFNPJ> has joined the channel",
        "inviter": "UV0QTJCMT"
    },
    {
        "type": "message",
        "subtype": "channel_join",
        "ts": "1584225487.008800",
        "user": "U0100EYRK6Z",
        "text": "<@U0100EYRK6Z> has joined the channel",
        "inviter": "UV0QTJCMT"
    },
    {
        "type": "message",
        "subtype": "channel_join",
        "ts": "1584225487.009000",
        "user": "UV45NJJ01",
        "text": "<@UV45NJJ01> has joined the channel",
        "inviter": "UV0QTJCMT"
    },
    {
        "type": "message",
        "subtype": "channel_join",
        "ts": "1584225487.009200",
        "user": "UVAHXT4NQ",
        "text": "<@UVAHXT4NQ> has joined the channel",
        "inviter": "UV0QTJCMT"
    },
    {
        "type": "message",
        "subtype": "channel_join",
        "ts": "1584225487.009400",
        "user": "UV90DGB4N",
        "text": "<@UV90DGB4N> has joined the channel",
        "inviter": "UV0QTJCMT"
    },
    {
        "type": "message",
        "subtype": "channel_join",
        "ts": "1584225487.009600",
        "user": "UVA46RKLY",
        "text": "<@UVA46RKLY> has joined the channel",
        "inviter": "UV0QTJCMT"
    },
    {
        "type": "message",
        "subtype": "channel_join",
        "ts": "1584225545.009800",
        "user": "UUS2G6N6M",
        "text": "<@UUS2G6N6M> has joined the channel",
        "inviter": "UV0QTJCMT"
    },
    {
        "type": "message",
        "subtype": "channel_join",
        "ts": "1584225545.010000",
        "user": "UUWPKNE2E",
        "text": "<@UUWPKNE2E> has joined the channel",
        "inviter": "UV0QTJCMT"
    },
    {
        "type": "message",
        "subtype": "channel_join",
        "ts": "1584225545.010200",
        "user": "UV1A22N3W",
        "text": "<@UV1A22N3W> has joined the channel",
        "inviter": "UV0QTJCMT"
    },
    {
        "type": "message",
        "subtype": "channel_join",
        "ts": "1584225545.010400",
        "user": "UUPFF4TC3",
        "text": "<@UUPFF4TC3> has joined the channel",
        "inviter": "UV0QTJCMT"
    },
    {
        "type": "message",
        "subtype": "channel_join",
        "ts": "1584225545.010600",
        "user": "UUX34JPLH",
        "text": "<@UUX34JPLH> has joined the channel",
        "inviter": "UV0QTJCMT"
    },
    {
        "type": "message",
        "subtype": "channel_join",
        "ts": "1584225545.010800",
        "user": "UV9SUH41W",
        "text": "<@UV9SUH41W> has joined the channel",
        "inviter": "UV0QTJCMT"
    },
    {
        "type": "message",
        "subtype": "channel_join",
        "ts": "1584225545.011000",
        "user": "UV5CCJ9RC",
        "text": "<@UV5CCJ9RC> has joined the channel",
        "inviter": "UV0QTJCMT"
    },
    {
        "type": "message",
        "subtype": "channel_join",
        "ts": "1584225546.011200",
        "user": "UV9V03C8Y",
        "text": "<@UV9V03C8Y> has joined the channel",
        "inviter": "UV0QTJCMT"
    },
    {
        "type": "message",
        "subtype": "channel_join",
        "ts": "1584225546.011400",
        "user": "UV87UQ37A",
        "text": "<@UV87UQ37A> has joined the channel",
        "inviter": "UV0QTJCMT"
    },
    {
        "type": "message",
        "subtype": "channel_join",
        "ts": "1584225546.011600",
        "user": "UVAUVMHN0",
        "text": "<@UVAUVMHN0> has joined the channel",
        "inviter": "UV0QTJCMT"
    },
    {
        "type": "message",
        "subtype": "channel_join",
        "ts": "1584225546.011800",
        "user": "UUSMRLYH1",
        "text": "<@UUSMRLYH1> has joined the channel",
        "inviter": "UV0QTJCMT"
    },
    {
        "type": "message",
        "subtype": "channel_join",
        "ts": "1584225546.012000",
        "user": "UV1D3FJ0M",
        "text": "<@UV1D3FJ0M> has joined the channel",
        "inviter": "UV0QTJCMT"
    },
    {
        "type": "message",
        "subtype": "channel_join",
        "ts": "1584225546.012200",
        "user": "UVD1SPRCL",
        "text": "<@UVD1SPRCL> has joined the channel",
        "inviter": "UV0QTJCMT"
    },
    {
        "type": "message",
        "subtype": "channel_join",
        "ts": "1584225546.012400",
        "user": "UV7R9KG2C",
        "text": "<@UV7R9KG2C> has joined the channel",
        "inviter": "UV0QTJCMT"
    },
    {
        "type": "message",
        "subtype": "channel_join",
        "ts": "1584225546.012600",
        "user": "UV0RRGB6H",
        "text": "<@UV0RRGB6H> has joined the channel",
        "inviter": "UV0QTJCMT"
    },
    {
        "type": "message",
        "subtype": "channel_join",
        "ts": "1584225546.012800",
        "user": "UVAJ9BJ87",
        "text": "<@UVAJ9BJ87> has joined the channel",
        "inviter": "UV0QTJCMT"
    },
    {
        "type": "message",
        "subtype": "channel_join",
        "ts": "1584225650.013100",
        "user": "UV0CX49QB",
        "text": "<@UV0CX49QB> has joined the channel",
        "inviter": "UV0QTJCMT"
    },
    {
        "type": "message",
        "subtype": "channel_join",
        "ts": "1584225650.013300",
        "user": "UUNQ7H1MG",
        "text": "<@UUNQ7H1MG> has joined the channel",
        "inviter": "UV0QTJCMT"
    },
    {
        "type": "message",
        "subtype": "channel_join",
        "ts": "1584225650.013500",
        "user": "UV19CVA93",
        "text": "<@UV19CVA93> has joined the channel",
        "inviter": "UV0QTJCMT"
    },
    {
        "type": "message",
        "subtype": "channel_join",
        "ts": "1584225651.013700",
        "user": "UUY5NSL2V",
        "text": "<@UUY5NSL2V> has joined the channel",
        "inviter": "UV0QTJCMT"
    },
    {
        "type": "message",
        "subtype": "channel_join",
        "ts": "1584225651.013900",
        "user": "UV85E8945",
        "text": "<@UV85E8945> has joined the channel",
        "inviter": "UV0QTJCMT"
    },
    {
        "type": "message",
        "subtype": "channel_join",
        "ts": "1584225651.014100",
        "user": "UUUB9RFQA",
        "text": "<@UUUB9RFQA> has joined the channel",
        "inviter": "UV0QTJCMT"
    },
    {
        "type": "message",
        "subtype": "channel_join",
        "ts": "1584225651.014300",
        "user": "UUYSVHXTL",
        "text": "<@UUYSVHXTL> has joined the channel",
        "inviter": "UV0QTJCMT"
    },
    {
        "type": "message",
        "subtype": "channel_join",
        "ts": "1584225651.014500",
        "user": "UV229V9SQ",
        "text": "<@UV229V9SQ> has joined the channel",
        "inviter": "UV0QTJCMT"
    },
    {
        "type": "message",
        "subtype": "channel_join",
        "ts": "1584225651.014700",
        "user": "UV9PSNTUY",
        "text": "<@UV9PSNTUY> has joined the channel",
        "inviter": "UV0QTJCMT"
    },
    {
        "type": "message",
        "subtype": "channel_join",
        "ts": "1584225651.014900",
        "user": "UV0ASBY3E",
        "text": "<@UV0ASBY3E> has joined the channel",
        "inviter": "UV0QTJCMT"
    },
    {
        "type": "message",
        "subtype": "channel_join",
        "ts": "1584225651.015100",
        "user": "UUSPCUDL3",
        "text": "<@UUSPCUDL3> has joined the channel",
        "inviter": "UV0QTJCMT"
    },
    {
        "type": "message",
        "subtype": "channel_join",
        "ts": "1584225652.015300",
        "user": "UV1PJF1FC",
        "text": "<@UV1PJF1FC> has joined the channel",
        "inviter": "UV0QTJCMT"
    },
    {
        "type": "message",
        "subtype": "channel_join",
        "ts": "1584225652.015500",
        "user": "UUW41MYTV",
        "text": "<@UUW41MYTV> has joined the channel",
        "inviter": "UV0QTJCMT"
    },
    {
        "type": "message",
        "subtype": "channel_join",
        "ts": "1584225652.015700",
        "user": "U0100DEBABS",
        "text": "<@U0100DEBABS> has joined the channel",
        "inviter": "UV0QTJCMT"
    },
    {
        "type": "message",
        "subtype": "channel_join",
        "ts": "1584225652.015900",
        "user": "UUZ5ESJUR",
        "text": "<@UUZ5ESJUR> has joined the channel",
        "inviter": "UV0QTJCMT"
    },
    {
        "type": "message",
        "subtype": "channel_join",
        "ts": "1584225652.016100",
        "user": "UV8HN81LM",
        "text": "<@UV8HN81LM> has joined the channel",
        "inviter": "UV0QTJCMT"
    },
    {
        "type": "message",
        "subtype": "channel_join",
        "ts": "1584225652.016300",
        "user": "U0102C4767Q",
        "text": "<@U0102C4767Q> has joined the channel",
        "inviter": "UV0QTJCMT"
    },
    {
        "type": "message",
        "subtype": "channel_join",
        "ts": "1584225652.016500",
        "user": "UUVC28VNW",
        "text": "<@UUVC28VNW> has joined the channel",
        "inviter": "UV0QTJCMT"
    },
    {
        "type": "message",
        "subtype": "channel_join",
        "ts": "1584225652.016700",
        "user": "UV0PCSG58",
        "text": "<@UV0PCSG58> has joined the channel",
        "inviter": "UV0QTJCMT"
    },
    {
        "type": "message",
        "subtype": "channel_join",
        "ts": "1584225653.016900",
        "user": "UV13874FN",
        "text": "<@UV13874FN> has joined the channel",
        "inviter": "UV0QTJCMT"
    },
    {
        "type": "message",
        "subtype": "channel_join",
        "ts": "1584225653.017100",
        "user": "UVD51JE68",
        "text": "<@UVD51JE68> has joined the channel",
        "inviter": "UV0QTJCMT"
    },
    {
        "type": "message",
        "subtype": "channel_join",
        "ts": "1584225653.017300",
        "user": "UVA0E24KZ",
        "text": "<@UVA0E24KZ> has joined the channel",
        "inviter": "UV0QTJCMT"
    },
    {
        "type": "message",
        "subtype": "channel_join",
        "ts": "1584225653.017500",
        "user": "UUSKUHPEE",
        "text": "<@UUSKUHPEE> has joined the channel",
        "inviter": "UV0QTJCMT"
    },
    {
        "type": "message",
        "subtype": "channel_join",
        "ts": "1584225653.017700",
        "user": "UV2NTML9H",
        "text": "<@UV2NTML9H> has joined the channel",
        "inviter": "UV0QTJCMT"
    },
    {
        "type": "message",
        "subtype": "channel_join",
        "ts": "1584225653.017900",
        "user": "UUPQGNNTV",
        "text": "<@UUPQGNNTV> has joined the channel",
        "inviter": "UV0QTJCMT"
    },
    {
        "type": "message",
        "subtype": "channel_join",
        "ts": "1584225653.018100",
        "user": "UV221GBV1",
        "text": "<@UV221GBV1> has joined the channel",
        "inviter": "UV0QTJCMT"
    },
    {
        "type": "message",
        "subtype": "channel_join",
        "ts": "1584225653.018300",
        "user": "UV8Q23Y1K",
        "text": "<@UV8Q23Y1K> has joined the channel",
        "inviter": "UV0QTJCMT"
    },
    {
        "type": "message",
        "subtype": "channel_join",
        "ts": "1584225653.018500",
        "user": "UUP8XJTH8",
        "text": "<@UUP8XJTH8> has joined the channel",
        "inviter": "UV0QTJCMT"
    },
    {
        "type": "message",
        "subtype": "channel_join",
        "ts": "1584225653.018700",
        "user": "UUNGFHSV8",
        "text": "<@UUNGFHSV8> has joined the channel",
        "inviter": "UV0QTJCMT"
    },
    {
        "type": "message",
        "subtype": "channel_join",
        "ts": "1584225653.018900",
        "user": "U0100ES0SG0",
        "text": "<@U0100ES0SG0> has joined the channel",
        "inviter": "UV0QTJCMT"
    },
    {
        "type": "message",
        "subtype": "channel_join",
        "ts": "1584225653.019100",
        "user": "UUWLPKCLB",
        "text": "<@UUWLPKCLB> has joined the channel",
        "inviter": "UV0QTJCMT"
    },
    {
        "type": "message",
        "subtype": "channel_join",
        "ts": "1584225653.019300",
        "user": "UVA5NGLMS",
        "text": "<@UVA5NGLMS> has joined the channel",
        "inviter": "UV0QTJCMT"
    },
    {
        "type": "message",
        "subtype": "channel_join",
        "ts": "1584225654.019500",
        "user": "UV8F6CP44",
        "text": "<@UV8F6CP44> has joined the channel",
        "inviter": "UV0QTJCMT"
    },
    {
        "type": "message",
        "subtype": "channel_join",
        "ts": "1584225724.019700",
        "user": "UVC88S53R",
        "text": "<@UVC88S53R> has joined the channel",
        "inviter": "UV0QTJCMT"
    },
    {
        "type": "message",
        "subtype": "channel_join",
        "ts": "1584225724.019900",
        "user": "UV2MPP2PM",
        "text": "<@UV2MPP2PM> has joined the channel",
        "inviter": "UV0QTJCMT"
    },
    {
        "type": "message",
        "subtype": "channel_join",
        "ts": "1584225724.020100",
        "user": "UV10KBUQG",
        "text": "<@UV10KBUQG> has joined the channel",
        "inviter": "UV0QTJCMT"
    },
    {
        "type": "message",
        "subtype": "channel_join",
        "ts": "1584225724.020300",
        "user": "UV1D9NR1N",
        "text": "<@UV1D9NR1N> has joined the channel",
        "inviter": "UV0QTJCMT"
    },
    {
        "type": "message",
        "subtype": "channel_join",
        "ts": "1584225724.020500",
        "user": "UUU7B6135",
        "text": "<@UUU7B6135> has joined the channel",
        "inviter": "UV0QTJCMT"
    },
    {
        "type": "message",
        "subtype": "channel_join",
        "ts": "1584225724.020700",
        "user": "UVDQRQ1K6",
        "text": "<@UVDQRQ1K6> has joined the channel",
        "inviter": "UV0QTJCMT"
    },
    {
        "type": "message",
        "subtype": "channel_join",
        "ts": "1584225725.020900",
        "user": "UV3V8C9S5",
        "text": "<@UV3V8C9S5> has joined the channel",
        "inviter": "UV0QTJCMT"
    },
    {
        "type": "message",
        "subtype": "channel_join",
        "ts": "1584225725.021100",
        "user": "UVCSNJU2J",
        "text": "<@UVCSNJU2J> has joined the channel",
        "inviter": "UV0QTJCMT"
    },
    {
        "type": "message",
        "subtype": "channel_join",
        "ts": "1584225725.021300",
        "user": "UVDAA15DE",
        "text": "<@UVDAA15DE> has joined the channel",
        "inviter": "UV0QTJCMT"
    },
    {
        "type": "message",
        "subtype": "channel_join",
        "ts": "1584225725.021500",
        "user": "U0100KK4PBP",
        "text": "<@U0100KK4PBP> has joined the channel",
        "inviter": "UV0QTJCMT"
    },
    {
        "type": "message",
        "subtype": "channel_join",
        "ts": "1584225725.021700",
        "user": "UV120B2P7",
        "text": "<@UV120B2P7> has joined the channel",
        "inviter": "UV0QTJCMT"
    },
    {
        "type": "message",
        "subtype": "channel_join",
        "ts": "1584225725.021900",
        "user": "UVAMSUXEC",
        "text": "<@UVAMSUXEC> has joined the channel",
        "inviter": "UV0QTJCMT"
    },
    {
        "type": "message",
        "subtype": "channel_join",
        "ts": "1584225725.022100",
        "user": "UV143JZD3",
        "text": "<@UV143JZD3> has joined the channel",
        "inviter": "UV0QTJCMT"
    },
    {
        "type": "message",
        "subtype": "channel_join",
        "ts": "1584225725.022300",
        "user": "UV8T52QJ3",
        "text": "<@UV8T52QJ3> has joined the channel",
        "inviter": "UV0QTJCMT"
    },
    {
        "type": "message",
        "subtype": "channel_join",
        "ts": "1584225725.022500",
        "user": "UVCR5F11A",
        "text": "<@UVCR5F11A> has joined the channel",
        "inviter": "UV0QTJCMT"
    },
    {
        "type": "message",
        "subtype": "channel_join",
        "ts": "1584225725.022700",
        "user": "UV92CLHPA",
        "text": "<@UV92CLHPA> has joined the channel",
        "inviter": "UV0QTJCMT"
    },
    {
        "type": "message",
        "subtype": "channel_join",
        "ts": "1584225725.022900",
        "user": "UUX7EP0HG",
        "text": "<@UUX7EP0HG> has joined the channel",
        "inviter": "UV0QTJCMT"
    },
    {
        "type": "message",
        "subtype": "channel_join",
        "ts": "1584225725.023100",
        "user": "UVC4QT3V5",
        "text": "<@UVC4QT3V5> has joined the channel",
        "inviter": "UV0QTJCMT"
    },
    {
        "type": "message",
        "subtype": "channel_join",
        "ts": "1584225726.023300",
        "user": "U0100FUAYH3",
        "text": "<@U0100FUAYH3> has joined the channel",
        "inviter": "UV0QTJCMT"
    },
    {
        "type": "message",
        "subtype": "channel_join",
        "ts": "1584225726.023500",
        "user": "UUQM4L2AF",
        "text": "<@UUQM4L2AF> has joined the channel",
        "inviter": "UV0QTJCMT"
    },
    {
        "type": "message",
        "subtype": "channel_join",
        "ts": "1584225726.023700",
        "user": "UUSV78MJN",
        "text": "<@UUSV78MJN> has joined the channel",
        "inviter": "UV0QTJCMT"
    },
    {
        "type": "message",
        "subtype": "channel_join",
        "ts": "1584225726.023900",
        "user": "U0101EUJH0X",
        "text": "<@U0101EUJH0X> has joined the channel",
        "inviter": "UV0QTJCMT"
    },
    {
        "type": "message",
        "subtype": "channel_join",
        "ts": "1584225726.024100",
        "user": "U0101V2L3LP",
        "text": "<@U0101V2L3LP> has joined the channel",
        "inviter": "UV0QTJCMT"
    },
    {
        "type": "message",
        "subtype": "channel_join",
        "ts": "1584225726.024300",
        "user": "UURHGHB7T",
        "text": "<@UURHGHB7T> has joined the channel",
        "inviter": "UV0QTJCMT"
    },
    {
        "type": "message",
        "subtype": "channel_join",
        "ts": "1584225726.024500",
        "user": "UV2QSAX35",
        "text": "<@UV2QSAX35> has joined the channel",
        "inviter": "UV0QTJCMT"
    },
    {
        "type": "message",
        "subtype": "channel_join",
        "ts": "1584225726.024700",
        "user": "UVDTYV2MT",
        "text": "<@UVDTYV2MT> has joined the channel",
        "inviter": "UV0QTJCMT"
    },
    {
        "type": "message",
        "subtype": "channel_join",
        "ts": "1584225727.024900",
        "user": "UVCT4AT54",
        "text": "<@UVCT4AT54> has joined the channel",
        "inviter": "UV0QTJCMT"
    },
    {
        "type": "message",
        "subtype": "channel_join",
        "ts": "1584225727.025100",
        "user": "UV852BSMN",
        "text": "<@UV852BSMN> has joined the channel",
        "inviter": "UV0QTJCMT"
    },
    {
        "type": "message",
        "subtype": "channel_join",
        "ts": "1584225727.025300",
        "user": "UV8GFKVEU",
        "text": "<@UV8GFKVEU> has joined the channel",
        "inviter": "UV0QTJCMT"
    },
    {
        "type": "message",
        "subtype": "channel_join",
        "ts": "1584225727.025500",
        "user": "UVC9WMA7N",
        "text": "<@UVC9WMA7N> has joined the channel",
        "inviter": "UV0QTJCMT"
    },
    {
        "type": "message",
        "subtype": "channel_join",
        "ts": "1584225806.025700",
        "user": "UVC7J1K7Y",
        "text": "<@UVC7J1K7Y> has joined the channel",
        "inviter": "UV0QTJCMT"
    },
    {
        "type": "message",
        "subtype": "channel_join",
        "ts": "1584225806.025900",
        "user": "UV33XEYG0",
        "text": "<@UV33XEYG0> has joined the channel",
        "inviter": "UV0QTJCMT"
    },
    {
        "type": "message",
        "subtype": "channel_join",
        "ts": "1584225806.026100",
        "user": "UVABQCS3G",
        "text": "<@UVABQCS3G> has joined the channel",
        "inviter": "UV0QTJCMT"
    },
    {
        "type": "message",
        "subtype": "channel_join",
        "ts": "1584225806.026300",
        "user": "UV4506VK7",
        "text": "<@UV4506VK7> has joined the channel",
        "inviter": "UV0QTJCMT"
    },
    {
        "type": "message",
        "subtype": "channel_join",
        "ts": "1584225806.026500",
        "user": "UUY9ND75X",
        "text": "<@UUY9ND75X> has joined the channel",
        "inviter": "UV0QTJCMT"
    },
    {
        "type": "message",
        "subtype": "channel_join",
        "ts": "1584225806.026700",
        "user": "UV43R37NV",
        "text": "<@UV43R37NV> has joined the channel",
        "inviter": "UV0QTJCMT"
    },
    {
        "type": "message",
        "subtype": "channel_join",
        "ts": "1584225806.026900",
        "user": "U0100JTRA8G",
        "text": "<@U0100JTRA8G> has joined the channel",
        "inviter": "UV0QTJCMT"
    },
    {
        "type": "message",
        "subtype": "channel_join",
        "ts": "1584225806.027100",
        "user": "UV7QBRCFN",
        "text": "<@UV7QBRCFN> has joined the channel",
        "inviter": "UV0QTJCMT"
    },
    {
        "type": "message",
        "subtype": "channel_join",
        "ts": "1584225806.027300",
        "user": "UUPF597H9",
        "text": "<@UUPF597H9> has joined the channel",
        "inviter": "UV0QTJCMT"
    },
    {
        "type": "message",
        "subtype": "channel_join",
        "ts": "1584225806.027500",
        "user": "U01001VBMFE",
        "text": "<@U01001VBMFE> has joined the channel",
        "inviter": "UV0QTJCMT"
    },
    {
        "type": "message",
        "subtype": "channel_join",
        "ts": "1584225806.027700",
        "user": "UV4AEAG4D",
        "text": "<@UV4AEAG4D> has joined the channel",
        "inviter": "UV0QTJCMT"
    },
    {
        "type": "message",
        "subtype": "channel_join",
        "ts": "1584225807.027900",
        "user": "UV1CX069G",
        "text": "<@UV1CX069G> has joined the channel",
        "inviter": "UV0QTJCMT"
    },
    {
        "type": "message",
        "subtype": "channel_join",
        "ts": "1584225807.028100",
        "user": "UV66RCFPE",
        "text": "<@UV66RCFPE> has joined the channel",
        "inviter": "UV0QTJCMT"
    },
    {
        "type": "message",
        "subtype": "channel_join",
        "ts": "1584225807.028300",
        "user": "UV4AY45H6",
        "text": "<@UV4AY45H6> has joined the channel",
        "inviter": "UV0QTJCMT"
    },
    {
        "type": "message",
        "subtype": "channel_join",
        "ts": "1584225807.028500",
        "user": "UV8U53CBY",
        "text": "<@UV8U53CBY> has joined the channel",
        "inviter": "UV0QTJCMT"
    },
    {
        "type": "message",
        "subtype": "channel_join",
        "ts": "1584225807.028700",
        "user": "UV4BCQ11P",
        "text": "<@UV4BCQ11P> has joined the channel",
        "inviter": "UV0QTJCMT"
    },
    {
        "type": "message",
        "subtype": "channel_join",
        "ts": "1584225807.028900",
        "user": "UUSGW93R9",
        "text": "<@UUSGW93R9> has joined the channel",
        "inviter": "UV0QTJCMT"
    },
    {
        "type": "message",
        "subtype": "channel_join",
        "ts": "1584225807.029100",
        "user": "UV7627B6Y",
        "text": "<@UV7627B6Y> has joined the channel",
        "inviter": "UV0QTJCMT"
    },
    {
        "type": "message",
        "subtype": "channel_join",
        "ts": "1584225807.029300",
        "user": "UVD19AXHV",
        "text": "<@UVD19AXHV> has joined the channel",
        "inviter": "UV0QTJCMT"
    },
    {
        "type": "message",
        "subtype": "channel_join",
        "ts": "1584225807.029500",
        "user": "UV20M5HGQ",
        "text": "<@UV20M5HGQ> has joined the channel",
        "inviter": "UV0QTJCMT"
    },
    {
        "type": "message",
        "subtype": "channel_join",
        "ts": "1584225807.029700",
        "user": "U01021XDUNA",
        "text": "<@U01021XDUNA> has joined the channel",
        "inviter": "UV0QTJCMT"
    },
    {
        "type": "message",
        "subtype": "channel_join",
        "ts": "1584225808.029900",
        "user": "UV2P7ML3Z",
        "text": "<@UV2P7ML3Z> has joined the channel",
        "inviter": "UV0QTJCMT"
    },
    {
        "type": "message",
        "subtype": "channel_join",
        "ts": "1584225808.030100",
        "user": "UVBDX2YBG",
        "text": "<@UVBDX2YBG> has joined the channel",
        "inviter": "UV0QTJCMT"
    },
    {
        "type": "message",
        "subtype": "channel_join",
        "ts": "1584225808.030300",
        "user": "UUWR0FJ7M",
        "text": "<@UUWR0FJ7M> has joined the channel",
        "inviter": "UV0QTJCMT"
    },
    {
        "type": "message",
        "subtype": "channel_join",
        "ts": "1584225808.030500",
        "user": "UVDR74SJU",
        "text": "<@UVDR74SJU> has joined the channel",
        "inviter": "UV0QTJCMT"
    },
    {
        "type": "message",
        "subtype": "channel_join",
        "ts": "1584225808.030700",
        "user": "U01022HL5PZ",
        "text": "<@U01022HL5PZ> has joined the channel",
        "inviter": "UV0QTJCMT"
    },
    {
        "type": "message",
        "subtype": "channel_join",
        "ts": "1584225808.030900",
        "user": "U010064UP38",
        "text": "<@U010064UP38> has joined the channel",
        "inviter": "UV0QTJCMT"
    },
    {
        "type": "message",
        "subtype": "channel_join",
        "ts": "1584225808.031100",
        "user": "UV37P5CM9",
        "text": "<@UV37P5CM9> has joined the channel",
        "inviter": "UV0QTJCMT"
    },
    {
        "type": "message",
        "subtype": "channel_join",
        "ts": "1584225808.031300",
        "user": "UV78M0ESG",
        "text": "<@UV78M0ESG> has joined the channel",
        "inviter": "UV0QTJCMT"
    },
    {
        "type": "message",
        "subtype": "channel_join",
        "ts": "1584225808.031500",
        "user": "UV7N8HX28",
        "text": "<@UV7N8HX28> has joined the channel",
        "inviter": "UV0QTJCMT"
    },
    {
        "type": "message",
        "subtype": "channel_join",
        "ts": "1584225808.031700",
        "user": "UUWQU0D8T",
        "text": "<@UUWQU0D8T> has joined the channel",
        "inviter": "UV0QTJCMT"
    },
    {
        "type": "message",
        "subtype": "channel_join",
        "ts": "1584225809.031900",
        "user": "UUWSJTQ67",
        "text": "<@UUWSJTQ67> has joined the channel",
        "inviter": "UV0QTJCMT"
    },
    {
        "type": "message",
        "subtype": "channel_join",
        "ts": "1584225809.032100",
        "user": "U0100ET4KUM",
        "text": "<@U0100ET4KUM> has joined the channel",
        "inviter": "UV0QTJCMT"
    },
    {
        "type": "message",
        "subtype": "channel_join",
        "ts": "1584225809.032300",
        "user": "U01021AKSAK",
        "text": "<@U01021AKSAK> has joined the channel",
        "inviter": "UV0QTJCMT"
    },
    {
        "type": "message",
        "subtype": "channel_join",
        "ts": "1584225928.032500",
        "user": "UV71KBVRN",
        "text": "<@UV71KBVRN> has joined the channel",
        "inviter": "UV0QTJCMT"
    },
    {
        "type": "message",
        "subtype": "channel_join",
        "ts": "1584225928.032700",
        "user": "UVDPTK7AQ",
        "text": "<@UVDPTK7AQ> has joined the channel",
        "inviter": "UV0QTJCMT"
    },
    {
        "type": "message",
        "subtype": "channel_join",
        "ts": "1584225928.032900",
        "user": "UUVK08BCJ",
        "text": "<@UUVK08BCJ> has joined the channel",
        "inviter": "UV0QTJCMT"
    },
    {
        "type": "message",
        "subtype": "channel_join",
        "ts": "1584225928.033100",
        "user": "UVCQU0UAJ",
        "text": "<@UVCQU0UAJ> has joined the channel",
        "inviter": "UV0QTJCMT"
    },
    {
        "type": "message",
        "subtype": "channel_join",
        "ts": "1584225928.033300",
        "user": "U0102AK7SB0",
        "text": "<@U0102AK7SB0> has joined the channel",
        "inviter": "UV0QTJCMT"
    },
    {
        "type": "message",
        "subtype": "channel_join",
        "ts": "1584225929.033500",
        "user": "UUQR32JHG",
        "text": "<@UUQR32JHG> has joined the channel",
        "inviter": "UV0QTJCMT"
    },
    {
        "type": "message",
        "subtype": "channel_join",
        "ts": "1584225929.033700",
        "user": "UV2T73S5R",
        "text": "<@UV2T73S5R> has joined the channel",
        "inviter": "UV0QTJCMT"
    },
    {
        "type": "message",
        "subtype": "channel_join",
        "ts": "1584225929.033900",
        "user": "UVDRADWTE",
        "text": "<@UVDRADWTE> has joined the channel",
        "inviter": "UV0QTJCMT"
    },
    {
        "type": "message",
        "subtype": "channel_join",
        "ts": "1584225929.034100",
        "user": "UVBDUT4NS",
        "text": "<@UVBDUT4NS> has joined the channel",
        "inviter": "UV0QTJCMT"
    },
    {
        "type": "message",
        "subtype": "channel_join",
        "ts": "1584225929.034300",
        "user": "U0100746RSR",
        "text": "<@U0100746RSR> has joined the channel",
        "inviter": "UV0QTJCMT"
    },
    {
        "type": "message",
        "subtype": "channel_join",
        "ts": "1584225929.034500",
        "user": "UVBGD5LCX",
        "text": "<@UVBGD5LCX> has joined the channel",
        "inviter": "UV0QTJCMT"
    },
    {
        "type": "message",
        "subtype": "channel_join",
        "ts": "1584225929.034700",
        "user": "UV19H8E82",
        "text": "<@UV19H8E82> has joined the channel",
        "inviter": "UV0QTJCMT"
    },
    {
        "type": "message",
        "subtype": "channel_join",
        "ts": "1584225929.034900",
        "user": "UVDEJ7W0M",
        "text": "<@UVDEJ7W0M> has joined the channel",
        "inviter": "UV0QTJCMT"
    },
    {
        "type": "message",
        "subtype": "channel_join",
        "ts": "1584225930.035100",
        "user": "U01022HS0MV",
        "text": "<@U01022HS0MV> has joined the channel",
        "inviter": "UV0QTJCMT"
    },
    {
        "type": "message",
        "subtype": "channel_join",
        "ts": "1584225930.035300",
        "user": "UV81Y6P9V",
        "text": "<@UV81Y6P9V> has joined the channel",
        "inviter": "UV0QTJCMT"
    },
    {
        "type": "message",
        "subtype": "channel_join",
        "ts": "1584225930.035500",
        "user": "UUZHHJVGR",
        "text": "<@UUZHHJVGR> has joined the channel",
        "inviter": "UV0QTJCMT"
    },
    {
        "type": "message",
        "subtype": "channel_join",
        "ts": "1584225930.035700",
        "user": "UVCJ1BGG5",
        "text": "<@UVCJ1BGG5> has joined the channel",
        "inviter": "UV0QTJCMT"
    },
    {
        "type": "message",
        "subtype": "channel_join",
        "ts": "1584225930.035900",
        "user": "UV3JDFX17",
        "text": "<@UV3JDFX17> has joined the channel",
        "inviter": "UV0QTJCMT"
    },
    {
        "type": "message",
        "subtype": "channel_join",
        "ts": "1584225930.036100",
        "user": "UVAC2Q19S",
        "text": "<@UVAC2Q19S> has joined the channel",
        "inviter": "UV0QTJCMT"
    },
    {
        "type": "message",
        "subtype": "channel_join",
        "ts": "1584225930.036300",
        "user": "UUYTLGUFL",
        "text": "<@UUYTLGUFL> has joined the channel",
        "inviter": "UV0QTJCMT"
    },
    {
        "type": "message",
        "subtype": "channel_join",
        "ts": "1584225930.036500",
        "user": "UV9N0EE2J",
        "text": "<@UV9N0EE2J> has joined the channel",
        "inviter": "UV0QTJCMT"
    },
    {
        "type": "message",
        "subtype": "channel_join",
        "ts": "1584225931.036700",
        "user": "UV6DV6E5V",
        "text": "<@UV6DV6E5V> has joined the channel",
        "inviter": "UV0QTJCMT"
    },
    {
        "type": "message",
        "subtype": "channel_join",
        "ts": "1584225931.036900",
        "user": "UUVG81TD0",
        "text": "<@UUVG81TD0> has joined the channel",
        "inviter": "UV0QTJCMT"
    },
    {
        "type": "message",
        "subtype": "channel_join",
        "ts": "1584225931.037100",
        "user": "UV2TZ4DQR",
        "text": "<@UV2TZ4DQR> has joined the channel",
        "inviter": "UV0QTJCMT"
    },
    {
        "type": "message",
        "subtype": "channel_join",
        "ts": "1584225931.037300",
        "user": "UUYHN08TV",
        "text": "<@UUYHN08TV> has joined the channel",
        "inviter": "UV0QTJCMT"
    },
    {
        "type": "message",
        "subtype": "channel_join",
        "ts": "1584225931.037500",
        "user": "UVC90E7SR",
        "text": "<@UVC90E7SR> has joined the channel",
        "inviter": "UV0QTJCMT"
    },
    {
        "type": "message",
        "subtype": "channel_join",
        "ts": "1584225931.037700",
        "user": "UUWUKTATD",
        "text": "<@UUWUKTATD> has joined the channel",
        "inviter": "UV0QTJCMT"
    },
    {
        "type": "message",
        "subtype": "channel_join",
        "ts": "1584225931.037900",
        "user": "UV372RJMC",
        "text": "<@UV372RJMC> has joined the channel",
        "inviter": "UV0QTJCMT"
    },
    {
        "type": "message",
        "subtype": "channel_join",
        "ts": "1584225931.038100",
        "user": "UVAB15FU0",
        "text": "<@UVAB15FU0> has joined the channel",
        "inviter": "UV0QTJCMT"
    },
    {
        "type": "message",
        "subtype": "channel_join",
        "ts": "1584225931.038300",
        "user": "UVBEKTPK9",
        "text": "<@UVBEKTPK9> has joined the channel",
        "inviter": "UV0QTJCMT"
    },
    {
        "type": "message",
        "subtype": "channel_join",
        "ts": "1584225931.038500",
        "user": "UUTSPUZH7",
        "text": "<@UUTSPUZH7> has joined the channel",
        "inviter": "UV0QTJCMT"
    },
    {
        "type": "message",
        "subtype": "channel_join",
        "ts": "1584225931.038700",
        "user": "UVAFGTTGC",
        "text": "<@UVAFGTTGC> has joined the channel",
        "inviter": "UV0QTJCMT"
    },
    {
        "type": "message",
        "subtype": "channel_join",
        "ts": "1584225931.038900",
        "user": "UVAP0J75L",
        "text": "<@UVAP0J75L> has joined the channel",
        "inviter": "UV0QTJCMT"
    },
    {
        "type": "message",
        "subtype": "channel_join",
        "ts": "1584225931.039100",
        "user": "UV7AZH728",
        "text": "<@UV7AZH728> has joined the channel",
        "inviter": "UV0QTJCMT"
    },
    {
        "type": "message",
        "subtype": "channel_join",
        "ts": "1584225932.039300",
        "user": "UV1BJFTAQ",
        "text": "<@UV1BJFTAQ> has joined the channel",
        "inviter": "UV0QTJCMT"
    },
    {
        "type": "message",
        "subtype": "channel_join",
        "ts": "1584225932.039500",
        "user": "UUX8HFPR7",
        "text": "<@UUX8HFPR7> has joined the channel",
        "inviter": "UV0QTJCMT"
    },
    {
        "type": "message",
        "subtype": "channel_join",
        "ts": "1584225932.039700",
        "user": "UUW05LBEV",
        "text": "<@UUW05LBEV> has joined the channel",
        "inviter": "UV0QTJCMT"
    },
    {
        "type": "message",
        "subtype": "channel_join",
        "ts": "1584225932.039900",
        "user": "UUTACBTSM",
        "text": "<@UUTACBTSM> has joined the channel",
        "inviter": "UV0QTJCMT"
    },
    {
        "type": "message",
        "subtype": "channel_join",
        "ts": "1584225932.040100",
        "user": "U0100LKUPSR",
        "text": "<@U0100LKUPSR> has joined the channel",
        "inviter": "UV0QTJCMT"
    },
    {
        "type": "message",
        "subtype": "channel_join",
        "ts": "1584225932.040300",
        "user": "U01025PFKRC",
        "text": "<@U01025PFKRC> has joined the channel",
        "inviter": "UV0QTJCMT"
    },
    {
        "type": "message",
        "subtype": "channel_join",
        "ts": "1584225932.040500",
        "user": "UV4EY2049",
        "text": "<@UV4EY2049> has joined the channel",
        "inviter": "UV0QTJCMT"
    },
    {
        "type": "message",
        "subtype": "channel_join",
        "ts": "1584225932.040700",
        "user": "UV1JVH78D",
        "text": "<@UV1JVH78D> has joined the channel",
        "inviter": "UV0QTJCMT"
    },
    {
        "type": "message",
        "subtype": "channel_join",
        "ts": "1584225932.040900",
        "user": "UUZGNRNRH",
        "text": "<@UUZGNRNRH> has joined the channel",
        "inviter": "UV0QTJCMT"
    },
    {
        "type": "message",
        "subtype": "channel_join",
        "ts": "1584225932.041100",
        "user": "UVD8Q035K",
        "text": "<@UVD8Q035K> has joined the channel",
        "inviter": "UV0QTJCMT"
    },
    {
        "type": "message",
        "subtype": "channel_join",
        "ts": "1584225932.041300",
        "user": "UV1B17TQS",
        "text": "<@UV1B17TQS> has joined the channel",
        "inviter": "UV0QTJCMT"
    },
    {
        "type": "message",
        "subtype": "channel_join",
        "ts": "1584225933.041500",
        "user": "UVC39L18D",
        "text": "<@UVC39L18D> has joined the channel",
        "inviter": "UV0QTJCMT"
    },
    {
        "type": "message",
        "subtype": "channel_join",
        "ts": "1584226205.041700",
        "user": "UV5SR7E4W",
        "text": "<@UV5SR7E4W> has joined the channel",
        "inviter": "UV0QTJCMT"
    },
    {
        "type": "message",
        "subtype": "channel_join",
        "ts": "1584226206.041900",
        "user": "UVDCK8M9V",
        "text": "<@UVDCK8M9V> has joined the channel",
        "inviter": "UV0QTJCMT"
    },
    {
        "type": "message",
        "subtype": "channel_join",
        "ts": "1584226206.042100",
        "user": "UVDM3SQ3A",
        "text": "<@UVDM3SQ3A> has joined the channel",
        "inviter": "UV0QTJCMT"
    },
    {
        "type": "message",
        "subtype": "channel_join",
        "ts": "1584226206.042300",
        "user": "U01028XMJA3",
        "text": "<@U01028XMJA3> has joined the channel",
        "inviter": "UV0QTJCMT"
    },
    {
        "type": "message",
        "subtype": "channel_join",
        "ts": "1584226206.042500",
        "user": "UVB2SQXL5",
        "text": "<@UVB2SQXL5> has joined the channel",
        "inviter": "UV0QTJCMT"
    },
    {
        "type": "message",
        "subtype": "channel_join",
        "ts": "1584226206.042700",
        "user": "UV30KJ4LX",
        "text": "<@UV30KJ4LX> has joined the channel",
        "inviter": "UV0QTJCMT"
    },
    {
        "type": "message",
        "subtype": "channel_join",
        "ts": "1584226206.042900",
        "user": "UV1G2M821",
        "text": "<@UV1G2M821> has joined the channel",
        "inviter": "UV0QTJCMT"
    },
    {
        "type": "message",
        "subtype": "channel_join",
        "ts": "1584226206.043100",
        "user": "U01016B7KPY",
        "text": "<@U01016B7KPY> has joined the channel",
        "inviter": "UV0QTJCMT"
    },
    {
        "type": "message",
        "subtype": "channel_join",
        "ts": "1584226207.043300",
        "user": "UV8V95W14",
        "text": "<@UV8V95W14> has joined the channel",
        "inviter": "UV0QTJCMT"
    },
    {
        "client_msg_id": "00c834e5-1877-46e3-805b-e2ad568feac7",
        "type": "message",
        "text": "Aloha- Engineering teacher here in Hawaii. We're on break now, but there's a possibility that school would shift to distance learning, so I might have some more available time if that happens. For now, just fascinated by the opportunity to witness this distributed, collaborative work. I teach CAD, rapid prototyping, robotics, etc. to my middle\/high school students and have done extensive project management in the school setting before. Found this via Helpful Engineering. I also enjoy graphic design (maybe not so much generative, but rather giving feedback on) and happy to proofread things before going to print. <http:\/\/ideation.mit.edu\/people\/justin>",
        "user": "U0100AN3E9J",
        "ts": "1584231012.046000",
        "team": "TUU48M0T1",
        "user_team": "TUU48M0T1",
        "source_team": "TUU48M0T1",
        "user_profile": {
            "avatar_hash": "ga85b00f9b08",
            "image_72": "https:\/\/secure.gravatar.com\/avatar\/a85b00f9b0879618ac76e6aff39cfb7b.jpg?s=72&d=https%3A%2F%2Fa.slack-edge.com%2Fdf10d%2Fimg%2Favatars%2Fava_0008-72.png",
            "first_name": "Justin",
            "real_name": "Justin",
            "display_name": "",
            "team": "TUU48M0T1",
            "name": "alohadesignwork",
            "is_restricted": false,
            "is_ultra_restricted": false
        },
        "edited": {
            "user": "U0100AN3E9J",
            "ts": "1584383799.000000"
        },
        "blocks": [
            {
                "type": "rich_text",
                "block_id": "i8jQY",
                "elements": [
                    {
                        "type": "rich_text_section",
                        "elements": [
                            {
                                "type": "text",
                                "text": "Aloha- Engineering teacher here in Hawaii. We're on break now, but there's a possibility that school would shift to distance learning, so I might have some more available time if that happens. For now, just fascinated by the opportunity to witness this distributed, collaborative work. I teach CAD, rapid prototyping, robotics, etc. to my middle\/high school students and have done extensive project management in the school setting before. Found this via Helpful Engineering. I also enjoy graphic design (maybe not so much generative, but rather giving feedback on) and happy to proofread things before going to print. "
                            },
                            {
                                "type": "link",
                                "url": "http:\/\/ideation.mit.edu\/people\/justin"
                            }
                        ]
                    }
                ]
            }
        ],
        "reactions": [
            {
                "name": "tulip",
                "users": [
                    "UV1D9NR1N",
                    "UV02WET96"
                ],
                "count": 2
            },
            {
                "name": "hibiscus",
                "users": [
                    "UV1D9NR1N"
                ],
                "count": 1
            }
        ]
    }
]