[
    {
        "client_msg_id": "5b294e61-483e-4b9a-8620-2aa58d08b395",
        "type": "message",
        "text": "Has someone built an audio parsing cough AI app that compares cough of coronavirus infected vs normal cough? It would be really nice",
        "user": "UV8T52QJ3",
        "ts": "1584458279.032700",
        "team": "TUU48M0T1",
        "user_team": "TUU48M0T1",
        "source_team": "TUU48M0T1",
        "user_profile": {
            "avatar_hash": "g96f14063d73",
            "image_72": "https:\/\/secure.gravatar.com\/avatar\/96f14063d73cc7867772731f881de414.jpg?s=72&d=https%3A%2F%2Fa.slack-edge.com%2Fdf10d%2Fimg%2Favatars%2Fava_0005-72.png",
            "first_name": "Hernán",
            "real_name": "Hernán Morales Durand",
            "display_name": "Hernán Morales Durand",
            "team": "TUU48M0T1",
            "name": "hernan.morales",
            "is_restricted": false,
            "is_ultra_restricted": false
        },
        "blocks": [
            {
                "type": "rich_text",
                "block_id": "sQlsV",
                "elements": [
                    {
                        "type": "rich_text_section",
                        "elements": [
                            {
                                "type": "text",
                                "text": "Has someone built an audio parsing cough AI app that compares cough of coronavirus infected vs normal cough? It would be really nice"
                            }
                        ]
                    }
                ]
            }
        ],
        "thread_ts": "1584458279.032700",
        "reply_count": 1,
        "reply_users_count": 1,
        "latest_reply": "1584469890.035400",
        "reply_users": [
            "UV0QTJCMT"
        ],
        "replies": [
            {
                "user": "UV0QTJCMT",
                "ts": "1584469890.035400"
            }
        ],
        "subscribed": false
    },
    {
        "client_msg_id": "ae9635a5-b346-4509-975c-6e421a4bea8f",
        "type": "message",
        "text": "If not please answer this thread if you think you can help!!",
        "user": "UV8T52QJ3",
        "ts": "1584458341.033200",
        "team": "TUU48M0T1",
        "user_team": "TUU48M0T1",
        "source_team": "TUU48M0T1",
        "user_profile": {
            "avatar_hash": "g96f14063d73",
            "image_72": "https:\/\/secure.gravatar.com\/avatar\/96f14063d73cc7867772731f881de414.jpg?s=72&d=https%3A%2F%2Fa.slack-edge.com%2Fdf10d%2Fimg%2Favatars%2Fava_0005-72.png",
            "first_name": "Hernán",
            "real_name": "Hernán Morales Durand",
            "display_name": "Hernán Morales Durand",
            "team": "TUU48M0T1",
            "name": "hernan.morales",
            "is_restricted": false,
            "is_ultra_restricted": false
        },
        "blocks": [
            {
                "type": "rich_text",
                "block_id": "UchR",
                "elements": [
                    {
                        "type": "rich_text_section",
                        "elements": [
                            {
                                "type": "text",
                                "text": "If not please answer this thread if you think you can help!!"
                            }
                        ]
                    }
                ]
            }
        ]
    },
    {
        "client_msg_id": "8791ae34-7599-4dbe-8ba8-50216239fca8",
        "type": "message",
        "text": "<@UV0QTJCMT>, <@UUPFF4TC3> you may be interested to add the idea",
        "user": "UV8T52QJ3",
        "ts": "1584458462.034200",
        "team": "TUU48M0T1",
        "user_team": "TUU48M0T1",
        "source_team": "TUU48M0T1",
        "user_profile": {
            "avatar_hash": "g96f14063d73",
            "image_72": "https:\/\/secure.gravatar.com\/avatar\/96f14063d73cc7867772731f881de414.jpg?s=72&d=https%3A%2F%2Fa.slack-edge.com%2Fdf10d%2Fimg%2Favatars%2Fava_0005-72.png",
            "first_name": "Hernán",
            "real_name": "Hernán Morales Durand",
            "display_name": "Hernán Morales Durand",
            "team": "TUU48M0T1",
            "name": "hernan.morales",
            "is_restricted": false,
            "is_ultra_restricted": false
        },
        "blocks": [
            {
                "type": "rich_text",
                "block_id": "i8lyh",
                "elements": [
                    {
                        "type": "rich_text_section",
                        "elements": [
                            {
                                "type": "user",
                                "user_id": "UV0QTJCMT"
                            },
                            {
                                "type": "text",
                                "text": ", "
                            },
                            {
                                "type": "user",
                                "user_id": "UUPFF4TC3"
                            },
                            {
                                "type": "text",
                                "text": " you may be interested to add the idea"
                            }
                        ]
                    }
                ]
            }
        ]
    },
    {
        "client_msg_id": "18ab2135-0587-4ffb-be51-149dc833335a",
        "type": "message",
        "text": "<https:\/\/bgr.com\/2020\/03\/17\/coronavirus-treatment-research-says-immune-response-mimics-the-flu\/#|https:\/\/bgr.com\/2020\/03\/17\/coronavirus-treatment-research-says-immune-response-mimics-the-flu\/#>\n\n#love4all :heart: :heart:\n#AaKaSh_Ktk",
        "user": "U0102FNSTK6",
        "ts": "1584465788.034700",
        "team": "TUU48M0T1",
        "user_team": "TUU48M0T1",
        "source_team": "TUU48M0T1",
        "user_profile": {
            "avatar_hash": "g997c896f226",
            "image_72": "https:\/\/secure.gravatar.com\/avatar\/997c896f22610a0a7c7d07e10d5e96b7.jpg?s=72&d=https%3A%2F%2Fa.slack-edge.com%2Fdf10d%2Fimg%2Favatars%2Fava_0024-72.png",
            "first_name": "",
            "real_name": "Muhammad Ferdous Anwar",
            "display_name": "Muhammad Ferdous Anwar",
            "team": "TUU48M0T1",
            "name": "donktk",
            "is_restricted": false,
            "is_ultra_restricted": false
        },
        "attachments": [
            {
                "service_name": "BGR",
                "service_url": "http:\/\/bgr.com",
                "title": "Researchers discovered how the body kills the coronavirus",
                "title_link": "https:\/\/bgr.com\/2020\/03\/17\/coronavirus-treatment-research-says-immune-response-mimics-the-flu\/#",
                "author_name": "Chris Smith",
                "author_link": "https:\/\/bgr.com\/author\/chrisssmith\/",
                "thumb_url": "https:\/\/boygeniusreport.files.wordpress.com\/2020\/03\/10574913a-e1584112753123.jpg?quality=98&strip=all&w=1200&fit=200%2C150",
                "thumb_width": 200,
                "thumb_height": 133,
                "text": "Research from Australia determined that the immune system&rsquo;s response to the SARS-CoV-2 coronavirus that causes the COVID-19 disease is similar to a reaction to the flu in mild-to-moderate cases.\nTheir findings can be used to accelerate the development of a vaccine and treatments, as well as novel tests that might be able to determine the severity of a coronavirus infection from the onset.\nThe research proves the human body can become immune to the virus, but it&rsquo;s still not clear how long the immunity lasts.\nVisit BGR&rsquo;s homepage for more stories.\nThe coronavirus pandemic is far from being contained, with countries all over the world reporting more and more cases. It&rsquo;s up to everyone to step up and do their part to flatten the curve &mdash; social distancing and handwashing will help do the trick &mdash; so that medical systems around the world aren&rsquo;t overwhelmed. Doctors need time to treat severe cases while some of their peers attempt to develop vaccines or new drugs that will speed up the healing process. The good news for people who catch the new COVID-19 virus is that most people will recover, and that&rsquo;s because of the body&rsquo;s immune system. Researchers in Australia have already figured out how the body kills the SARS-CoV-2 virus, and their early results will help others develop new treatments that could extend immunity, and maybe even eradicate the disease.\nAMAZON'S TOP DEALS: Today&rsquo;s top deals: Massive Anker sale, Fire HD 8, smartphone sanitizer, $39 Roku Stick+, $199 Dyson killer, more\nAustralian researchers discovered that the human body fights the infection the same way it would deal with the regular flu. The conclusion is valid for mild-to-moderate cases for the time being, which leads to full recovery. It&rsquo;s still unclear how long the immunity lasts and there&rsquo;s no guarantee that once healed, the body will not contract the same COVID-19 disease again.\n&ldquo;The immune cell populations we have seen emerging before patients recover are the same cells that we see in influenza,&rdquo; Laboratory head Katherine Kedzierska told ABC News Australia. &ldquo;This information will allow us to evaluate any vaccine candidate as in an ideal world, the vaccine should mimic our body&rsquo;s immune response.&rdquo;\nResearchers from the Peter Doherty Institute for Infection and Immunity were the first in the world to explain the immune system&rsquo;s mechanism for dealing with the coronavirus because they have been preparing for such a threat for years. A &ldquo;research preparedness platform&rdquo; led by infectious disease specialist Irani Thevarajan had already developed the logistics required to deal with the arrival of a new virus as fast as possible. Existing protocols helped them fast-track the research, saving precious time. &ldquo;Sometimes the delay could have been months &hellip; it wouldn&rsquo;t have been from patient to research in four weeks,&rdquo; she said.\nThe researchers analyzed blood samples from a woman in her 40s, one of the first coronavirus patients in Australia, who was admitted to a hospital with symptoms including lethargy, sore throat, dry cough, and fever after a trip to Wuhan, the Chinese region where it all began.\n&ldquo;We found in this patient at three days, we could see emergence of immune cells in the blood,&rdquo; Kedzierska said. &ldquo;Based on our experience with patients with influenza, we could predict recovery, and that&rsquo;s exactly what happened in COVID-19.&rdquo;\nAside from developing a vaccine, the new findings might help doctors determine the progress of a patient. Markers in the blood could be used to see if a patient will develop more severe symptoms, which could be a key achievement for fighting COVID-19. Doctors would be able to tell upfront whether a case is severe or mild, and then take appropriate measures.\nThe reason why governments around the world are trying to limit the spread of the disease concerns the severe cases which have to be admitted into hospitals, with treatments including intubation and ventilation of the patient. The more people get infected, the higher the number of severe cases that need to be admitted to intensive care. And that&rsquo;s the kind of thing that can lead to the collapse of local medical systems.\nThe scientists will also analyze the immune system&rsquo;s response in severe COVID-19 cases, in an effort to come up with new lines of treatment.\nProfessor Kedzierska also noted that it&rsquo;s too early to tell how good the acquired immunity is. &ldquo;The next question is whether that immune response gives people immunity for weeks or months or years, so we are protected,&rdquo; she said, but the answer will only come in the coming months, as researchers check with recovered patients.\nThe Peter Doherty Institute&rsquo;s COVID-19 coronavirus research has been published in Nature Medicine.",
                "fallback": "BGR Link: Researchers discovered how the body kills the coronavirus",
                "from_url": "https:\/\/bgr.com\/2020\/03\/17\/coronavirus-treatment-research-says-immune-response-mimics-the-flu\/#",
                "service_icon": "https:\/\/s2.wp.com\/wp-content\/themes\/vip\/bgr\/assets\/images\/favicons\/apple-touch-icon-57x57.png",
                "id": 1,
                "original_url": "https:\/\/bgr.com\/2020\/03\/17\/coronavirus-treatment-research-says-immune-response-mimics-the-flu\/#"
            }
        ],
        "blocks": [
            {
                "type": "rich_text",
                "block_id": "vfxNJ",
                "elements": [
                    {
                        "type": "rich_text_section",
                        "elements": [
                            {
                                "type": "link",
                                "url": "https:\/\/bgr.com\/2020\/03\/17\/coronavirus-treatment-research-says-immune-response-mimics-the-flu\/#",
                                "text": "https:\/\/bgr.com\/2020\/03\/17\/coronavirus-treatment-research-says-immune-response-mimics-the-flu\/#"
                            },
                            {
                                "type": "text",
                                "text": "\n\n#love4all "
                            },
                            {
                                "type": "emoji",
                                "name": "heart"
                            },
                            {
                                "type": "text",
                                "text": " "
                            },
                            {
                                "type": "emoji",
                                "name": "heart"
                            },
                            {
                                "type": "text",
                                "text": "\n#AaKaSh_Ktk"
                            }
                        ]
                    }
                ]
            }
        ]
    },
    {
        "client_msg_id": "5af77ee0-52cb-4594-a645-a3ae1417de43",
        "type": "message",
        "text": "<https:\/\/m.facebook.com\/story.php?story_fbid=10158151141088328&amp;id=135415273327|https:\/\/m.facebook.com\/story.php?story_fbid=10158151141088328&amp;id=135415273327>\n#love4all :heart: :heart:\n#AaKaSh_Ktk",
        "user": "U0102FNSTK6",
        "ts": "1584465926.035100",
        "team": "TUU48M0T1",
        "user_team": "TUU48M0T1",
        "source_team": "TUU48M0T1",
        "user_profile": {
            "avatar_hash": "g997c896f226",
            "image_72": "https:\/\/secure.gravatar.com\/avatar\/997c896f22610a0a7c7d07e10d5e96b7.jpg?s=72&d=https%3A%2F%2Fa.slack-edge.com%2Fdf10d%2Fimg%2Favatars%2Fava_0024-72.png",
            "first_name": "",
            "real_name": "Muhammad Ferdous Anwar",
            "display_name": "Muhammad Ferdous Anwar",
            "team": "TUU48M0T1",
            "name": "donktk",
            "is_restricted": false,
            "is_ultra_restricted": false
        },
        "attachments": [
            {
                "title": "NUST",
                "title_link": "https:\/\/m.facebook.com\/story.php?story_fbid=10158151141088328&id=135415273327",
                "text": "#IamNUST Dr Aneela Javed and Dr Ali Zohaib at #NUST Atta-ur-Rahman School of Applied Biosciences (#ASAB) have successfully established Molecular Diagnostic Assays for the detection of Novel...",
                "fallback": "NUST",
                "image_url": "https:\/\/scontent-iad3-1.xx.fbcdn.net\/v\/t1.0-9\/fr\/cp0\/e15\/q65\/89504325_10158151006653328_4615393610290954240_o.jpg?_nc_cat=106&_nc_sid=8024bb&_nc_ohc=rgD748mpWeIAX8xtcO9&_nc_ht=scontent-iad3-1.xx&_nc_tp=14&oh=c49f456cc2d2d3f79a1b7069a506abef&oe=5E9617C7",
                "from_url": "https:\/\/m.facebook.com\/story.php?story_fbid=10158151141088328&id=135415273327",
                "image_width": 333,
                "image_height": 250,
                "image_bytes": 85423,
                "service_icon": "https:\/\/m.facebook.com\/favicon.ico",
                "service_name": "m.facebook.com",
                "id": 1,
                "original_url": "https:\/\/m.facebook.com\/story.php?story_fbid=10158151141088328&amp;id=135415273327"
            }
        ],
        "blocks": [
            {
                "type": "rich_text",
                "block_id": "wijaM",
                "elements": [
                    {
                        "type": "rich_text_section",
                        "elements": [
                            {
                                "type": "link",
                                "url": "https:\/\/m.facebook.com\/story.php?story_fbid=10158151141088328&id=135415273327",
                                "text": "https:\/\/m.facebook.com\/story.php?story_fbid=10158151141088328&id=135415273327"
                            },
                            {
                                "type": "text",
                                "text": "\n#love4all "
                            },
                            {
                                "type": "emoji",
                                "name": "heart"
                            },
                            {
                                "type": "text",
                                "text": " "
                            },
                            {
                                "type": "emoji",
                                "name": "heart"
                            },
                            {
                                "type": "text",
                                "text": "\n#AaKaSh_Ktk"
                            }
                        ]
                    }
                ]
            }
        ]
    },
    {
        "client_msg_id": "1ad8a25b-aa6a-4414-b526-f0b67575d023",
        "type": "message",
        "text": "<@UV8T52QJ3> i don't believe so, no. this would definitely be an interesting project idea to share with the <#CVB9NP1L6|prgm-dev-team> and perhaps see if there are any lung specialists\/respiratory system experts in the group",
        "user": "UV0QTJCMT",
        "ts": "1584469890.035400",
        "team": "TUU48M0T1",
        "user_team": "TUU48M0T1",
        "source_team": "TUU48M0T1",
        "user_profile": {
            "avatar_hash": "11e3deb6d1a9",
            "image_72": "https:\/\/avatars.slack-edge.com\/2020-03-06\/986844736421_11e3deb6d1a949327ddd_72.png",
            "first_name": "Katherine",
            "real_name": "Katherine Holo",
            "display_name": "Kat Holo",
            "team": "TUU48M0T1",
            "name": "katherineh245",
            "is_restricted": false,
            "is_ultra_restricted": false
        },
        "blocks": [
            {
                "type": "rich_text",
                "block_id": "7lh",
                "elements": [
                    {
                        "type": "rich_text_section",
                        "elements": [
                            {
                                "type": "user",
                                "user_id": "UV8T52QJ3"
                            },
                            {
                                "type": "text",
                                "text": " i don't believe so, no. this would definitely be an interesting project idea to share with the "
                            },
                            {
                                "type": "channel",
                                "channel_id": "CVB9NP1L6"
                            },
                            {
                                "type": "text",
                                "text": " and perhaps see if there are any lung specialists\/respiratory system experts in the group"
                            }
                        ]
                    }
                ]
            }
        ],
        "thread_ts": "1584458279.032700",
        "parent_user_id": "UV8T52QJ3"
    },
    {
        "client_msg_id": "59ddbb61-9360-4993-aba8-2f40fab1f905",
        "type": "message",
        "text": "Someone was suggesting to use reddit to poll projects on the HE Slack. Might be good for ideas as well.",
        "user": "UUWR0FJ7M",
        "ts": "1584472977.035700",
        "team": "TUU48M0T1",
        "user_team": "TUU48M0T1",
        "source_team": "TUU48M0T1",
        "user_profile": {
            "avatar_hash": "g0851a85aef5",
            "image_72": "https:\/\/secure.gravatar.com\/avatar\/0851a85aef59ee4069c5669edd21a593.jpg?s=72&d=https%3A%2F%2Fa.slack-edge.com%2Fdf10d%2Fimg%2Favatars%2Fava_0004-72.png",
            "first_name": "manuel",
            "real_name": "manuel lannaud",
            "display_name": "manu lannaud",
            "team": "TUU48M0T1",
            "name": "slack1260",
            "is_restricted": false,
            "is_ultra_restricted": false
        },
        "blocks": [
            {
                "type": "rich_text",
                "block_id": "KS40\/",
                "elements": [
                    {
                        "type": "rich_text_section",
                        "elements": [
                            {
                                "type": "text",
                                "text": "Someone was suggesting to use reddit to poll projects on the HE Slack. Might be good for ideas as well."
                            }
                        ]
                    }
                ]
            }
        ],
        "thread_ts": "1584419266.031500",
        "parent_user_id": "UUPFF4TC3"
    },
    {
        "client_msg_id": "8eab6d57-6ecc-4d35-8714-42ab2ef41b4a",
        "type": "message",
        "text": "Anyone in need of some SARS-CoV19 proteins to test their diagnostics with? Let make our own proteins, using cell-free extracts. Extract plus plasmid could be distributed freeze dried. Just add water, and it makes your protein of interest.",
        "user": "U0102NEMRTR",
        "ts": "1584484891.037400",
        "team": "TUU48M0T1",
        "user_team": "TUU48M0T1",
        "source_team": "TUU48M0T1",
        "user_profile": {
            "avatar_hash": "g6072d132593",
            "image_72": "https:\/\/secure.gravatar.com\/avatar\/6072d132593acb6de99356666ff0ed9e.jpg?s=72&d=https%3A%2F%2Fa.slack-edge.com%2Fdf10d%2Fimg%2Favatars%2Fava_0008-72.png",
            "first_name": "",
            "real_name": "Patrik D'haeseleer",
            "display_name": "Patrik D'haeseleer",
            "team": "TUU48M0T1",
            "name": "patrikd",
            "is_restricted": false,
            "is_ultra_restricted": false
        },
        "blocks": [
            {
                "type": "rich_text",
                "block_id": "9=CVp",
                "elements": [
                    {
                        "type": "rich_text_section",
                        "elements": [
                            {
                                "type": "text",
                                "text": "Anyone in need of some SARS-CoV19 proteins to test their diagnostics with? Let make our own proteins, using cell-free extracts. Extract plus plasmid could be distributed freeze dried. Just add water, and it makes your protein of interest."
                            }
                        ]
                    }
                ]
            }
        ],
        "reactions": [
            {
                "name": "+1",
                "users": [
                    "UVA46RKLY"
                ],
                "count": 1
            }
        ]
    },
    {
        "type": "message",
        "subtype": "thread_broadcast",
        "text": "Sorry for the wait: I have m<https:\/\/docs.google.com\/document\/d\/1q1GsKq3GUH4ThPulUSo_0jqxFqJAfkzJpZGMcBCK8Sc\/edit#heading=h.rp99e75gs7oi|ade a document specifically dedicated to listing all our ideas for detection methods>. From here on out please put your ideas in that document so we can keep track of it!\n\nIt is located in the <https:\/\/drive.google.com\/drive\/folders\/1HXfeN3HYHi5U70VjQUvEqwGirqYALUa4|detection methods folder. >",
        "user": "UUPFF4TC3",
        "ts": "1584486860.038100",
        "thread_ts": "1584419266.031500",
        "root": {
            "client_msg_id": "8348BB31-8009-45F3-B7E1-A97D3C39D423",
            "type": "message",
            "text": "We should have a central document to keep track of ideas that we come up with?",
            "user": "UUPFF4TC3",
            "ts": "1584419266.031500",
            "team": "TUU48M0T1",
            "blocks": [
                {
                    "type": "rich_text",
                    "block_id": "++0",
                    "elements": [
                        {
                            "type": "rich_text_section",
                            "elements": [
                                {
                                    "type": "text",
                                    "text": "We should have a central document to keep track of ideas that we come up with?"
                                }
                            ]
                        }
                    ]
                }
            ],
            "thread_ts": "1584419266.031500",
            "reply_count": 5,
            "reply_users_count": 4,
            "latest_reply": "1584487494.038600",
            "reply_users": [
                "UV0QTJCMT",
                "UUPFF4TC3",
                "UUWR0FJ7M",
                "UV6870881"
            ],
            "replies": [
                {
                    "user": "UV0QTJCMT",
                    "ts": "1584420916.031600"
                },
                {
                    "user": "UUPFF4TC3",
                    "ts": "1584422449.031800"
                },
                {
                    "user": "UUWR0FJ7M",
                    "ts": "1584472977.035700"
                },
                {
                    "user": "UUPFF4TC3",
                    "ts": "1584486860.038100"
                },
                {
                    "user": "UV6870881",
                    "ts": "1584487494.038600"
                }
            ],
            "subscribed": false
        },
        "blocks": [
            {
                "type": "rich_text",
                "block_id": "9WmzF",
                "elements": [
                    {
                        "type": "rich_text_section",
                        "elements": [
                            {
                                "type": "text",
                                "text": "Sorry for the wait: I have m"
                            },
                            {
                                "type": "link",
                                "url": "https:\/\/docs.google.com\/document\/d\/1q1GsKq3GUH4ThPulUSo_0jqxFqJAfkzJpZGMcBCK8Sc\/edit#heading=h.rp99e75gs7oi",
                                "text": "ade a document specifically dedicated to listing all our ideas for detection methods"
                            },
                            {
                                "type": "text",
                                "text": ". From here on out please put your ideas in that document so we can keep track of it!\n\nIt is located in the "
                            },
                            {
                                "type": "link",
                                "url": "https:\/\/drive.google.com\/drive\/folders\/1HXfeN3HYHi5U70VjQUvEqwGirqYALUa4",
                                "text": "detection methods folder. "
                            }
                        ]
                    }
                ]
            }
        ],
        "client_msg_id": "b340112b-7df6-41e8-ae5c-63eafee8ef5a",
        "reactions": [
            {
                "name": "+1",
                "users": [
                    "UV6870881",
                    "UV0QTJCMT"
                ],
                "count": 2
            }
        ]
    },
    {
        "client_msg_id": "fac153bb-5ce3-4c5e-8fed-d8b1bf424baf",
        "type": "message",
        "text": "Thank u Sophie already read it and its amazingly summarized! For antibodies there are a couple of publications that have already identified some like this paper from the Netherlands identified one 47D11 for best cross reactivity. Do u knkw of anybody who can provide samples of a rare antibody? I already tried the big bames such as thermo fisher or hybridoma banks but they don't have it. <https:\/\/www.biorxiv.org\/content\/10.1101\/2020.03.11.987958v1.full.pdf|https:\/\/www.biorxiv.org\/content\/10.1101\/2020.03.11.987958v1.full.pdf>",
        "user": "UV6870881",
        "ts": "1584487494.038600",
        "team": "TUU48M0T1",
        "user_team": "TUU48M0T1",
        "source_team": "TUU48M0T1",
        "user_profile": {
            "avatar_hash": "gbbbbcc3accd",
            "image_72": "https:\/\/secure.gravatar.com\/avatar\/bbbbcc3accdddb02dfb1c03a4a65b994.jpg?s=72&d=https%3A%2F%2Fa.slack-edge.com%2Fdf10d%2Fimg%2Favatars%2Fava_0011-72.png",
            "first_name": "Quant",
            "real_name": "Quant",
            "display_name": "",
            "team": "TUU48M0T1",
            "name": "admin",
            "is_restricted": false,
            "is_ultra_restricted": false
        },
        "blocks": [
            {
                "type": "rich_text",
                "block_id": "\/g83",
                "elements": [
                    {
                        "type": "rich_text_section",
                        "elements": [
                            {
                                "type": "text",
                                "text": "Thank u Sophie already read it and its amazingly summarized! For antibodies there are a couple of publications that have already identified some like this paper from the Netherlands identified one 47D11 for best cross reactivity. Do u knkw of anybody who can provide samples of a rare antibody? I already tried the big bames such as thermo fisher or hybridoma banks but they don't have it. "
                            },
                            {
                                "type": "link",
                                "url": "https:\/\/www.biorxiv.org\/content\/10.1101\/2020.03.11.987958v1.full.pdf",
                                "text": "https:\/\/www.biorxiv.org\/content\/10.1101\/2020.03.11.987958v1.full.pdf"
                            }
                        ]
                    }
                ]
            }
        ],
        "thread_ts": "1584419266.031500",
        "parent_user_id": "UUPFF4TC3"
    }
]