[
    {
        "type": "message",
        "subtype": "channel_join",
        "ts": "1584325899.000200",
        "user": "UV4BCQ11P",
        "text": "<@UV4BCQ11P> has joined the channel"
    },
    {
        "type": "message",
        "subtype": "channel_purpose",
        "ts": "1584325900.000300",
        "user": "UV4BCQ11P",
        "text": "<@UV4BCQ11P> set the channel purpose: <https:\/\/docs.google.com\/document\/d\/1wNbwufB4_OMa8BQcqwaNREBWPR16uVVz8vxM_rwYFRY\/edit#>",
        "purpose": "<https:\/\/docs.google.com\/document\/d\/1wNbwufB4_OMa8BQcqwaNREBWPR16uVVz8vxM_rwYFRY\/edit#>"
    },
    {
        "client_msg_id": "5b61ed5c-ae7d-48be-a853-5be93fc2aea5",
        "type": "message",
        "text": "Hey guys, you might want to add nanopore sequencing as a detection method <https:\/\/artic.network\/ncov-2019>",
        "user": "UV4BCQ11P",
        "ts": "1584325960.001000",
        "team": "TUU48M0T1",
        "user_team": "TUU48M0T1",
        "source_team": "TUU48M0T1",
        "user_profile": {
            "avatar_hash": "49caac283d02",
            "image_72": "https:\/\/avatars.slack-edge.com\/2020-03-16\/1003952583750_49caac283d02479ba7d2_72.png",
            "first_name": "Kahlil",
            "real_name": "Kahlil Corazo",
            "display_name": "Kahlil Corazo",
            "team": "TUU48M0T1",
            "name": "bio",
            "is_restricted": false,
            "is_ultra_restricted": false
        },
        "blocks": [
            {
                "type": "rich_text",
                "block_id": "ZsQyv",
                "elements": [
                    {
                        "type": "rich_text_section",
                        "elements": [
                            {
                                "type": "text",
                                "text": "Hey guys, you might want to add nanopore sequencing as a detection method "
                            },
                            {
                                "type": "link",
                                "url": "https:\/\/artic.network\/ncov-2019"
                            }
                        ]
                    }
                ]
            }
        ]
    }
]