[
    {
        "client_msg_id": "b5e10ce8-e3cb-4ee7-bdc3-15a829c63250",
        "type": "message",
        "text": "Here is another useful specification <https:\/\/assets.publishing.service.gov.uk\/government\/uploads\/system\/uploads\/attachment_data\/file\/874279\/RMVS001_Rapidly_Manufactured_Ventilator_Specification__PDF.pdf>",
        "user": "U010B4EJG2C",
        "ts": "1584876654.111200",
        "team": "TUU48M0T1",
        "user_team": "TUU48M0T1",
        "source_team": "TUU48M0T1",
        "user_profile": {
            "avatar_hash": "5c9626d7b328",
            "image_72": "https:\/\/avatars.slack-edge.com\/2020-03-19\/1011171782821_5c9626d7b328e5dc84ea_72.jpg",
            "first_name": "Adam",
            "real_name": "Adam Krovina",
            "display_name": "Adam Krovina",
            "team": "TUU48M0T1",
            "name": "adam",
            "is_restricted": false,
            "is_ultra_restricted": false
        },
        "blocks": [
            {
                "type": "rich_text",
                "block_id": "jU1",
                "elements": [
                    {
                        "type": "rich_text_section",
                        "elements": [
                            {
                                "type": "text",
                                "text": "Here is another useful specification "
                            },
                            {
                                "type": "link",
                                "url": "https:\/\/assets.publishing.service.gov.uk\/government\/uploads\/system\/uploads\/attachment_data\/file\/874279\/RMVS001_Rapidly_Manufactured_Ventilator_Specification__PDF.pdf"
                            }
                        ]
                    }
                ]
            }
        ]
    },
    {
        "client_msg_id": "4583bfe0-284c-4aa9-ae51-8764abbd2083",
        "type": "message",
        "text": "Do we need the RAMPS board? A ESP32 can have enough flash rom and can give us BLE. That will make the Phone option.",
        "user": "U0106PLV8PJ",
        "ts": "1584891221.111400",
        "team": "TUU48M0T1",
        "user_team": "TUU48M0T1",
        "source_team": "TUU48M0T1",
        "user_profile": {
            "avatar_hash": "g2cfc1aee243",
            "image_72": "https:\/\/secure.gravatar.com\/avatar\/2cfc1aee24305a18a647efef16d68e02.jpg?s=72&d=https%3A%2F%2Fa.slack-edge.com%2Fdf10d%2Fimg%2Favatars%2Fava_0012-72.png",
            "first_name": "",
            "real_name": "Rupin Chheda",
            "display_name": "",
            "team": "TUU48M0T1",
            "name": "rupin.chheda",
            "is_restricted": false,
            "is_ultra_restricted": false
        },
        "blocks": [
            {
                "type": "rich_text",
                "block_id": "09p3",
                "elements": [
                    {
                        "type": "rich_text_section",
                        "elements": [
                            {
                                "type": "text",
                                "text": "Do we need the RAMPS board? A ESP32 can have enough flash rom and can give us BLE. That will make the Phone option."
                            }
                        ]
                    }
                ]
            }
        ],
        "thread_ts": "1584796297.090900",
        "parent_user_id": "U010B4EJG2C"
    },
    {
        "client_msg_id": "de0adf1b-4599-447d-adc9-63bfc9aff220",
        "type": "message",
        "text": "optional *",
        "user": "U0106PLV8PJ",
        "ts": "1584891231.111600",
        "team": "TUU48M0T1",
        "user_team": "TUU48M0T1",
        "source_team": "TUU48M0T1",
        "user_profile": {
            "avatar_hash": "g2cfc1aee243",
            "image_72": "https:\/\/secure.gravatar.com\/avatar\/2cfc1aee24305a18a647efef16d68e02.jpg?s=72&d=https%3A%2F%2Fa.slack-edge.com%2Fdf10d%2Fimg%2Favatars%2Fava_0012-72.png",
            "first_name": "",
            "real_name": "Rupin Chheda",
            "display_name": "",
            "team": "TUU48M0T1",
            "name": "rupin.chheda",
            "is_restricted": false,
            "is_ultra_restricted": false
        },
        "blocks": [
            {
                "type": "rich_text",
                "block_id": "T335q",
                "elements": [
                    {
                        "type": "rich_text_section",
                        "elements": [
                            {
                                "type": "text",
                                "text": "optional *"
                            }
                        ]
                    }
                ]
            }
        ],
        "thread_ts": "1584796297.090900",
        "parent_user_id": "U010B4EJG2C"
    },
    {
        "client_msg_id": "71cf476b-94ec-4c49-b4bf-c148fbcdb225",
        "type": "message",
        "text": "It will have its challenges getting certified with 2.4G radio in a medical environment",
        "user": "U0106PLV8PJ",
        "ts": "1584891257.111800",
        "team": "TUU48M0T1",
        "user_team": "TUU48M0T1",
        "source_team": "TUU48M0T1",
        "user_profile": {
            "avatar_hash": "g2cfc1aee243",
            "image_72": "https:\/\/secure.gravatar.com\/avatar\/2cfc1aee24305a18a647efef16d68e02.jpg?s=72&d=https%3A%2F%2Fa.slack-edge.com%2Fdf10d%2Fimg%2Favatars%2Fava_0012-72.png",
            "first_name": "",
            "real_name": "Rupin Chheda",
            "display_name": "",
            "team": "TUU48M0T1",
            "name": "rupin.chheda",
            "is_restricted": false,
            "is_ultra_restricted": false
        },
        "edited": {
            "user": "U0106PLV8PJ",
            "ts": "1584891273.000000"
        },
        "blocks": [
            {
                "type": "rich_text",
                "block_id": "xChY",
                "elements": [
                    {
                        "type": "rich_text_section",
                        "elements": [
                            {
                                "type": "text",
                                "text": "It will have its challenges getting certified with 2.4G radio in a medical environment"
                            }
                        ]
                    }
                ]
            }
        ],
        "thread_ts": "1584796297.090900",
        "parent_user_id": "U010B4EJG2C"
    },
    {
        "client_msg_id": "702eb951-5eb3-4dee-9993-a65b8bda9a28",
        "type": "message",
        "text": "Can an oxygen sensor from a car work in this case?",
        "user": "U0106PLV8PJ",
        "ts": "1584891324.112100",
        "team": "TUU48M0T1",
        "user_team": "TUU48M0T1",
        "source_team": "TUU48M0T1",
        "user_profile": {
            "avatar_hash": "g2cfc1aee243",
            "image_72": "https:\/\/secure.gravatar.com\/avatar\/2cfc1aee24305a18a647efef16d68e02.jpg?s=72&d=https%3A%2F%2Fa.slack-edge.com%2Fdf10d%2Fimg%2Favatars%2Fava_0012-72.png",
            "first_name": "",
            "real_name": "Rupin Chheda",
            "display_name": "",
            "team": "TUU48M0T1",
            "name": "rupin.chheda",
            "is_restricted": false,
            "is_ultra_restricted": false
        },
        "blocks": [
            {
                "type": "rich_text",
                "block_id": "Ub9Cu",
                "elements": [
                    {
                        "type": "rich_text_section",
                        "elements": [
                            {
                                "type": "text",
                                "text": "Can an oxygen sensor from a car work in this case?"
                            }
                        ]
                    }
                ]
            }
        ],
        "thread_ts": "1584747678.082100",
        "parent_user_id": "U010B4EJG2C"
    },
    {
        "client_msg_id": "8995490a-3a1f-4472-a1f8-073f276aca97",
        "type": "message",
        "text": "I'm not sure. Lambda sensors detect the oxygen ions present in the exhaust gas mixture. I'm not sure that such ions are produced in an inert Nitrogen-Oxygen mixture such as air",
        "user": "UV2P3AQEN",
        "ts": "1584894870.112300",
        "team": "TUU48M0T1",
        "user_team": "TUU48M0T1",
        "source_team": "TUU48M0T1",
        "user_profile": {
            "avatar_hash": "82d977ce9645",
            "image_72": "https:\/\/avatars.slack-edge.com\/2020-03-16\/1003452392327_82d977ce9645ebc30917_72.jpg",
            "first_name": "Antonio",
            "real_name": "Antonio Mangiapane",
            "display_name": "Antonio Mangiapane",
            "team": "TUU48M0T1",
            "name": "antonio.mangiapane29",
            "is_restricted": false,
            "is_ultra_restricted": false
        },
        "blocks": [
            {
                "type": "rich_text",
                "block_id": "Fz+",
                "elements": [
                    {
                        "type": "rich_text_section",
                        "elements": [
                            {
                                "type": "text",
                                "text": "I'm not sure. Lambda sensors detect the oxygen ions present in the exhaust gas mixture. I'm not sure that such ions are produced in an inert Nitrogen-Oxygen mixture such as air"
                            }
                        ]
                    }
                ]
            }
        ],
        "thread_ts": "1584747678.082100",
        "parent_user_id": "U010B4EJG2C"
    },
    {
        "type": "message",
        "text": "",
        "user": "UV6870881",
        "ts": "1584925678.112800",
        "team": "TUU48M0T1",
        "user_team": "TUU48M0T1",
        "source_team": "TUU48M0T1",
        "user_profile": {
            "avatar_hash": "gbbbbcc3accd",
            "image_72": "https:\/\/secure.gravatar.com\/avatar\/bbbbcc3accdddb02dfb1c03a4a65b994.jpg?s=72&d=https%3A%2F%2Fa.slack-edge.com%2Fdf10d%2Fimg%2Favatars%2Fava_0011-72.png",
            "first_name": "Quant",
            "real_name": "Quant",
            "display_name": "",
            "team": "TUU48M0T1",
            "name": "admin",
            "is_restricted": false,
            "is_ultra_restricted": false
        },
        "attachments": [
            {
                "fallback": "[March 21st, 2020 5:49 PM] anthonybudd94: Hi Everyone,\n<@UV8FL0JCA> recommended that I join this slack. I am a Node.js and PHP expert. I run a small 3D printing platform called 3PS. I have just opened the back-end to anyone with a 3D printer. This creates a free global decentralised manufacturing platform where doctors can easily order the open-source equipment they need, then the order can be fulfilled by the 3D printing community. In the past 48 hours 1000+ new printers arround the world have became available,\nI’m looking for:\n• Doctors\/Medical Organisations that need 3D printed parts\n• Designers who need test prints \n<https:\/\/ideea.io\/3ps\/covid-19>",
                "ts": "1584827368.277500",
                "author_id": "U010H3V5F3P",
                "author_subname": "Anthony C. Budd",
                "channel_id": "C0102E5J2S3",
                "channel_name": "prgm-introductions",
                "is_msg_unfurl": true,
                "is_thread_root_unfurl": true,
                "text": "Hi Everyone,\n<@UV8FL0JCA> recommended that I join this slack. I am a Node.js and PHP expert. I run a small 3D printing platform called 3PS. I have just opened the back-end to anyone with a 3D printer. This creates a free global decentralised manufacturing platform where doctors can easily order the open-source equipment they need, then the order can be fulfilled by the 3D printing community. In the past 48 hours 1000+ new printers arround the world have became available,\nI’m looking for:\n• Doctors\/Medical Organisations that need 3D printed parts\n• Designers who need test prints \n<https:\/\/ideea.io\/3ps\/covid-19>",
                "author_name": "Anthony C. Budd",
                "author_link": "https:\/\/open-covid19.slack.com\/team\/U010H3V5F3P",
                "author_icon": "https:\/\/avatars.slack-edge.com\/2020-03-21\/1007050949745_cfe476bc1d11d1c714b1_48.jpg",
                "mrkdwn_in": [
                    "text"
                ],
                "color": "D0D0D0",
                "from_url": "https:\/\/open-covid19.slack.com\/archives\/C0102E5J2S3\/p1584827368277500?thread_ts=1584827368277500&cid=C0102E5J2S3",
                "is_share": true,
                "footer": "Thread in #prgm-introductions"
            }
        ],
        "blocks": [
            {
                "type": "rich_text",
                "block_id": "U3H+G",
                "elements": [
                    {
                        "type": "rich_text_section",
                        "elements": []
                    }
                ]
            }
        ]
    },
    {
        "client_msg_id": "9cec2278-54bb-440e-9038-94834658f05f",
        "type": "message",
        "text": "Arduino methodology: <https:\/\/www.ijitee.org\/wp-content\/uploads\/papers\/v9i1\/A5056119119.pdf>",
        "user": "U010HGC63BN",
        "ts": "1584930374.113800",
        "team": "TUU48M0T1",
        "user_team": "TUU48M0T1",
        "source_team": "TUU48M0T1",
        "user_profile": {
            "avatar_hash": "g6a9f7663928",
            "image_72": "https:\/\/secure.gravatar.com\/avatar\/6a9f7663928870bedd87a81129d4de7d.jpg?s=72&d=https%3A%2F%2Fa.slack-edge.com%2Fdf10d%2Fimg%2Favatars%2Fava_0009-72.png",
            "first_name": "",
            "real_name": "Ian Campbell",
            "display_name": "Ian Campbell",
            "team": "TUU48M0T1",
            "name": "icampbell",
            "is_restricted": false,
            "is_ultra_restricted": false
        },
        "blocks": [
            {
                "type": "rich_text",
                "block_id": "Ad6=d",
                "elements": [
                    {
                        "type": "rich_text_section",
                        "elements": [
                            {
                                "type": "text",
                                "text": "Arduino methodology: "
                            },
                            {
                                "type": "link",
                                "url": "https:\/\/www.ijitee.org\/wp-content\/uploads\/papers\/v9i1\/A5056119119.pdf"
                            }
                        ]
                    }
                ]
            }
        ]
    },
    {
        "client_msg_id": "0a07ba60-7445-46f4-94ac-b064375df200",
        "type": "message",
        "text": "other ideas for field and emergency civilian ventilators: <https:\/\/pdfs.semanticscholar.org\/5343\/ffbd715a20b4d6367d6a7eca699ec8cb4472.pdf?_ga=2.223336216.247403934.1584930660-1249002.1584930660>",
        "user": "U010HGC63BN",
        "ts": "1584930746.114700",
        "team": "TUU48M0T1",
        "user_team": "TUU48M0T1",
        "source_team": "TUU48M0T1",
        "user_profile": {
            "avatar_hash": "g6a9f7663928",
            "image_72": "https:\/\/secure.gravatar.com\/avatar\/6a9f7663928870bedd87a81129d4de7d.jpg?s=72&d=https%3A%2F%2Fa.slack-edge.com%2Fdf10d%2Fimg%2Favatars%2Fava_0009-72.png",
            "first_name": "",
            "real_name": "Ian Campbell",
            "display_name": "Ian Campbell",
            "team": "TUU48M0T1",
            "name": "icampbell",
            "is_restricted": false,
            "is_ultra_restricted": false
        },
        "blocks": [
            {
                "type": "rich_text",
                "block_id": "9i6U",
                "elements": [
                    {
                        "type": "rich_text_section",
                        "elements": [
                            {
                                "type": "text",
                                "text": "other ideas for field and emergency civilian ventilators: "
                            },
                            {
                                "type": "link",
                                "url": "https:\/\/pdfs.semanticscholar.org\/5343\/ffbd715a20b4d6367d6a7eca699ec8cb4472.pdf?_ga=2.223336216.247403934.1584930660-1249002.1584930660"
                            }
                        ]
                    }
                ]
            }
        ]
    },
    {
        "client_msg_id": "4465f444-1e7a-4e67-9537-02065574bd22",
        "type": "message",
        "text": "Hi Juraj, i think the values are expressed in relative oxygen pressure, in %",
        "user": "U01081Y0TBP",
        "ts": "1584944874.114800",
        "team": "TUU48M0T1",
        "user_team": "TUU48M0T1",
        "source_team": "TUU48M0T1",
        "user_profile": {
            "avatar_hash": "60ec5b47107a",
            "image_72": "https:\/\/avatars.slack-edge.com\/2020-03-18\/995274181218_60ec5b47107a3bd2ca7d_72.jpg",
            "first_name": "Peter",
            "real_name": "Peter Kooren",
            "display_name": "Peter Kooren",
            "team": "TUU48M0T1",
            "name": "peterkooren",
            "is_restricted": false,
            "is_ultra_restricted": false
        },
        "blocks": [
            {
                "type": "rich_text",
                "block_id": "DbW",
                "elements": [
                    {
                        "type": "rich_text_section",
                        "elements": [
                            {
                                "type": "text",
                                "text": "Hi Juraj, i think the values are expressed in relative oxygen pressure, in %"
                            }
                        ]
                    }
                ]
            }
        ],
        "thread_ts": "1584794663.088500",
        "parent_user_id": "U0108DWH5NH"
    }
]